M48
;Layer_Color=9474304
;FILE_FORMAT=4:4
METRIC,TZ
;TYPE=PLATED
T1F00S00C0.3000
T2F00S00C0.4000
T3F00S00C0.5000
T4F00S00C1.0500
T5F00S00C1.0668
T6F00S00C1.7000
T7F00S00C2.0000
T8F00S00C2.2000
T9F00S00C3.1000
T10F00S00C4.6000
%
T01
X-14000Y-207000
X-7620Y-210320
X-254Y-212098
X8636Y-210066
X15494Y-206256
X20066Y-200160
X22098Y-191524
X20828Y-183396
X16764Y-176030
X10160Y-170950
X2540Y-168410
X-6350Y-168664
X-13716Y-171966
X-18796Y-177808
X-21844Y-185428
X-22000Y-194000
X-18796Y-201176
X-14000Y243000
X-7620Y239680
X-254Y237902
X8636Y239934
X15494Y243744
X20066Y249840
X22098Y258476
X20828Y266604
X16764Y273970
X10160Y279050
X2540Y281590
X-6350Y281336
X-13716Y278034
X-18796Y272192
X-21844Y264572
X-22000Y256000
X-18796Y248824
T02
X-125000Y-300000
Y-250000
Y-225000
Y-200000
Y-175000
Y-150000
Y-125000
X-100000
Y-150000
Y-175000
Y-200000
Y-225000
Y-250000
X-75000Y-275000
X-50000
Y-300000
X-25000
X25000
X50000
Y-275000
X75000
Y-300000
X100000
X125000
Y-275000
Y-250000
Y-225000
X100000
X75000
Y-200000
Y-175000
Y-150000
Y-125000
X100000
Y-150000
Y-175000
Y-200000
X125000
Y-175000
Y-150000
Y-125000
X-75000
Y-150000
Y-175000
Y-200000
Y-225000
Y-300000
Y-100000
X-100000
Y-75000
X-75000
X-50000
X-100000Y-50000
Y-25000
Y0
Y25000
Y50000
X-75000
Y25000
X-50000
Y0
X50000
Y25000
X25000
Y125000
X-25000
X-50000
X-75000
Y100000
Y75000
X-100000Y100000
Y125000
Y150000
X-75000
X-50000
X-25000
Y175000
X-50000
X-75000
X-100000
X-75000Y200000
X-50000
X-25000
Y225000
X-50000
X-75000
Y250000
X-50000
Y275000
X-75000
X50000
Y250000
Y225000
Y200000
X75000
X100000
Y175000
Y150000
X125000
Y125000
X150000
Y100000
Y75000
X125000
Y50000
Y25000
X150000
Y50000
X125000Y0
Y-25000
Y-50000
Y-75000
Y-100000
X100000
X75000
Y-75000
X100000
X125000Y100000
X175000Y125000
Y150000
X150000
Y175000
X125000
X175000
Y200000
X75000Y175000
Y225000
Y250000
Y275000
X25000Y225000
Y200000
X-125000Y175000
Y150000
Y125000
Y100000
Y75000
X-150000
Y50000
Y25000
X-125000
Y0
Y-25000
Y-50000
Y-75000
Y-100000
Y50000
X-150000Y100000
Y125000
X-175000
Y150000
X-150000
Y175000
X-175000
X-75000Y300000
X-50000
X-25000
X25000
X50000
X75000
T03
X-102500Y232500
Y250000
Y267500
Y285000
X102500
Y267500
Y250000
Y232500
X120000
X137500Y232500
X155000
X172500Y232500
Y250000
Y267500
Y285000
X155000
Y267500
Y250000
X137500
X120000Y250000
Y267500
Y285000
X137500
X-120000
Y267500
Y250000
X-137500
X-155000Y250000
Y267500
Y285000
X-137500
X-172500
Y267500
Y250000
Y232500
X-155000
X-137500Y232500
X-120000
Y302500
X-137500
X-155000
X-172500
X-102500
X102500
X120000
X137500
X155000
X172500
T04
X-90000Y-260000
X-70000
X-50000
X-30000
X-10000
X10000
X30000
X50000
X70000
T05
X-50800Y-20000
X-25400
X0
X25400
X50800
T06
X-30000Y-90000
X30000
X0Y160000
T07
X137500Y267500
X-137500
T08
X-110000Y-285000
X100000Y-265000
T09
X-0Y-190000
Y260000
T10
X-36000Y80000
X36000
M30
