% $ biblatex auxiliary file $
% $ biblatex bbl format version 3.2 $
% Do not modify the above lines!
%
% This is an auxiliary file used by the 'biblatex' package.
% This file may safely be deleted. It will be recreated by
% biber as required.
%
\begingroup
\makeatletter
\@ifundefined{ver@biblatex.sty}
  {\@latex@error
     {Missing 'biblatex' package}
     {The bibliography requires the 'biblatex' package.}
      \aftergroup\endinput}
  {}
\endgroup


\refsection{0}
  \datalist[entry]{none/global//global/global}
    \entry{cite:turtlebot3}{online}{}
      \name{author}{1}{}{%
        {{hash=48de781d185a65a1eed37d4fdfbf3fe2}{%
           family={ROBOTIS},
           familyi={R\bibinitperiod},
           given={INC.},
           giveni={I\bibinitperiod}}}%
      }
      \strng{namehash}{48de781d185a65a1eed37d4fdfbf3fe2}
      \strng{fullhash}{48de781d185a65a1eed37d4fdfbf3fe2}
      \strng{bibnamehash}{48de781d185a65a1eed37d4fdfbf3fe2}
      \strng{authorbibnamehash}{48de781d185a65a1eed37d4fdfbf3fe2}
      \strng{authornamehash}{48de781d185a65a1eed37d4fdfbf3fe2}
      \strng{authorfullhash}{48de781d185a65a1eed37d4fdfbf3fe2}
      \field{sortinit}{4}
      \field{sortinithash}{9381316451d1b9788675a07e972a12a7}
      \field{labelnamesource}{author}
      \field{labeltitlesource}{title}
      \field{title}{{TurtlBot 3}}
      \field{urlday}{12}
      \field{urlmonth}{8}
      \field{urlyear}{2023}
      \field{urldateera}{ce}
      \verb{urlraw}
      \verb https://www.robotis.us/turtlebot-3/
      \endverb
      \verb{url}
      \verb https://www.robotis.us/turtlebot-3/
      \endverb
    \endentry
    \entry{cite:turtlebot4}{online}{}
      \name{author}{1}{}{%
        {{hash=510eec87eeb1ed2f724b85ce2b1dfa39}{%
           family={elektronik},
           familyi={e\bibinitperiod},
           given={Reichelt},
           giveni={R\bibinitperiod}}}%
      }
      \strng{namehash}{510eec87eeb1ed2f724b85ce2b1dfa39}
      \strng{fullhash}{510eec87eeb1ed2f724b85ce2b1dfa39}
      \strng{bibnamehash}{510eec87eeb1ed2f724b85ce2b1dfa39}
      \strng{authorbibnamehash}{510eec87eeb1ed2f724b85ce2b1dfa39}
      \strng{authornamehash}{510eec87eeb1ed2f724b85ce2b1dfa39}
      \strng{authorfullhash}{510eec87eeb1ed2f724b85ce2b1dfa39}
      \field{sortinit}{6}
      \field{sortinithash}{b33bc299efb3c36abec520a4c896a66d}
      \field{labelnamesource}{author}
      \field{labeltitlesource}{title}
      \field{title}{{TurtlBot 4}}
      \field{urlday}{12}
      \field{urlmonth}{8}
      \field{urlyear}{2023}
      \field{urldateera}{ce}
      \verb{urlraw}
      \verb https://www.reichelt.com/de/en/turtlebot-4-pro-tb4-pro-p330320.html
      \endverb
      \verb{url}
      \verb https://www.reichelt.com/de/en/turtlebot-4-pro-tb4-pro-p330320.html
      \endverb
    \endentry
    \entry{cite:rosbot2pro}{online}{}
      \name{author}{1}{}{%
        {{hash=d8bb87eb7dca00374923f60cd522c533}{%
           family={Husarion},
           familyi={H\bibinitperiod}}}%
      }
      \strng{namehash}{d8bb87eb7dca00374923f60cd522c533}
      \strng{fullhash}{d8bb87eb7dca00374923f60cd522c533}
      \strng{bibnamehash}{d8bb87eb7dca00374923f60cd522c533}
      \strng{authorbibnamehash}{d8bb87eb7dca00374923f60cd522c533}
      \strng{authornamehash}{d8bb87eb7dca00374923f60cd522c533}
      \strng{authorfullhash}{d8bb87eb7dca00374923f60cd522c533}
      \field{extraname}{1}
      \field{sortinit}{8}
      \field{sortinithash}{a231b008ebf0ecbe0b4d96dcc159445f}
      \field{labelnamesource}{author}
      \field{labeltitlesource}{title}
      \field{title}{{ROSbot 2 PRO}}
      \field{urlday}{12}
      \field{urlmonth}{8}
      \field{urlyear}{2023}
      \field{urldateera}{ce}
      \verb{urlraw}
      \verb https://husarion.com/manuals/rosbot/
      \endverb
      \verb{url}
      \verb https://husarion.com/manuals/rosbot/
      \endverb
    \endentry
    \entry{cite:rosbotxl}{online}{}
      \name{author}{1}{}{%
        {{hash=d8bb87eb7dca00374923f60cd522c533}{%
           family={Husarion},
           familyi={H\bibinitperiod}}}%
      }
      \strng{namehash}{d8bb87eb7dca00374923f60cd522c533}
      \strng{fullhash}{d8bb87eb7dca00374923f60cd522c533}
      \strng{bibnamehash}{d8bb87eb7dca00374923f60cd522c533}
      \strng{authorbibnamehash}{d8bb87eb7dca00374923f60cd522c533}
      \strng{authornamehash}{d8bb87eb7dca00374923f60cd522c533}
      \strng{authorfullhash}{d8bb87eb7dca00374923f60cd522c533}
      \field{extraname}{2}
      \field{sortinit}{1}
      \field{sortinithash}{4f6aaa89bab872aa0999fec09ff8e98a}
      \field{labelnamesource}{author}
      \field{labeltitlesource}{title}
      \field{title}{{ROSbot XL}}
      \field{urlday}{12}
      \field{urlmonth}{8}
      \field{urlyear}{2023}
      \field{urldateera}{ce}
      \verb{urlraw}
      \verb https://husarion.com/manuals/rosbot-xl/
      \endverb
      \verb{url}
      \verb https://husarion.com/manuals/rosbot-xl/
      \endverb
    \endentry
    \entry{cite:summit_xl}{online}{}
      \name{author}{1}{}{%
        {{hash=c5653aa46fcc9de66837c455ee21f8af}{%
           family={Sim},
           familyi={S\bibinitperiod},
           given={The\bibnamedelima Construct},
           giveni={T\bibinitperiod\bibinitdelim C\bibinitperiod}}}%
      }
      \strng{namehash}{c5653aa46fcc9de66837c455ee21f8af}
      \strng{fullhash}{c5653aa46fcc9de66837c455ee21f8af}
      \strng{bibnamehash}{c5653aa46fcc9de66837c455ee21f8af}
      \strng{authorbibnamehash}{c5653aa46fcc9de66837c455ee21f8af}
      \strng{authornamehash}{c5653aa46fcc9de66837c455ee21f8af}
      \strng{authorfullhash}{c5653aa46fcc9de66837c455ee21f8af}
      \field{sortinit}{1}
      \field{sortinithash}{4f6aaa89bab872aa0999fec09ff8e98a}
      \field{labelnamesource}{author}
      \field{labeltitlesource}{title}
      \field{title}{{Mastering with ROS: SUMMIT XL}}
      \field{urlday}{12}
      \field{urlmonth}{8}
      \field{urlyear}{2023}
      \field{urldateera}{ce}
      \verb{urlraw}
      \verb https://www.theconstructsim.com/robotigniteacademy_learnros/ros-courses-library/mastering-ros-summit-xl/
      \endverb
      \verb{url}
      \verb https://www.theconstructsim.com/robotigniteacademy_learnros/ros-courses-library/mastering-ros-summit-xl/
      \endverb
    \endentry
    \entry{cite:dingo}{online}{}
      \name{author}{1}{}{%
        {{hash=16ba02ba86b5ca625c6bf73d7331abb1}{%
           family={Inc.},
           familyi={I\bibinitperiod},
           given={Clearpath\bibnamedelima Robotics},
           giveni={C\bibinitperiod\bibinitdelim R\bibinitperiod}}}%
      }
      \strng{namehash}{16ba02ba86b5ca625c6bf73d7331abb1}
      \strng{fullhash}{16ba02ba86b5ca625c6bf73d7331abb1}
      \strng{bibnamehash}{16ba02ba86b5ca625c6bf73d7331abb1}
      \strng{authorbibnamehash}{16ba02ba86b5ca625c6bf73d7331abb1}
      \strng{authornamehash}{16ba02ba86b5ca625c6bf73d7331abb1}
      \strng{authorfullhash}{16ba02ba86b5ca625c6bf73d7331abb1}
      \field{sortinit}{1}
      \field{sortinithash}{4f6aaa89bab872aa0999fec09ff8e98a}
      \field{labelnamesource}{author}
      \field{labeltitlesource}{title}
      \field{title}{{DINGO - Indoor Robotic Platform}}
      \field{urlday}{12}
      \field{urlmonth}{8}
      \field{urlyear}{2023}
      \field{urldateera}{ce}
      \verb{urlraw}
      \verb https://www.generationrobots.com/media/DINGO_Datasheet_2020v2.pdf
      \endverb
      \verb{url}
      \verb https://www.generationrobots.com/media/DINGO_Datasheet_2020v2.pdf
      \endverb
    \endentry
    \entry{cite:KUKA}{online}{}
      \name{author}{1}{}{%
        {{hash=183d075562f29d6c66dfd0c690904248}{%
           family={TURBOSQUID},
           familyi={T\bibinitperiod}}}%
      }
      \strng{namehash}{183d075562f29d6c66dfd0c690904248}
      \strng{fullhash}{183d075562f29d6c66dfd0c690904248}
      \strng{bibnamehash}{183d075562f29d6c66dfd0c690904248}
      \strng{authorbibnamehash}{183d075562f29d6c66dfd0c690904248}
      \strng{authornamehash}{183d075562f29d6c66dfd0c690904248}
      \strng{authorfullhash}{183d075562f29d6c66dfd0c690904248}
      \field{sortinit}{1}
      \field{sortinithash}{4f6aaa89bab872aa0999fec09ff8e98a}
      \field{labelnamesource}{author}
      \field{labeltitlesource}{title}
      \field{title}{{Kuka Youbot 3D model}}
      \field{urlday}{12}
      \field{urlmonth}{8}
      \field{urlyear}{2023}
      \field{urldateera}{ce}
      \verb{urlraw}
      \verb https://www.turbosquid.com/3d-models/kuka-youbot-3d-model-1158728
      \endverb
      \verb{url}
      \verb https://www.turbosquid.com/3d-models/kuka-youbot-3d-model-1158728
      \endverb
    \endentry
    \entry{cite:VOLTA}{online}{}
      \name{author}{1}{}{%
        {{hash=895fc5ee9e5286a3f421b13754506fbe}{%
           family={Botsync},
           familyi={B\bibinitperiod}}}%
      }
      \strng{namehash}{895fc5ee9e5286a3f421b13754506fbe}
      \strng{fullhash}{895fc5ee9e5286a3f421b13754506fbe}
      \strng{bibnamehash}{895fc5ee9e5286a3f421b13754506fbe}
      \strng{authorbibnamehash}{895fc5ee9e5286a3f421b13754506fbe}
      \strng{authornamehash}{895fc5ee9e5286a3f421b13754506fbe}
      \strng{authorfullhash}{895fc5ee9e5286a3f421b13754506fbe}
      \field{sortinit}{1}
      \field{sortinithash}{4f6aaa89bab872aa0999fec09ff8e98a}
      \field{labelnamesource}{author}
      \field{labeltitlesource}{title}
      \field{title}{{VOLTA}}
      \field{urlday}{12}
      \field{urlmonth}{8}
      \field{urlyear}{2023}
      \field{urldateera}{ce}
      \verb{urlraw}
      \verb https://www.botsync.co/volta
      \endverb
      \verb{url}
      \verb https://www.botsync.co/volta
      \endverb
    \endentry
    \entry{cite:MistiII}{online}{}
      \name{author}{1}{}{%
        {{hash=4ef3805c1d583d88a990e09806a6627e}{%
           family={Technologies},
           familyi={T\bibinitperiod},
           given={Westminster},
           giveni={W\bibinitperiod}}}%
      }
      \strng{namehash}{4ef3805c1d583d88a990e09806a6627e}
      \strng{fullhash}{4ef3805c1d583d88a990e09806a6627e}
      \strng{bibnamehash}{4ef3805c1d583d88a990e09806a6627e}
      \strng{authorbibnamehash}{4ef3805c1d583d88a990e09806a6627e}
      \strng{authornamehash}{4ef3805c1d583d88a990e09806a6627e}
      \strng{authorfullhash}{4ef3805c1d583d88a990e09806a6627e}
      \field{sortinit}{2}
      \field{sortinithash}{8b555b3791beccb63322c22f3320aa9a}
      \field{labelnamesource}{author}
      \field{labeltitlesource}{title}
      \field{title}{{Misti II}}
      \field{urlday}{12}
      \field{urlmonth}{8}
      \field{urlyear}{2023}
      \field{urldateera}{ce}
      \verb{urlraw}
      \verb https://www.westminstertech.com/products/rai-misty-ii
      \endverb
      \verb{url}
      \verb https://www.westminstertech.com/products/rai-misty-ii
      \endverb
    \endentry
    \entry{cite:RMP220}{online}{}
      \name{author}{1}{}{%
        {{hash=b1bc816c787aca57462b3ae979207e8f}{%
           family={Robotics},
           familyi={R\bibinitperiod},
           given={Segway},
           giveni={S\bibinitperiod}}}%
      }
      \strng{namehash}{b1bc816c787aca57462b3ae979207e8f}
      \strng{fullhash}{b1bc816c787aca57462b3ae979207e8f}
      \strng{bibnamehash}{b1bc816c787aca57462b3ae979207e8f}
      \strng{authorbibnamehash}{b1bc816c787aca57462b3ae979207e8f}
      \strng{authornamehash}{b1bc816c787aca57462b3ae979207e8f}
      \strng{authorfullhash}{b1bc816c787aca57462b3ae979207e8f}
      \field{extraname}{1}
      \field{sortinit}{2}
      \field{sortinithash}{8b555b3791beccb63322c22f3320aa9a}
      \field{labelnamesource}{author}
      \field{labeltitlesource}{title}
      \field{title}{{RMP Lite 220 - Robotics Mobility Platform Kit}}
      \field{urlday}{12}
      \field{urlmonth}{8}
      \field{urlyear}{2023}
      \field{urldateera}{ce}
      \verb{urlraw}
      \verb https://robotics.segway.com/
      \endverb
      \verb{url}
      \verb https://robotics.segway.com/
      \endverb
    \endentry
    \entry{cite:selected_BLDC_motor}{online}{}
      \name{author}{1}{}{%
        {{hash=90d84c28ae92d98d67e61fa8857a22a5}{%
           family={Huizhou\bibnamedelimb JD-power\bibnamedelimb Technology\bibnamedelima Co.},
           familyi={H\bibinitperiod\bibinitdelim J\bibinithyphendelim p\bibinitperiod\bibinitdelim T\bibinitperiod\bibinitdelim C\bibinitperiod},
           given={Ltd},
           giveni={L\bibinitperiod}}}%
      }
      \strng{namehash}{90d84c28ae92d98d67e61fa8857a22a5}
      \strng{fullhash}{90d84c28ae92d98d67e61fa8857a22a5}
      \strng{bibnamehash}{90d84c28ae92d98d67e61fa8857a22a5}
      \strng{authorbibnamehash}{90d84c28ae92d98d67e61fa8857a22a5}
      \strng{authornamehash}{90d84c28ae92d98d67e61fa8857a22a5}
      \strng{authorfullhash}{90d84c28ae92d98d67e61fa8857a22a5}
      \field{sortinit}{2}
      \field{sortinithash}{8b555b3791beccb63322c22f3320aa9a}
      \field{labelnamesource}{author}
      \field{labeltitlesource}{title}
      \field{title}{{MYH-4625F servo hollow shaft flat outrunner brushless motor}}
      \field{urlday}{13}
      \field{urlmonth}{8}
      \field{urlyear}{2023}
      \field{urldateera}{ce}
      \verb{urlraw}
      \verb http://www.jdpowersky.com/en/p-info.aspx?cid=67&id=93
      \endverb
      \verb{url}
      \verb http://www.jdpowersky.com/en/p-info.aspx?cid=67&id=93
      \endverb
    \endentry
    \entry{cite:omniwheel}{online}{}
      \field{sortinit}{2}
      \field{sortinithash}{8b555b3791beccb63322c22f3320aa9a}
      \field{labeltitlesource}{title}
      \field{title}{{82mm Aluminum Double Omni-Directional Wheel}}
      \field{urlday}{31}
      \field{urlmonth}{7}
      \field{urlyear}{2023}
      \field{urldateera}{ce}
      \verb{urlraw}
      \verb https://www.aliexpress.com/i/4001231102429.html
      \endverb
      \verb{url}
      \verb https://www.aliexpress.com/i/4001231102429.html
      \endverb
    \endentry
    \entry{cite:TSC}{online}{}
      \name{author}{1}{}{%
        {{hash=c38884ab3cf908c2798725960369391b}{%
           family={STMicroelectronics},
           familyi={S\bibinitperiod}}}%
      }
      \strng{namehash}{c38884ab3cf908c2798725960369391b}
      \strng{fullhash}{c38884ab3cf908c2798725960369391b}
      \strng{bibnamehash}{c38884ab3cf908c2798725960369391b}
      \strng{authorbibnamehash}{c38884ab3cf908c2798725960369391b}
      \strng{authornamehash}{c38884ab3cf908c2798725960369391b}
      \strng{authorfullhash}{c38884ab3cf908c2798725960369391b}
      \field{extraname}{1}
      \field{sortinit}{2}
      \field{sortinithash}{8b555b3791beccb63322c22f3320aa9a}
      \field{labelnamesource}{author}
      \field{labeltitlesource}{title}
      \field{note}{Revision 3.2}
      \field{title}{{STM32 - Touch Sensing Controller (TSC)}}
      \field{urlday}{15}
      \field{urlmonth}{7}
      \field{urlyear}{2023}
      \field{urldateera}{ce}
      \verb{urlraw}
      \verb http://www.st.com/resource/en/product_training/stm32l4_peripheral_touchsense.pdf
      \endverb
      \verb{url}
      \verb http://www.st.com/resource/en/product_training/stm32l4_peripheral_touchsense.pdf
      \endverb
    \endentry
    \entry{cite:battery_connector}{online}{}
      \name{author}{1}{}{%
        {{hash=6c66de5b3b58c21cd98654faf13c6b81}{%
           family={YuXi},
           familyi={Y\bibinitperiod}}}%
      }
      \strng{namehash}{6c66de5b3b58c21cd98654faf13c6b81}
      \strng{fullhash}{6c66de5b3b58c21cd98654faf13c6b81}
      \strng{bibnamehash}{6c66de5b3b58c21cd98654faf13c6b81}
      \strng{authorbibnamehash}{6c66de5b3b58c21cd98654faf13c6b81}
      \strng{authornamehash}{6c66de5b3b58c21cd98654faf13c6b81}
      \strng{authorfullhash}{6c66de5b3b58c21cd98654faf13c6b81}
      \field{sortinit}{2}
      \field{sortinithash}{8b555b3791beccb63322c22f3320aa9a}
      \field{labelnamesource}{author}
      \field{labeltitlesource}{title}
      \field{note}{9 pin male and female connector}
      \field{title}{{Laptop Battery Connector Pitch 2.0mm}}
      \field{urlday}{31}
      \field{urlmonth}{7}
      \field{urlyear}{2023}
      \field{urldateera}{ce}
      \verb{urlraw}
      \verb https://www.aliexpress.com/item/1005004651353634.html
      \endverb
      \verb{url}
      \verb https://www.aliexpress.com/item/1005004651353634.html
      \endverb
    \endentry
    \entry{cite:RCC_OUT}{online}{}
      \name{author}{1}{}{%
        {{hash=c38884ab3cf908c2798725960369391b}{%
           family={STMicroelectronics},
           familyi={S\bibinitperiod}}}%
      }
      \strng{namehash}{c38884ab3cf908c2798725960369391b}
      \strng{fullhash}{c38884ab3cf908c2798725960369391b}
      \strng{bibnamehash}{c38884ab3cf908c2798725960369391b}
      \strng{authorbibnamehash}{c38884ab3cf908c2798725960369391b}
      \strng{authornamehash}{c38884ab3cf908c2798725960369391b}
      \strng{authorfullhash}{c38884ab3cf908c2798725960369391b}
      \field{extraname}{2}
      \field{sortinit}{3}
      \field{sortinithash}{ad6fe7482ffbd7b9f99c9e8b5dccd3d7}
      \field{labelnamesource}{author}
      \field{labeltitlesource}{title}
      \field{note}{Revision 2.1}
      \field{title}{{STM32 - Reset and clock controller (RCC)}}
      \field{urlday}{29}
      \field{urlmonth}{7}
      \field{urlyear}{2023}
      \field{urldateera}{ce}
      \verb{urlraw}
      \verb https://www.st.com/resource/en/product_training/stm32l4_system_rcc.pdf
      \endverb
      \verb{url}
      \verb https://www.st.com/resource/en/product_training/stm32l4_system_rcc.pdf
      \endverb
    \endentry
    \entry{cite:DRV8311}{online}{}
      \name{author}{1}{}{%
        {{hash=98891ef37ae74f3a00ae9a7c9c316e78}{%
           family={Instruments},
           familyi={I\bibinitperiod},
           given={Texas},
           giveni={T\bibinitperiod}}}%
      }
      \strng{namehash}{98891ef37ae74f3a00ae9a7c9c316e78}
      \strng{fullhash}{98891ef37ae74f3a00ae9a7c9c316e78}
      \strng{bibnamehash}{98891ef37ae74f3a00ae9a7c9c316e78}
      \strng{authorbibnamehash}{98891ef37ae74f3a00ae9a7c9c316e78}
      \strng{authornamehash}{98891ef37ae74f3a00ae9a7c9c316e78}
      \strng{authorfullhash}{98891ef37ae74f3a00ae9a7c9c316e78}
      \field{sortinit}{3}
      \field{sortinithash}{ad6fe7482ffbd7b9f99c9e8b5dccd3d7}
      \field{labelnamesource}{author}
      \field{labeltitlesource}{title}
      \field{note}{Revised on February 2022}
      \field{title}{{DRV8311 Three-Phase PWM Motor Driver}}
      \field{urlday}{30}
      \field{urlmonth}{7}
      \field{urlyear}{2023}
      \field{urldateera}{ce}
      \verb{urlraw}
      \verb https://www.ti.com/lit/ds/symlink/drv8311.pdf
      \endverb
      \verb{url}
      \verb https://www.ti.com/lit/ds/symlink/drv8311.pdf
      \endverb
    \endentry
    \entry{cite:velocity_torque_control}{online}{}
      \name{author}{1}{}{%
        {{hash=db078e226606a8442da528683cb40e99}{%
           family={SimpleFOC},
           familyi={S\bibinitperiod}}}%
      }
      \strng{namehash}{db078e226606a8442da528683cb40e99}
      \strng{fullhash}{db078e226606a8442da528683cb40e99}
      \strng{bibnamehash}{db078e226606a8442da528683cb40e99}
      \strng{authorbibnamehash}{db078e226606a8442da528683cb40e99}
      \strng{authornamehash}{db078e226606a8442da528683cb40e99}
      \strng{authorfullhash}{db078e226606a8442da528683cb40e99}
      \field{extraname}{1}
      \field{sortinit}{3}
      \field{sortinithash}{ad6fe7482ffbd7b9f99c9e8b5dccd3d7}
      \field{labelnamesource}{author}
      \field{labeltitlesource}{title}
      \field{note}{v2.0.2}
      \field{title}{{Torque control using voltage}}
      \field{urlday}{31}
      \field{urlmonth}{7}
      \field{urlyear}{2023}
      \field{urldateera}{ce}
      \verb{urlraw}
      \verb https://docs.simplefoc.com/voltage_torque_control
      \endverb
      \verb{url}
      \verb https://docs.simplefoc.com/voltage_torque_control
      \endverb
    \endentry
    \entry{cite:DMA}{online}{}
      \name{author}{1}{}{%
        {{hash=c38884ab3cf908c2798725960369391b}{%
           family={STMicroelectronics},
           familyi={S\bibinitperiod}}}%
      }
      \strng{namehash}{c38884ab3cf908c2798725960369391b}
      \strng{fullhash}{c38884ab3cf908c2798725960369391b}
      \strng{bibnamehash}{c38884ab3cf908c2798725960369391b}
      \strng{authorbibnamehash}{c38884ab3cf908c2798725960369391b}
      \strng{authornamehash}{c38884ab3cf908c2798725960369391b}
      \strng{authorfullhash}{c38884ab3cf908c2798725960369391b}
      \field{extraname}{3}
      \field{sortinit}{3}
      \field{sortinithash}{ad6fe7482ffbd7b9f99c9e8b5dccd3d7}
      \field{labelnamesource}{author}
      \field{labeltitlesource}{title}
      \field{note}{Revision 1.0}
      \field{title}{{STM32 - Direct memory access controller (DMA)}}
      \field{urlday}{1}
      \field{urlmonth}{8}
      \field{urlyear}{2023}
      \field{urldateera}{ce}
      \verb{urlraw}
      \verb https://www.st.com/resource/en/product_training/STM32G0-System-Direct-memory-access-controller-DMA.pdf
      \endverb
      \verb{url}
      \verb https://www.st.com/resource/en/product_training/STM32G0-System-Direct-memory-access-controller-DMA.pdf
      \endverb
    \endentry
    \entry{cite:low_pass_filter}{online}{}
      \name{author}{1}{}{%
        {{hash=db078e226606a8442da528683cb40e99}{%
           family={SimpleFOC},
           familyi={S\bibinitperiod}}}%
      }
      \strng{namehash}{db078e226606a8442da528683cb40e99}
      \strng{fullhash}{db078e226606a8442da528683cb40e99}
      \strng{bibnamehash}{db078e226606a8442da528683cb40e99}
      \strng{authorbibnamehash}{db078e226606a8442da528683cb40e99}
      \strng{authornamehash}{db078e226606a8442da528683cb40e99}
      \strng{authorfullhash}{db078e226606a8442da528683cb40e99}
      \field{extraname}{2}
      \field{sortinit}{3}
      \field{sortinithash}{ad6fe7482ffbd7b9f99c9e8b5dccd3d7}
      \field{labelnamesource}{author}
      \field{labeltitlesource}{title}
      \field{note}{v2.0.2}
      \field{title}{{Low-Pass velocity filter theory}}
      \field{urlday}{2}
      \field{urlmonth}{8}
      \field{urlyear}{2023}
      \field{urldateera}{ce}
      \verb{urlraw}
      \verb https://docs.simplefoc.com/low_pass_filter
      \endverb
      \verb{url}
      \verb https://docs.simplefoc.com/low_pass_filter
      \endverb
    \endentry
    \entry{cite:USB}{online}{}
      \name{author}{1}{}{%
        {{hash=c38884ab3cf908c2798725960369391b}{%
           family={STMicroelectronics},
           familyi={S\bibinitperiod}}}%
      }
      \strng{namehash}{c38884ab3cf908c2798725960369391b}
      \strng{fullhash}{c38884ab3cf908c2798725960369391b}
      \strng{bibnamehash}{c38884ab3cf908c2798725960369391b}
      \strng{authorbibnamehash}{c38884ab3cf908c2798725960369391b}
      \strng{authornamehash}{c38884ab3cf908c2798725960369391b}
      \strng{authorfullhash}{c38884ab3cf908c2798725960369391b}
      \field{extraname}{4}
      \field{sortinit}{3}
      \field{sortinithash}{ad6fe7482ffbd7b9f99c9e8b5dccd3d7}
      \field{labelnamesource}{author}
      \field{labeltitlesource}{title}
      \field{note}{February 2019 - Rev 4}
      \field{title}{{UM1734 - User manual - STM32Cube USB device library}}
      \field{urlday}{6}
      \field{urlmonth}{8}
      \field{urlyear}{2023}
      \field{urldateera}{ce}
      \verb{urlraw}
      \verb https://www.st.com/resource/en/user_manual/um1734-stm32cube-usb-device-library-stmicroelectronics.pdf
      \endverb
      \verb{url}
      \verb https://www.st.com/resource/en/user_manual/um1734-stm32cube-usb-device-library-stmicroelectronics.pdf
      \endverb
    \endentry
    \entry{cite:rplidar}{online}{}
      \name{author}{1}{}{%
        {{hash=da3f2037cc0123c47ff0d1c42d82001f}{%
           family={Robotics},
           familyi={R\bibinitperiod},
           given={Open},
           giveni={O\bibinitperiod}}}%
      }
      \strng{namehash}{da3f2037cc0123c47ff0d1c42d82001f}
      \strng{fullhash}{da3f2037cc0123c47ff0d1c42d82001f}
      \strng{bibnamehash}{da3f2037cc0123c47ff0d1c42d82001f}
      \strng{authorbibnamehash}{da3f2037cc0123c47ff0d1c42d82001f}
      \strng{authornamehash}{da3f2037cc0123c47ff0d1c42d82001f}
      \strng{authorfullhash}{da3f2037cc0123c47ff0d1c42d82001f}
      \field{extraname}{2}
      \field{sortinit}{3}
      \field{sortinithash}{ad6fe7482ffbd7b9f99c9e8b5dccd3d7}
      \field{labelnamesource}{author}
      \field{labeltitlesource}{title}
      \field{title}{{RPLidar package overview}}
      \field{urlday}{13}
      \field{urlmonth}{8}
      \field{urlyear}{2023}
      \field{urldateera}{ce}
      \verb{urlraw}
      \verb http://wiki.ros.org/rplidar
      \endverb
      \verb{url}
      \verb http://wiki.ros.org/rplidar
      \endverb
    \endentry
    \entry{cite:hector_mapping}{online}{}
      \name{author}{1}{}{%
        {{hash=da3f2037cc0123c47ff0d1c42d82001f}{%
           family={Robotics},
           familyi={R\bibinitperiod},
           given={Open},
           giveni={O\bibinitperiod}}}%
      }
      \strng{namehash}{da3f2037cc0123c47ff0d1c42d82001f}
      \strng{fullhash}{da3f2037cc0123c47ff0d1c42d82001f}
      \strng{bibnamehash}{da3f2037cc0123c47ff0d1c42d82001f}
      \strng{authorbibnamehash}{da3f2037cc0123c47ff0d1c42d82001f}
      \strng{authornamehash}{da3f2037cc0123c47ff0d1c42d82001f}
      \strng{authorfullhash}{da3f2037cc0123c47ff0d1c42d82001f}
      \field{extraname}{3}
      \field{sortinit}{3}
      \field{sortinithash}{ad6fe7482ffbd7b9f99c9e8b5dccd3d7}
      \field{labelnamesource}{author}
      \field{labeltitlesource}{title}
      \field{title}{{Hector mapping package overview}}
      \field{urlday}{13}
      \field{urlmonth}{8}
      \field{urlyear}{2023}
      \field{urldateera}{ce}
      \verb{urlraw}
      \verb http://wiki.ros.org/hector_mapping
      \endverb
      \verb{url}
      \verb http://wiki.ros.org/hector_mapping
      \endverb
    \endentry
    \entry{cite:used_odometry}{article}{}
      \name{author}{4}{}{%
        {{hash=b6d3e20fc8d3c60e55106c8c7e4031c1}{%
           family={Palacín},
           familyi={P\bibinitperiod},
           given={Jordi},
           giveni={J\bibinitperiod}}}%
        {{hash=a6e6620dfe5d85ebd5a227fd0184bb49}{%
           family={Rubies},
           familyi={R\bibinitperiod},
           given={Elena},
           giveni={E\bibinitperiod}}}%
        {{hash=7ada688d19735995863e77b64bd5185f}{%
           family={Clotet},
           familyi={C\bibinitperiod},
           given={Eduard},
           giveni={E\bibinitperiod}}}%
        {{hash=6649e67042acb41e728d324befdb1eff}{%
           family={Martínez},
           familyi={M\bibinitperiod},
           given={David},
           giveni={D\bibinitperiod}}}%
      }
      \strng{namehash}{5e6a628b9c02690c741aca284c285dc1}
      \strng{fullhash}{4fc85414bb98f32b70978af6995ba914}
      \strng{bibnamehash}{5e6a628b9c02690c741aca284c285dc1}
      \strng{authorbibnamehash}{5e6a628b9c02690c741aca284c285dc1}
      \strng{authornamehash}{5e6a628b9c02690c741aca284c285dc1}
      \strng{authorfullhash}{4fc85414bb98f32b70978af6995ba914}
      \field{sortinit}{3}
      \field{sortinithash}{ad6fe7482ffbd7b9f99c9e8b5dccd3d7}
      \field{labelnamesource}{author}
      \field{labeltitlesource}{title}
      \field{abstract}{This paper presents the empirical evaluation of the path-tracking accuracy of a three-wheeled omnidirectional mobile robot that is able to move in any direction while simultaneously changing its orientation. The mobile robot assessed in this paper includes a precise onboard LIDAR for obstacle avoidance, self-location and map creation, path-planning and path-tracking. This mobile robot has been used to develop several assistive services, but the accuracy of its path-tracking system has not been specifically evaluated until now. To this end, this paper describes the kinematics and path-planning procedure implemented in the mobile robot and empirically evaluates the accuracy of its path-tracking system that corrects the trajectory. In this paper, the information gathered by the LIDAR is registered to obtain the ground truth trajectory of the mobile robot in order to estimate the path-tracking accuracy of each experiment conducted. Circular and eight-shaped trajectories were assessed with different translational velocities. In general, the accuracy obtained in circular trajectories is within a short range, but the accuracy obtained in eight-shaped trajectories worsens as the velocity increases. In the case of the mobile robot moving at its nominal translational velocity, 0.3 m/s, the root mean square (RMS) displacement error was 0.032 m for the circular trajectory and 0.039 m for the eight-shaped trajectory; the absolute maximum displacement errors were 0.077 m and 0.088 m, with RMS errors in the angular orientation of 6.27° and 7.76°, respectively. Moreover, the external visual perception generated by these error levels is that the trajectory of the mobile robot is smooth, with a constant velocity and without perceiving trajectory corrections.}
      \field{issn}{1424-8220}
      \field{journaltitle}{Sensors}
      \field{number}{21}
      \field{title}{Evaluation of the Path-Tracking Accuracy of a Three-Wheeled Omnidirectional Mobile Robot Designed as a Personal Assistant}
      \field{volume}{21}
      \field{year}{2021}
      \verb{doi}
      \verb 10.3390/s21217216
      \endverb
      \verb{urlraw}
      \verb https://www.mdpi.com/1424-8220/21/21/7216
      \endverb
      \verb{url}
      \verb https://www.mdpi.com/1424-8220/21/21/7216
      \endverb
    \endentry
    \entry{cite:main_odometry}{article}{}
      \name{author}{3}{}{%
        {{hash=b6d3e20fc8d3c60e55106c8c7e4031c1}{%
           family={Palacín},
           familyi={P\bibinitperiod},
           given={Jordi},
           giveni={J\bibinitperiod}}}%
        {{hash=a6e6620dfe5d85ebd5a227fd0184bb49}{%
           family={Rubies},
           familyi={R\bibinitperiod},
           given={Elena},
           giveni={E\bibinitperiod}}}%
        {{hash=7ada688d19735995863e77b64bd5185f}{%
           family={Clotet},
           familyi={C\bibinitperiod},
           given={Eduard},
           giveni={E\bibinitperiod}}}%
      }
      \strng{namehash}{016ea3a8d45cc2bed5c5cadab9f41292}
      \strng{fullhash}{016ea3a8d45cc2bed5c5cadab9f41292}
      \strng{bibnamehash}{016ea3a8d45cc2bed5c5cadab9f41292}
      \strng{authorbibnamehash}{016ea3a8d45cc2bed5c5cadab9f41292}
      \strng{authornamehash}{016ea3a8d45cc2bed5c5cadab9f41292}
      \strng{authorfullhash}{016ea3a8d45cc2bed5c5cadab9f41292}
      \field{sortinit}{4}
      \field{sortinithash}{9381316451d1b9788675a07e972a12a7}
      \field{labelnamesource}{author}
      \field{labeltitlesource}{title}
      \field{abstract}{Odometry is a simple and practical method that provides a periodic real-time estimation of the relative displacement of a mobile robot based on the measurement of the angular rotational speed of its wheels. The main disadvantage of odometry is its unbounded accumulation of errors, a factor that reduces the accuracy of the estimation of the absolute position and orientation of a mobile robot. This paper proposes a general procedure to evaluate and correct the systematic odometry errors of a human-sized three-wheeled omnidirectional mobile robot designed as a versatile personal assistant tool. The correction procedure is based on the definition of 36 individual calibration trajectories which together depict a flower-shaped figure, on the measurement of the odometry and ground truth trajectory of each calibration trajectory, and on the application of several strategies to iteratively adjust the effective value of the kinematic parameters of the mobile robot in order to match the estimated final position from these two trajectories. The results have shown an average improvement of 82.14\% in the estimation of the final position and orientation of the mobile robot. Therefore, these results can be used for odometry calibration during the manufacturing of human-sized three-wheeled omnidirectional mobile robots.}
      \field{issn}{2076-3417}
      \field{journaltitle}{Applied Sciences}
      \field{number}{5}
      \field{title}{Systematic Odometry Error Evaluation and Correction in a Human-Sized Three-Wheeled Omnidirectional Mobile Robot Using Flower-Shaped Calibration Trajectories}
      \field{volume}{12}
      \field{year}{2022}
      \verb{doi}
      \verb 10.3390/app12052606
      \endverb
      \verb{urlraw}
      \verb https://www.mdpi.com/2076-3417/12/5/2606
      \endverb
      \verb{url}
      \verb https://www.mdpi.com/2076-3417/12/5/2606
      \endverb
    \endentry
    \entry{cite:git_repository}{online}{}
      \name{author}{1}{}{%
        {{hash=0ed49a70d9223cdd2f9a6e17e5ecaa99}{%
           family={Veselý},
           familyi={V\bibinitperiod},
           given={Václav},
           giveni={V\bibinitperiod}}}%
      }
      \strng{namehash}{0ed49a70d9223cdd2f9a6e17e5ecaa99}
      \strng{fullhash}{0ed49a70d9223cdd2f9a6e17e5ecaa99}
      \strng{bibnamehash}{0ed49a70d9223cdd2f9a6e17e5ecaa99}
      \strng{authorbibnamehash}{0ed49a70d9223cdd2f9a6e17e5ecaa99}
      \strng{authornamehash}{0ed49a70d9223cdd2f9a6e17e5ecaa99}
      \strng{authorfullhash}{0ed49a70d9223cdd2f9a6e17e5ecaa99}
      \field{sortinit}{4}
      \field{sortinithash}{9381316451d1b9788675a07e972a12a7}
      \field{labelnamesource}{author}
      \field{labeltitlesource}{title}
      \field{note}{Git repository}
      \field{title}{{Design and Construction of an Omnidirectional Base for Student Robotics Platform}}
      \field{urlday}{14}
      \field{urlmonth}{8}
      \field{urlyear}{2023}
      \field{urldateera}{ce}
      \verb{urlraw}
      \verb https://gitlab.com/WenceslawCZ/design-and-construction-of-an-omnidirectional-base-for-student-robotics-platform
      \endverb
      \verb{url}
      \verb https://gitlab.com/WenceslawCZ/design-and-construction-of-an-omnidirectional-base-for-student-robotics-platform
      \endverb
    \endentry
  \enddatalist
\endrefsection
\endinput

