M48
;Layer_Color=9474304
;FILE_FORMAT=4:4
METRIC,TZ
;TYPE=PLATED
T1F00S00C0.2000
T2F00S00C0.3000
T4F00S00C0.7000
T6F00S00C1.0000
T8F00S00C1.0668
T9F00S00C2.7000
T10F00S00C3.1000
;TYPE=NON_PLATED
T11F00S00C2.3500
%
T01
X225000Y-250000
X175000
X125000
X75000
X46000Y-243000
Y-331000
X100000Y-300000
X150000
X-100000
X-150000
X-125000Y-250000
X-175000
X-200000Y-100000
Y0
Y100000
X-42000Y122000
Y152000
X14000Y150000
X30000Y167000
X75000Y150000
X150000Y100000
X175000Y50000
X150000Y0
X175000Y-50000
X176000Y-112000
X75000Y-150000
X100000Y-200000
X-50000Y0
X225000Y50000
Y150000
Y-50000
X191000Y-187000
X200000Y200000
X225000Y250000
X175000
X150000Y300000
Y200000
X100000
X75000Y250000
X-882Y210882
X15270Y191270
X-200000Y200000
X-175000Y250000
X-150000Y300000
T02
X192380Y-320320
X199746Y-322098
X208636Y-320066
X215494Y-316256
X220066Y-310160
X222098Y-301524
X220828Y-293396
X216764Y-286030
X210160Y-280950
X202540Y-278410
X193650Y-278664
X186284Y-281966
X181204Y-287808
X178156Y-295428
X178000Y-304000
X181204Y-311176
X186000Y-317000
X-184506Y-316256
X-179934Y-310160
X-177902Y-301524
X-179172Y-293396
X-183236Y-286030
X-189840Y-280950
X-197460Y-278410
X-200254Y-322098
X-191364Y-320066
X-207620Y-320320
X-214000Y-317000
X-218796Y-311176
X-222000Y-304000
X-221844Y-295428
X-218796Y-287808
X-213716Y-281966
X-206350Y-278664
X-7000Y149000
X123000Y72460
X137000Y73000
X192380Y279680
X199746Y277902
X208636Y279934
X215494Y283744
X220066Y289840
X222098Y298476
X220828Y306604
X216764Y313970
X210160Y319050
X202540Y321590
X193650Y321336
X186284Y318034
X181204Y312192
X178156Y304572
X178000Y296000
X181204Y288824
X186000Y283000
X-184506Y283744
X-179934Y289840
X-177902Y298476
X-179172Y306604
X-183236Y313970
X-189840Y319050
X-197460Y321590
X-200254Y277902
X-191364Y279934
X-207620Y279680
X-214000Y283000
X-218796Y288824
X-222000Y296000
X-221844Y304572
X-218796Y312192
X-213716Y318034
X-206350Y321336
T04
X7500Y-214000
X32500
Y-194000
Y-174000
Y-154000
Y-134000
Y-114000
X7500
Y-134000
Y-154000
Y-174000
Y-194000
X-12500Y-184000
Y-204000
Y-164000
Y-144000
Y-124000
Y-84000
Y-64000
Y-44000
Y-24000
Y-4000
Y16000
Y36000
Y56000
Y76000
Y96000
Y116000
X7500Y106000
Y86000
Y66000
Y46000
Y26000
Y6000
Y-14000
Y-34000
Y-54000
Y-74000
X32500
Y-54000
Y-34000
Y-14000
Y6000
Y26000
Y46000
Y66000
Y86000
Y106000
X52500Y116000
Y96000
Y76000
Y56000
Y36000
Y16000
Y-4000
Y-24000
Y-44000
Y-64000
Y-84000
Y-124000
Y-144000
Y-164000
Y-184000
Y-204000
T06
X-190000Y-207500
X-140000Y-172500
X128000Y-112500
X178000Y-77500
Y-147500
T08
X139600Y-230000
X165000
X190400
X130000Y7100
Y32500
Y134100
Y159500
X200000
Y134100
Y108700
Y83300
Y57900
Y32500
Y7100
X130000Y242500
Y267900
Y300000
X104600
X79200
X53800
X28400
X3000
Y255000
X28400
X-53800
X-79200
Y300000
X-53800
X-104600
X-130000
T09
X-87500Y-46000
Y26000
T10
X200000Y-300000
X-200000
X200000Y300000
X-200000
T11
X20000Y-97500
Y134000
M30
