# 
# Wavefront material file
# Created with Kaydara FBX
# 

newmtl Intel_Realsense_RPLIDAR_A3Material0
Ka 0.455459 0.210917 0.700000
Kd 0.455459 0.210917 0.700000
Ks 0.000000 0.000000 0.000000
illum 2
Ns 20.000000
Tr 1.000000

newmtl Intel_Realsense_RPLIDAR_A3Material1
Ka 0.439216 0.439216 0.439216
Kd 0.439216 0.439216 0.439216
Ks 0.000000 0.000000 0.000000
illum 2
Ns 20.000000
Tr 1.000000

newmtl Intel_Realsense_RPLIDAR_A3Material2
Ka 0.627451 0.125490 0.941176
Kd 0.627451 0.125490 0.941176
Ks 0.000000 0.000000 0.000000
illum 2
Ns 20.000000
Tr 1.000000

newmtl Intel_Realsense_RPLIDAR_A3Material3
Ka 0.250980 0.250980 0.250980
Kd 0.250980 0.250980 0.250980
Ks 0.000000 0.000000 0.000000
illum 2
Ns 20.000000
Tr 1.000000

newmtl Intel_Realsense_RPLIDAR_A3Material4
Ka 0.501961 0.000000 0.690196
Kd 0.501961 0.000000 0.690196
Ks 0.000000 0.000000 0.000000
illum 2
Ns 20.000000
Tr 1.000000

newmtl Intel_Realsense_RPLIDAR_A3Material5
Ka 0.062745 0.062745 0.439216
Kd 0.062745 0.062745 0.439216
Ks 0.000000 0.000000 0.000000
illum 2
Ns 20.000000
Tr 1.000000

newmtl Intel_Realsense_RPLIDAR_A3Material6
Ka 0.690196 0.690196 0.000000
Kd 0.690196 0.690196 0.000000
Ks 0.000000 0.000000 0.000000
illum 2
Ns 20.000000
Tr 1.000000

newmtl Intel_Realsense_RPLIDAR_A3Material7
Ka 0.062745 0.439216 0.062745
Kd 0.062745 0.439216 0.062745
Ks 0.000000 0.000000 0.000000
illum 2
Ns 20.000000
Tr 1.000000
