# 
# Wavefront material file
# Created with Kaydara FBX
# 

newmtl SRobotMaterial0
Ka 0.200000 0.200000 0.200000
Kd 0.200000 0.200000 0.200000
Ks 0.000000 0.000000 0.000000
illum 2
Ns 20.000000
Tr 1.000000

newmtl SRobotMaterial1
Ka 0.550000 0.311244 0.218416
Kd 0.550000 0.311244 0.218416
Ks 0.000000 0.000000 0.000000
illum 2
Ns 20.000000
Tr 1.000000

newmtl SRobotMaterial2
Ka 0.800000 0.403306 0.000000
Kd 0.800000 0.403306 0.000000
Ks 0.000000 0.000000 0.000000
illum 2
Ns 20.000000
Tr 1.000000

newmtl SRobotMaterial3
Ka 0.820000 0.820000 0.820000
Kd 0.820000 0.820000 0.820000
Ks 0.000000 0.000000 0.000000
illum 2
Ns 20.000000
Tr 1.000000

newmtl SRobotMaterial4
Ka 0.000000 0.500000 0.000000
Kd 0.000000 0.500000 0.000000
Ks 0.000000 0.000000 0.000000
illum 2
Ns 20.000000
Tr 1.000000

newmtl SRobotMaterial5
Ka 0.870588 0.633255 0.172549
Kd 0.870588 0.633255 0.172549
Ks 0.000000 0.000000 0.000000
illum 2
Ns 20.000000
Tr 1.000000

newmtl SRobotMaterial6
Ka 0.000000 0.439216 0.000000
Kd 0.000000 0.439216 0.000000
Ks 0.000000 0.000000 0.000000
illum 2
Ns 20.000000
Tr 1.000000

newmtl SRobotMaterial7
Ka 0.752941 0.752941 0.752941
Kd 0.752941 0.752941 0.752941
Ks 0.000000 0.000000 0.000000
illum 2
Ns 20.000000
Tr 1.000000

newmtl SRobotMaterial8
Ka 0.125490 0.125490 0.125490
Kd 0.125490 0.125490 0.125490
Ks 0.000000 0.000000 0.000000
illum 2
Ns 20.000000
Tr 1.000000

newmtl SRobotMaterial9
Ka 0.188235 0.188235 0.188235
Kd 0.188235 0.188235 0.188235
Ks 0.000000 0.000000 0.000000
illum 2
Ns 20.000000
Tr 1.000000

newmtl SRobotMaterial10
Ka 0.941176 0.941176 0.941176
Kd 0.941176 0.941176 0.941176
Ks 0.000000 0.000000 0.000000
illum 2
Ns 20.000000
Tr 1.000000

newmtl SRobotMaterial11
Ka 0.627451 0.439216 0.000000
Kd 0.627451 0.439216 0.000000
Ks 0.000000 0.000000 0.000000
illum 2
Ns 20.000000
Tr 1.000000

newmtl SRobotMaterial12
Ka 0.690196 0.752941 0.878431
Kd 0.690196 0.752941 0.878431
Ks 0.000000 0.000000 0.000000
illum 2
Ns 20.000000
Tr 1.000000

newmtl SRobotMaterial13
Ka 0.941176 0.752941 0.439216
Kd 0.941176 0.752941 0.439216
Ks 0.000000 0.000000 0.000000
illum 2
Ns 20.000000
Tr 1.000000

newmtl SRobotMaterial14
Ka 0.627451 0.627451 0.627451
Kd 0.627451 0.627451 0.627451
Ks 0.000000 0.000000 0.000000
illum 2
Ns 20.000000
Tr 1.000000

newmtl SRobotMaterial15
Ka 0.439216 0.501961 0.501961
Kd 0.439216 0.501961 0.501961
Ks 0.000000 0.000000 0.000000
illum 2
Ns 20.000000
Tr 1.000000

newmtl SRobotMaterial16
Ka 0.250980 0.250980 0.250980
Kd 0.250980 0.250980 0.250980
Ks 0.000000 0.000000 0.000000
illum 2
Ns 20.000000
Tr 1.000000

newmtl SRobotMaterial17
Ka 0.690196 0.690196 0.690196
Kd 0.690196 0.690196 0.690196
Ks 0.000000 0.000000 0.000000
illum 2
Ns 20.000000
Tr 1.000000

newmtl SRobotMaterial18
Ka 0.752941 0.439216 0.313726
Kd 0.752941 0.439216 0.313726
Ks 0.000000 0.000000 0.000000
illum 2
Ns 20.000000
Tr 1.000000

newmtl SRobotMaterial19
Ka 0.941176 0.878431 0.125490
Kd 0.941176 0.878431 0.125490
Ks 0.000000 0.000000 0.000000
illum 2
Ns 20.000000
Tr 1.000000

newmtl SRobotMaterial20
Ka 0.439216 0.439216 0.439216
Kd 0.439216 0.439216 0.439216
Ks 0.000000 0.000000 0.000000
illum 2
Ns 20.000000
Tr 1.000000

newmtl SRobotMaterial21
Ka 0.062745 0.062745 0.062745
Kd 0.062745 0.062745 0.062745
Ks 0.000000 0.000000 0.000000
illum 2
Ns 20.000000
Tr 1.000000

newmtl SRobotMaterial22
Ka 0.564706 0.376471 0.000000
Kd 0.564706 0.376471 0.000000
Ks 0.000000 0.000000 0.000000
illum 2
Ns 20.000000
Tr 1.000000

newmtl SRobotMaterial23
Ka 0.506983 0.531564 0.550000
Kd 0.506983 0.531564 0.550000
Ks 0.000000 0.000000 0.000000
illum 2
Ns 20.000000
Tr 1.000000

newmtl SRobotMaterial24
Ka 0.000000 0.941176 0.000000
Kd 0.000000 0.941176 0.000000
Ks 0.000000 0.000000 0.000000
illum 2
Ns 20.000000
Tr 1.000000

newmtl SRobotMaterial25
Ka 0.878431 0.690196 0.125490
Kd 0.878431 0.690196 0.125490
Ks 0.000000 0.000000 0.000000
illum 2
Ns 20.000000
Tr 1.000000

newmtl SRobotMaterial26
Ka 0.941176 0.941176 0.878431
Kd 0.941176 0.941176 0.878431
Ks 0.000000 0.000000 0.000000
illum 2
Ns 20.000000
Tr 1.000000

newmtl SRobotMaterial27
Ka 0.439216 0.941176 0.439216
Kd 0.439216 0.941176 0.439216
Ks 0.000000 0.000000 0.000000
illum 2
Ns 20.000000
Tr 1.000000

newmtl SRobotMaterial28
Ka 0.878431 0.878431 0.941176
Kd 0.878431 0.878431 0.941176
Ks 0.000000 0.000000 0.000000
illum 2
Ns 20.000000
Tr 1.000000

newmtl SRobotMaterial29
Ka 0.815686 0.564706 0.125490
Kd 0.815686 0.564706 0.125490
Ks 0.000000 0.000000 0.000000
illum 2
Ns 20.000000
Tr 1.000000

newmtl SRobotMaterial30
Ka 0.000000 0.000000 0.000000
Kd 0.000000 0.000000 0.000000
Ks 0.000000 0.000000 0.000000
illum 2
Ns 20.000000
Tr 1.000000

newmtl SRobotMaterial31
Ka 0.878431 0.878431 0.878431
Kd 0.878431 0.878431 0.878431
Ks 0.000000 0.000000 0.000000
illum 2
Ns 20.000000
Tr 1.000000

newmtl SRobotMaterial32
Ka 0.815686 0.815686 0.815686
Kd 0.815686 0.815686 0.815686
Ks 0.000000 0.000000 0.000000
illum 2
Ns 20.000000
Tr 1.000000

newmtl SRobotMaterial33
Ka 0.800000 0.000000 0.000000
Kd 0.800000 0.000000 0.000000
Ks 0.000000 0.000000 0.000000
illum 2
Ns 20.000000
Tr 1.000000

newmtl SRobotMaterial34
Ka 0.501961 0.000000 0.690196
Kd 0.501961 0.000000 0.690196
Ks 0.000000 0.000000 0.000000
illum 2
Ns 20.000000
Tr 1.000000

newmtl SRobotMaterial35
Ka 0.690196 0.752941 0.878431
Kd 0.690196 0.752941 0.878431
Ks 0.000000 0.000000 0.000000
illum 2
Ns 20.000000
Tr 1.000000

newmtl SRobotMaterial36
Ka 0.627451 0.125490 0.941176
Kd 0.627451 0.125490 0.941176
Ks 0.000000 0.000000 0.000000
illum 2
Ns 20.000000
Tr 1.000000

newmtl SRobotMaterial37
Ka 0.062745 0.062745 0.439216
Kd 0.062745 0.062745 0.439216
Ks 0.000000 0.000000 0.000000
illum 2
Ns 20.000000
Tr 1.000000

newmtl SRobotMaterial38
Ka 0.690196 0.690196 0.000000
Kd 0.690196 0.690196 0.000000
Ks 0.000000 0.000000 0.000000
illum 2
Ns 20.000000
Tr 1.000000

newmtl SRobotMaterial39
Ka 0.062745 0.439216 0.062745
Kd 0.062745 0.439216 0.062745
Ks 0.000000 0.000000 0.000000
illum 2
Ns 20.000000
Tr 1.000000

newmtl SRobotMaterial40
Ka 0.740392 0.778039 0.800000
Kd 0.740392 0.778039 0.800000
Ks 0.000000 0.000000 0.000000
illum 2
Ns 20.000000
Tr 1.000000

newmtl SRobotMaterial41
Ka 0.100000 0.100000 0.100000
Kd 0.100000 0.100000 0.100000
Ks 0.000000 0.000000 0.000000
illum 2
Ns 20.000000
Tr 1.000000

newmtl SRobotMaterial42
Ka 0.700000 0.700000 0.700000
Kd 0.700000 0.700000 0.700000
Ks 0.000000 0.000000 0.000000
illum 2
Ns 20.000000
Tr 1.000000

newmtl SRobotMaterial43
Ka 0.331739 0.340870 0.350000
Kd 0.331739 0.340870 0.350000
Ks 0.000000 0.000000 0.000000
illum 2
Ns 20.000000
Tr 1.000000

newmtl SRobotMaterial44
Ka 1.000000 1.000000 0.000000
Kd 1.000000 1.000000 0.000000
Ks 0.000000 0.000000 0.000000
illum 2
Ns 20.000000
Tr 1.000000

newmtl SRobotMaterial45
Ka 1.000000 1.000000 1.000000
Kd 1.000000 1.000000 1.000000
Ks 0.000000 0.000000 0.000000
illum 2
Ns 20.000000
Tr 1.000000

newmtl SRobotMaterial46
Ka 0.120000 0.120000 0.120000
Kd 0.120000 0.120000 0.120000
Ks 0.000000 0.000000 0.000000
illum 2
Ns 20.000000
Tr 1.000000
