M48
;Layer_Color=9474304
;FILE_FORMAT=4:4
METRIC,TZ
;TYPE=PLATED
T1F00S00C0.2000
T2F00S00C0.3000
T3F00S00C0.5000
T4F00S00C3.2000
%
T01
X-176000Y-121000
X-174000Y-110000
X-181000
Y-103000
X-174000
X-167000
X-160000
X-153000
Y-96000
X-160000
X-167000
X-174000
X-181000
X-178000Y-83000
X-171000
X-164000
X-157000
X-150000
Y-76000
X-157000
X-164000
X-171000
X-178000
X-185000
Y-69000
X-178000
X-171000
X-164000
X-157000
X-150000
X-153000Y-56000
X-160000
X-167000
Y-49000
Y-42000
X-160000
Y-49000
X-153000
Y-42000
X-160000Y-32000
X-167000
X-174000
X-181000
X-188000
Y-42000
Y-49000
X-181000
X-174000
Y-42000
X-181000
Y-56000
X-174000
X-188000
X-185000Y-83000
X-167000Y-110000
X-160000
X-153000
X-146000
Y-103000
Y-96000
X-145000Y-125000
X-135000
X-134750Y-115500
X-122250
X-123750Y-125000
X-113000
X-127500Y-108500
X-96500Y-99500
X-99500Y-89750
X-87000Y-103750
X-77000Y-107000
X-33000Y-106000
X-25960
X-18691Y-105941
X13000Y-98000
X12500Y-36250
X6500Y-29250
X-3000Y-19000
X-12000Y-10750
X-15500Y-28250
X-15000Y-36500
X1250Y5000
X-750Y21500
X5500Y29750
X-750Y41250
X12250
X25500Y43000
X55000Y51000
Y58000
Y65000
X64354Y26000
X67750Y-5785
X76000Y-8250
X57006Y-8257
X52290Y-3030
X37750Y7500
Y13250
X90710Y-397
X105177Y-1823
X106480Y24521
X118323Y55250
X119790Y63250
X165000Y65000
Y58000
Y51000
Y35000
Y25000
Y15000
X175000
Y5000
Y-5000
Y-15000
Y-25000
X185000
Y-35000
Y-45000
Y-55000
Y-65000
Y-75000
Y-85000
X185250Y-95000
Y-105000
X160000Y-120250
X150000Y-120000
X140000
X130000
X123210Y-71210
X120060Y-64914
X130210Y-33750
X145463Y-25536
X155415Y-22744
X166396Y-43750
X185000Y-15000
Y-5000
Y5000
Y15000
Y25000
X175000
Y35000
X185000
X80000Y-50750
X79182Y-59000
X71250Y-58750
X69000Y-51000
X54540Y-50000
X46500Y-57790
X-67867Y-14665
X-64772Y-5853
X-74010Y5528
X-74500Y19793
X-63816Y38460
X-80000Y45000
X-72500Y52500
X-65000Y60000
X-43000Y41000
X-33000Y39000
X-18000
X-87500Y37500
X-100000Y41000
Y34000
Y27000
X-108000Y41000
X-115000
X-158250Y33750
X-164250
X-170250
Y27750
X-164250
Y21750
X-170250
Y15750
Y9750
X-164250
Y15750
X-158250
Y9750
Y3750
Y-2250
X-164250
Y3750
X-170250
Y-2250
Y-8250
X-164250
X-158250
X-152250
X-146250
X-140250
X-134250
X-121000Y-24000
Y-30000
X-121250Y-35750
X-115000
Y-30000
X-109000
Y-24000
X-115000
X-108750Y-35750
X-89750Y-35710
X-87447Y-20082
X-82754Y-14751
X-158250Y21750
Y27750
X-165000Y56000
Y62000
X-166000Y-124000
X-155000Y-125000
T02
X-168000Y43000
X-161000
Y50000
X-168000
X-65750Y21500
X-82250Y4500
X53000Y-19000
Y-25000
X59000
Y-19000
X65000Y-19000
Y-25000
Y-35000
Y-41000
X59000
X53000
Y-35000
X59000Y-35000
X18000Y-72040
X24540Y-78960
X21000Y-98000
X34048Y-92960
X-2000Y-95000
X-8000
Y-89000
X-2000
Y-101000
X-8000
X136000Y2000
Y8000
X142000Y8000
Y2000
T03
X-35000Y53000
X-25000
Y63000
X-15000
X-5000
X5000
X15000
X25000
X35000
X45000
Y53000
X35000
X25000
X15000
X5000
X-5000
X-15000
X-35000Y63000
T04
X165000Y-100000
M30
