G04*
G04 #@! TF.GenerationSoftware,Altium Limited,Altium Designer,23.0.1 (38)*
G04*
G04 Layer_Physical_Order=4*
G04 Layer_Color=16711680*
%FSLAX44Y44*%
%MOMM*%
G71*
G04*
G04 #@! TF.SameCoordinates,24F40CEA-1FB2-4317-8402-FD5468846257*
G04*
G04*
G04 #@! TF.FilePolarity,Positive*
G04*
G01*
G75*
%ADD10C,0.4000*%
%ADD16R,0.9500X0.9000*%
%ADD17R,0.7000X5.0000*%
%ADD18R,0.7000X3.6000*%
%ADD24R,0.9000X0.9500*%
%ADD37C,0.6000*%
%ADD38C,0.7000*%
%ADD39C,1.6000*%
%ADD41C,3.2000*%
%ADD42C,0.4500*%
%ADD43C,0.5000*%
%ADD44C,0.7000*%
%ADD46R,1.6400X1.4000*%
%ADD47C,0.5000*%
%ADD48C,1.4000*%
%ADD49C,1.0000*%
G36*
X48500Y47250D02*
X21500D01*
Y119984D01*
X48500D01*
Y47250D01*
D02*
G37*
G36*
X18500D02*
X-8500D01*
Y119984D01*
X18500D01*
Y47250D01*
D02*
G37*
G36*
X-11500D02*
X-38500D01*
Y119984D01*
X-11500D01*
Y47250D01*
D02*
G37*
G36*
X-167423Y65711D02*
X-159371D01*
X-157535Y63926D01*
X-157411Y55199D01*
X-157331Y54823D01*
X-157256Y54447D01*
X-157248Y54435D01*
X-157245Y54421D01*
X-157027Y54105D01*
X-156814Y53786D01*
X-156801Y53777D01*
X-156793Y53765D01*
X-156472Y53557D01*
X-156152Y53344D01*
X-156138Y53341D01*
X-156125Y53333D01*
X-155748Y53263D01*
X-155372Y53188D01*
X-143134D01*
X-142676Y53128D01*
X-142542Y53137D01*
X-142410Y53111D01*
X-134839D01*
Y39189D01*
X-142410D01*
X-142542Y39163D01*
X-142676Y39172D01*
X-143134Y39112D01*
X-164716D01*
X-166667Y39368D01*
X-168360Y40070D01*
X-168547Y40213D01*
X-168786Y40331D01*
X-169008Y40479D01*
X-169140Y40505D01*
X-169260Y40564D01*
X-169526Y40582D01*
X-169788Y40634D01*
X-171159D01*
X-171940Y40479D01*
X-172601Y40037D01*
X-172601Y40037D01*
X-175637Y37001D01*
X-176079Y36340D01*
X-176234Y35559D01*
Y-10305D01*
X-176079Y-11086D01*
X-175637Y-11747D01*
X-175637Y-11747D01*
X-173192Y-14192D01*
X-173192Y-14192D01*
X-172530Y-14634D01*
X-171750Y-14789D01*
X-142682D01*
X-142056Y-16059D01*
X-142775Y-16997D01*
X-143783Y-19430D01*
X-144126Y-22040D01*
Y-41048D01*
X-143783Y-43658D01*
X-142775Y-46091D01*
X-141172Y-48180D01*
X-105260Y-84092D01*
X-103216Y-85660D01*
X-103031Y-85845D01*
X-102869Y-87108D01*
X-103103Y-87343D01*
X-103750Y-88905D01*
Y-90595D01*
X-103103Y-92157D01*
X-101907Y-93353D01*
X-100345Y-94000D01*
X-98655D01*
X-97093Y-93353D01*
X-95897Y-92157D01*
X-95250Y-90595D01*
Y-88905D01*
X-95494Y-88316D01*
X-94645Y-87046D01*
X-93130D01*
X-78521Y-101655D01*
X-78819Y-103153D01*
X-79407Y-103397D01*
X-80603Y-104593D01*
X-81250Y-106155D01*
Y-107845D01*
X-80603Y-109407D01*
X-79407Y-110603D01*
X-77845Y-111250D01*
X-76155D01*
X-74593Y-110603D01*
X-73397Y-109407D01*
X-73153Y-108819D01*
X-71655Y-108521D01*
X-53633Y-126544D01*
X-53353Y-126758D01*
X-53761Y-127961D01*
X-164911D01*
X-169854Y-127529D01*
X-174561Y-126267D01*
X-178977Y-124208D01*
X-182968Y-121413D01*
X-186413Y-117968D01*
X-189208Y-113977D01*
X-191268Y-109561D01*
X-192528Y-104854D01*
X-192961Y-99911D01*
Y-58448D01*
X-191691Y-58195D01*
X-191603Y-58407D01*
X-190407Y-59603D01*
X-188845Y-60250D01*
X-187155D01*
X-185593Y-59603D01*
X-184500Y-58510D01*
X-183407Y-59603D01*
X-181845Y-60250D01*
X-180155D01*
X-178593Y-59603D01*
X-177500Y-58510D01*
X-176407Y-59603D01*
X-174845Y-60250D01*
X-173155D01*
X-171593Y-59603D01*
X-170500Y-58510D01*
X-169407Y-59603D01*
X-167845Y-60250D01*
X-166155D01*
X-164593Y-59603D01*
X-163500Y-58510D01*
X-162407Y-59603D01*
X-160845Y-60250D01*
X-159155D01*
X-157593Y-59603D01*
X-156500Y-58510D01*
X-155407Y-59603D01*
X-153845Y-60250D01*
X-152155D01*
X-150593Y-59603D01*
X-149397Y-58407D01*
X-148750Y-56845D01*
Y-55155D01*
X-149397Y-53593D01*
X-150490Y-52500D01*
X-149397Y-51407D01*
X-148750Y-49845D01*
Y-48155D01*
X-149397Y-46593D01*
X-150490Y-45500D01*
X-149397Y-44407D01*
X-148750Y-42845D01*
Y-41155D01*
X-149397Y-39593D01*
X-150593Y-38397D01*
X-152155Y-37750D01*
X-153845D01*
X-155407Y-38397D01*
X-156500Y-39490D01*
X-157593Y-38397D01*
X-159155Y-37750D01*
X-160845D01*
X-162407Y-38397D01*
X-163500Y-39490D01*
X-164593Y-38397D01*
X-166155Y-37750D01*
X-167845D01*
X-169407Y-38397D01*
X-170500Y-39490D01*
X-171593Y-38397D01*
X-173155Y-37750D01*
X-174845D01*
X-176407Y-38397D01*
X-177500Y-39490D01*
X-178593Y-38397D01*
X-180155Y-37750D01*
X-181845D01*
X-183407Y-38397D01*
X-184500Y-39490D01*
X-185593Y-38397D01*
X-187155Y-37750D01*
X-188845D01*
X-190407Y-38397D01*
X-191603Y-39593D01*
X-191691Y-39805D01*
X-192961Y-39552D01*
Y36700D01*
X-192814Y38195D01*
X-192407Y39536D01*
X-191746Y40773D01*
X-190857Y41857D01*
X-189773Y42746D01*
X-188537Y43407D01*
X-187195Y43814D01*
X-185700Y43961D01*
X-180700D01*
X-180601Y43981D01*
X-180500Y43971D01*
X-178705Y44148D01*
X-178513Y44206D01*
X-178313Y44226D01*
X-176588Y44749D01*
X-176410Y44844D01*
X-176218Y44902D01*
X-174628Y45752D01*
X-174472Y45880D01*
X-174295Y45974D01*
X-172901Y47118D01*
X-172774Y47274D01*
X-172619Y47401D01*
X-171474Y48795D01*
X-171380Y48972D01*
X-171252Y49127D01*
X-170402Y50718D01*
X-170344Y50910D01*
X-170249Y51087D01*
X-169726Y52813D01*
X-169706Y53013D01*
X-169648Y53205D01*
X-169471Y55000D01*
X-169481Y55101D01*
X-169461Y55200D01*
Y65179D01*
X-168203Y65866D01*
X-167423Y65711D01*
D02*
G37*
G36*
X59500Y68000D02*
X60922D01*
Y50689D01*
X46561Y36328D01*
X38250D01*
X36689Y36018D01*
X35366Y35134D01*
X35366Y35134D01*
X19366Y19134D01*
X18482Y17811D01*
X18172Y16250D01*
X18172Y16250D01*
Y-39794D01*
X18172Y-39794D01*
X18482Y-41355D01*
X19366Y-42678D01*
X24436Y-47748D01*
X23950Y-48922D01*
X-17500D01*
X-18711Y-48500D01*
Y-45901D01*
X-18680Y-45827D01*
X-18440Y-44000D01*
Y-40730D01*
X-17170Y-40202D01*
X-15845Y-40750D01*
X-14155D01*
X-12593Y-40103D01*
X-11397Y-38907D01*
X-10750Y-37345D01*
Y-35655D01*
X-11397Y-34093D01*
X-12535Y-32955D01*
X-12598Y-32830D01*
X-12712Y-31473D01*
X-11897Y-30657D01*
X-11250Y-29095D01*
Y-27405D01*
X-11897Y-25843D01*
X-13093Y-24647D01*
X-14655Y-24000D01*
X-16345D01*
X-17170Y-24341D01*
X-18440Y-23520D01*
Y-16000D01*
X-18680Y-14173D01*
X-18711Y-14099D01*
Y-11500D01*
X-18750Y-11303D01*
Y-9500D01*
X-20553D01*
X-20750Y-9461D01*
X-22995D01*
X-23673Y-9180D01*
X-25500Y-8940D01*
X-27327Y-9180D01*
X-28005Y-9461D01*
X-30250D01*
X-30342Y-9479D01*
X-30435Y-9469D01*
X-30539Y-9500D01*
X-32250D01*
Y-10715D01*
X-35567Y-14694D01*
X-35670Y-14884D01*
X-35806Y-15052D01*
X-35858Y-15230D01*
X-35947Y-15393D01*
X-35970Y-15608D01*
X-36031Y-15815D01*
X-36011Y-16000D01*
X-36031Y-16185D01*
X-35970Y-16392D01*
X-35947Y-16607D01*
X-35858Y-16770D01*
X-35806Y-16948D01*
X-35670Y-17116D01*
X-35567Y-17306D01*
X-32560Y-20913D01*
Y-22551D01*
X-32698Y-22773D01*
X-33600Y-23447D01*
X-33830Y-23495D01*
X-34000Y-23461D01*
X-47250D01*
X-47447Y-23500D01*
X-49250D01*
Y-25303D01*
X-49289Y-25500D01*
Y-25922D01*
X-52311D01*
X-57330Y-20903D01*
X-57585Y-19618D01*
X-58469Y-18295D01*
X-64092Y-12672D01*
X-64264Y-12258D01*
X-65459Y-11062D01*
X-67021Y-10415D01*
X-68712D01*
X-69256Y-10640D01*
X-70526Y-9792D01*
Y-7286D01*
X-69243Y-6003D01*
X-69234Y-6001D01*
X-67746Y-5007D01*
X-65412Y-2673D01*
X-58196D01*
X-58038Y-2779D01*
X-56282Y-3128D01*
X-49250D01*
Y-4500D01*
X-47447D01*
X-47250Y-4539D01*
X-37750D01*
X-37658Y-4521D01*
X-37565Y-4531D01*
X-37461Y-4500D01*
X-35750D01*
Y-4500D01*
X-34480Y-4460D01*
X-34301Y-4479D01*
X-34000Y-4539D01*
X-28005D01*
X-27327Y-4820D01*
X-25500Y-5060D01*
X-23673Y-4820D01*
X-22995Y-4539D01*
X-20750D01*
X-20553Y-4500D01*
X-18750D01*
Y-2697D01*
X-18711Y-2500D01*
Y99D01*
X-18680Y173D01*
X-18440Y2000D01*
Y16000D01*
Y30000D01*
X-18680Y31827D01*
X-18711Y31901D01*
Y34500D01*
X-17466Y34750D01*
X-17155D01*
X-15593Y35397D01*
X-14397Y36593D01*
X-13750Y38155D01*
Y39845D01*
X-14397Y41407D01*
X-15593Y42603D01*
X-17155Y43250D01*
X-18845D01*
X-20407Y42603D01*
X-21603Y41407D01*
X-22250Y39845D01*
Y38155D01*
X-22107Y37809D01*
X-22956Y36539D01*
X-22995D01*
X-23673Y36820D01*
X-25500Y37060D01*
X-27327Y36820D01*
X-28005Y36539D01*
X-28045D01*
X-28893Y37809D01*
X-28750Y38155D01*
Y39845D01*
X-29397Y41407D01*
X-30593Y42603D01*
X-32155Y43250D01*
X-33845D01*
X-35407Y42603D01*
X-36603Y41407D01*
X-37250Y39845D01*
Y38155D01*
X-36603Y36593D01*
X-35407Y35397D01*
X-34220Y34905D01*
X-34053Y34500D01*
X-34000D01*
X-34036Y34457D01*
X-33674Y33577D01*
X-35567Y31305D01*
X-35670Y31116D01*
X-35806Y30948D01*
X-35858Y30770D01*
X-35947Y30607D01*
X-35970Y30392D01*
X-36031Y30185D01*
X-36011Y30000D01*
X-36031Y29815D01*
X-35970Y29608D01*
X-35947Y29393D01*
X-35858Y29230D01*
X-35806Y29052D01*
X-35670Y28884D01*
X-35567Y28695D01*
X-32560Y25087D01*
Y23449D01*
X-32698Y23226D01*
X-33600Y22554D01*
X-33830Y22505D01*
X-34000Y22539D01*
X-47250D01*
X-47447Y22500D01*
X-49250D01*
Y20697D01*
X-49289Y20500D01*
Y18078D01*
X-65914D01*
X-67475Y17768D01*
X-68798Y16884D01*
X-68798Y16884D01*
X-71141Y14541D01*
X-71627Y13813D01*
X-76234Y9207D01*
X-76417Y9131D01*
X-77613Y7935D01*
X-77829Y7828D01*
X-78993Y7745D01*
X-79053Y7776D01*
X-79381Y7995D01*
X-79701Y8315D01*
X-80118Y8488D01*
X-80494Y8739D01*
X-80938Y8827D01*
X-81355Y9000D01*
X-81807D01*
X-82250Y9088D01*
X-82693Y9000D01*
X-83145D01*
X-83562Y8827D01*
X-84006Y8739D01*
X-84382Y8488D01*
X-84799Y8315D01*
X-85119Y7995D01*
X-85494Y7744D01*
X-91982Y1257D01*
X-97331D01*
X-99087Y908D01*
X-100575Y-87D01*
X-110900Y-10412D01*
X-120269D01*
X-120755Y-9238D01*
X-93558Y17958D01*
X-93116Y18620D01*
X-92961Y19400D01*
Y41405D01*
X-66366Y68000D01*
X-61239D01*
Y55200D01*
X-61219Y55101D01*
X-61229Y55000D01*
X-61052Y53205D01*
X-60994Y53013D01*
X-60974Y52813D01*
X-60451Y51087D01*
X-60356Y50910D01*
X-60298Y50718D01*
X-59448Y49128D01*
X-59321Y48972D01*
X-59226Y48795D01*
X-58081Y47401D01*
X-57926Y47274D01*
X-57799Y47118D01*
X-56405Y45974D01*
X-56228Y45880D01*
X-56073Y45752D01*
X-54482Y44902D01*
X-54290Y44844D01*
X-54113Y44749D01*
X-52387Y44226D01*
X-52187Y44206D01*
X-51995Y44148D01*
X-50200Y43971D01*
X-50000Y43990D01*
X-49800Y43971D01*
X-48005Y44148D01*
X-47813Y44206D01*
X-47613Y44226D01*
X-45887Y44749D01*
X-45710Y44844D01*
X-45518Y44902D01*
X-43928Y45752D01*
X-43772Y45880D01*
X-43595Y45974D01*
X-42201Y47118D01*
X-42074Y47274D01*
X-41919Y47401D01*
X-41809Y47534D01*
X-40901Y47331D01*
X-40512Y47113D01*
X-40384Y46470D01*
X-39942Y45808D01*
X-39280Y45366D01*
X-38500Y45211D01*
X-11500D01*
X-10720Y45366D01*
X-10058Y45808D01*
X-9942D01*
X-9280Y45366D01*
X-8500Y45211D01*
X-4596D01*
X-4070Y43941D01*
X-4353Y43657D01*
X-5000Y42095D01*
Y40405D01*
X-4353Y38843D01*
X-3157Y37647D01*
X-1595Y37000D01*
X95D01*
X1657Y37647D01*
X2853Y38843D01*
X3500Y40405D01*
Y42095D01*
X2853Y43657D01*
X2570Y43941D01*
X3096Y45211D01*
X8404D01*
X8930Y43941D01*
X8647Y43657D01*
X8000Y42095D01*
Y40405D01*
X8647Y38843D01*
X9843Y37647D01*
X11405Y37000D01*
X13095D01*
X14657Y37647D01*
X15853Y38843D01*
X16500Y40405D01*
Y42095D01*
X15853Y43657D01*
X15570Y43941D01*
X16096Y45211D01*
X18500D01*
X19280Y45366D01*
X19545Y45543D01*
X20759Y45090D01*
X21271Y43896D01*
X21250Y43845D01*
Y42155D01*
X21897Y40593D01*
X23093Y39397D01*
X24655Y38750D01*
X26345D01*
X27907Y39397D01*
X29103Y40593D01*
X29750Y42155D01*
Y43845D01*
X29622Y44155D01*
X30327Y45211D01*
X48500D01*
X49280Y45366D01*
X49942Y45808D01*
X50384Y46470D01*
X50539Y47250D01*
Y119984D01*
X59500D01*
Y68000D01*
D02*
G37*
G36*
X-61386Y119584D02*
X-61239Y118089D01*
Y76011D01*
X-95000Y42250D01*
Y19400D01*
X-124812Y-10412D01*
X-127000D01*
X-128756Y-10761D01*
X-130244Y-11756D01*
X-130934Y-12446D01*
X-131390Y-12257D01*
X-134000Y-11914D01*
X-136610Y-12257D01*
X-137800Y-12750D01*
X-171750D01*
X-174195Y-10305D01*
Y35559D01*
X-171159Y38595D01*
X-169788D01*
X-169389Y38289D01*
X-167199Y37382D01*
X-164850Y37072D01*
X-143000D01*
X-142410Y37150D01*
X-132800D01*
Y55150D01*
X-142410D01*
X-143000Y55228D01*
X-155372D01*
X-155507Y64799D01*
X-158543Y67750D01*
X-167423D01*
X-169461Y69788D01*
Y118089D01*
X-169314Y119584D01*
X-169193Y119984D01*
X-61508D01*
X-61386Y119584D01*
D02*
G37*
G36*
X71922Y-2150D02*
X70652Y-2676D01*
X70157Y-2182D01*
X68595Y-1535D01*
X66905D01*
X65343Y-2182D01*
X64147Y-3378D01*
X63500Y-4940D01*
Y-6630D01*
X64147Y-8192D01*
X65343Y-9388D01*
X66905Y-10035D01*
X68595D01*
X70157Y-9388D01*
X70227Y-9318D01*
X71530Y-9597D01*
X71789Y-10266D01*
X71062Y-11414D01*
X56500D01*
X53889Y-11757D01*
X51457Y-12765D01*
X49368Y-14368D01*
X47765Y-16457D01*
X46757Y-18889D01*
X46414Y-21500D01*
X46757Y-24111D01*
X47765Y-26543D01*
X49368Y-28632D01*
X51457Y-30235D01*
X53889Y-31243D01*
X56500Y-31586D01*
X89000D01*
X91610Y-31243D01*
X94043Y-30235D01*
X95652Y-29001D01*
X96922Y-29611D01*
Y-39718D01*
X81813Y-54826D01*
X80211D01*
X80027Y-54750D01*
X78336D01*
X76774Y-55397D01*
X76111Y-56061D01*
X75049Y-56299D01*
X74511Y-56001D01*
X73657Y-55147D01*
X72952Y-54855D01*
X72603Y-53407D01*
X73250Y-51845D01*
Y-50155D01*
X72603Y-48593D01*
X71407Y-47397D01*
X69845Y-46750D01*
X68155D01*
X66593Y-47397D01*
X65397Y-48593D01*
X64750Y-50155D01*
Y-51845D01*
X65397Y-53407D01*
X66593Y-54603D01*
X67298Y-54895D01*
X67647Y-56343D01*
X67000Y-57905D01*
Y-59595D01*
X67172Y-60010D01*
Y-63250D01*
X67172Y-63250D01*
X67482Y-64811D01*
X68366Y-66134D01*
X74961Y-72729D01*
X74475Y-73902D01*
X64982D01*
X51598Y-60518D01*
Y-57790D01*
X51269Y-56138D01*
X51972Y-54868D01*
X53750D01*
X53750Y-54868D01*
X55311Y-54558D01*
X56402Y-53829D01*
X56947Y-53603D01*
X58143Y-52407D01*
X58790Y-50845D01*
Y-49155D01*
X58143Y-47593D01*
X56947Y-46397D01*
X55385Y-45750D01*
X53695D01*
X52133Y-46397D01*
X51818Y-46712D01*
X34935D01*
X26328Y-38105D01*
Y14561D01*
X39939Y28172D01*
X48250D01*
X48250Y28172D01*
X49811Y28482D01*
X51134Y29366D01*
X67884Y46116D01*
X67884Y46116D01*
X68768Y47439D01*
X69078Y49000D01*
Y68000D01*
X71922D01*
Y-2150D01*
D02*
G37*
G36*
X-20750Y25500D02*
X-30250D01*
X-34000Y30000D01*
X-30250Y34500D01*
X-20750D01*
Y25500D01*
D02*
G37*
G36*
Y11500D02*
X-30250D01*
X-34000Y16000D01*
X-30250Y20500D01*
X-20750D01*
Y11500D01*
D02*
G37*
G36*
X-37750Y16000D02*
X-34000Y11500D01*
X-47250D01*
Y20500D01*
X-34000D01*
X-37750Y16000D01*
D02*
G37*
G36*
X-20750Y-2500D02*
X-34000D01*
X-30250Y2000D01*
X-34000Y6500D01*
X-20750D01*
Y-2500D01*
D02*
G37*
G36*
X-34000Y2000D02*
X-37750Y-2500D01*
X-47250D01*
Y6500D01*
X-37750D01*
X-34000Y2000D01*
D02*
G37*
G36*
X-20750Y-20500D02*
X-30250D01*
X-34000Y-16000D01*
X-30250Y-11500D01*
X-20750D01*
Y-20500D01*
D02*
G37*
G36*
Y-34500D02*
X-30250D01*
X-34000Y-30000D01*
X-30250Y-25500D01*
X-20750D01*
Y-34500D01*
D02*
G37*
G36*
X-37750Y-30000D02*
X-34000Y-34500D01*
X-47250D01*
Y-25500D01*
X-34000D01*
X-37750Y-30000D01*
D02*
G37*
G36*
X-20750Y-48500D02*
X-34000D01*
X-30250Y-44000D01*
X-34000Y-39500D01*
X-20750D01*
Y-48500D01*
D02*
G37*
G36*
X-34000Y-44000D02*
X-37750Y-48500D01*
X-47250D01*
Y-39500D01*
X-37750D01*
X-34000Y-44000D01*
D02*
G37*
G36*
X160500Y-48250D02*
X156000Y-52000D01*
X151500Y-48250D01*
Y-38750D01*
X160500D01*
Y-48250D01*
D02*
G37*
G36*
Y-65250D02*
X151500D01*
Y-52000D01*
X156000Y-55750D01*
X160500Y-52000D01*
Y-65250D01*
D02*
G37*
G36*
X-90601Y-9189D02*
X-91877Y-9443D01*
X-93201Y-10327D01*
X-93201Y-10327D01*
X-102289Y-19416D01*
X-103173Y-20739D01*
X-103484Y-22300D01*
X-103484Y-22300D01*
Y-38522D01*
X-103484Y-38523D01*
X-103173Y-40083D01*
X-102289Y-41406D01*
X-75812Y-67884D01*
X-75812Y-67884D01*
X-74489Y-68768D01*
X-72928Y-69078D01*
X-41492D01*
X-40500Y-69750D01*
Y-83250D01*
X-27500D01*
Y-83250D01*
X-26500Y-83250D01*
Y-83250D01*
X-13500D01*
Y-80578D01*
X-6127D01*
X-5948Y-80872D01*
X-6600Y-82239D01*
X-7742Y-82389D01*
X-10174Y-83396D01*
X-12263Y-84999D01*
X-13607Y-86750D01*
X-26500D01*
X-26500Y-86750D01*
X-27500Y-86750D01*
Y-86750D01*
X-27770Y-86750D01*
X-40500D01*
X-40500Y-86750D01*
X-41500D01*
Y-86750D01*
X-41770Y-86750D01*
X-54500D01*
Y-95489D01*
X-55673Y-95975D01*
X-81820Y-69828D01*
X-83909Y-68225D01*
X-86342Y-67217D01*
X-88952Y-66874D01*
X-93950D01*
X-123954Y-36870D01*
Y-22304D01*
X-123914Y-22000D01*
X-124106Y-20543D01*
X-123268Y-19588D01*
X-109000D01*
X-107244Y-19239D01*
X-105756Y-18244D01*
X-95431Y-7919D01*
X-90726D01*
X-90601Y-9189D01*
D02*
G37*
G36*
X169314Y119584D02*
X169461Y118089D01*
Y55200D01*
X169481Y55101D01*
X169471Y55000D01*
X169648Y53205D01*
X169706Y53013D01*
X169725Y52813D01*
X170249Y51087D01*
X170344Y50910D01*
X170402Y50718D01*
X171252Y49127D01*
X171380Y48972D01*
X171474Y48795D01*
X172618Y47401D01*
X172774Y47274D01*
X172901Y47118D01*
X174295Y45974D01*
X174472Y45880D01*
X174627Y45752D01*
X176218Y44902D01*
X176410Y44844D01*
X176587Y44749D01*
X178313Y44226D01*
X178513Y44206D01*
X178705Y44148D01*
X180500Y43971D01*
X180601Y43981D01*
X180700Y43961D01*
X185700D01*
X187195Y43814D01*
X188536Y43407D01*
X189773Y42746D01*
X190856Y41856D01*
X191746Y40773D01*
X192407Y39536D01*
X192814Y38195D01*
X192961Y36700D01*
Y-99911D01*
X192528Y-104854D01*
X191267Y-109561D01*
X189208Y-113977D01*
X186413Y-117968D01*
X182968Y-121413D01*
X178976Y-124208D01*
X174560Y-126267D01*
X169854Y-127529D01*
X164911Y-127961D01*
X-6813D01*
X-7222Y-126758D01*
X-6942Y-126544D01*
X2001Y-117601D01*
X3604Y-115512D01*
X4611Y-113080D01*
X4955Y-110469D01*
Y-97432D01*
X5769Y-97048D01*
X6225Y-96993D01*
X9225Y-99993D01*
X9397Y-100407D01*
X10593Y-101603D01*
X12155Y-102250D01*
X13845D01*
X15407Y-101603D01*
X15891Y-101120D01*
X17154Y-101244D01*
X17395Y-101605D01*
X19049Y-102710D01*
X21000Y-103098D01*
X22951Y-102710D01*
X24605Y-101605D01*
X25710Y-99951D01*
X26098Y-98000D01*
Y-94983D01*
X25710Y-93032D01*
X24605Y-91378D01*
X21598Y-88372D01*
Y-86427D01*
X22771Y-85941D01*
X28902Y-92072D01*
Y-92912D01*
X29290Y-94863D01*
X30395Y-96517D01*
X30443Y-96565D01*
X32097Y-97670D01*
X34048Y-98058D01*
X35999Y-97670D01*
X37653Y-96565D01*
X38758Y-94911D01*
X39146Y-92960D01*
X39098Y-92718D01*
Y-90746D01*
X40368Y-90220D01*
X53032Y-102884D01*
X53032Y-102884D01*
X54355Y-103768D01*
X55916Y-104078D01*
X55916Y-104078D01*
X134970D01*
X134971Y-104078D01*
X136531Y-103768D01*
X137854Y-102884D01*
X146205Y-94534D01*
X147630Y-94818D01*
X147669Y-94866D01*
X147000Y-98227D01*
Y-101773D01*
X147692Y-105251D01*
X149049Y-108526D01*
X151018Y-111474D01*
X153526Y-113982D01*
X156474Y-115951D01*
X159749Y-117308D01*
X163227Y-118000D01*
X166773D01*
X170250Y-117308D01*
X173526Y-115951D01*
X176474Y-113982D01*
X178981Y-111474D01*
X180951Y-108526D01*
X182308Y-105251D01*
X183000Y-101773D01*
Y-98227D01*
X182308Y-94750D01*
X180951Y-91474D01*
X178981Y-88526D01*
X176474Y-86019D01*
X173526Y-84049D01*
X170250Y-82692D01*
X166773Y-82000D01*
X163227D01*
X159866Y-82669D01*
X159817Y-82630D01*
X159534Y-81205D01*
X176424Y-64314D01*
X176424Y-64314D01*
X177308Y-62991D01*
X177618Y-61431D01*
X177618Y-61430D01*
Y-41291D01*
X177308Y-39730D01*
X176424Y-38407D01*
X166496Y-28480D01*
X165646Y-27206D01*
X159190Y-20751D01*
X159018Y-20336D01*
X157823Y-19141D01*
X156261Y-18494D01*
X154570D01*
X153008Y-19141D01*
X151812Y-20336D01*
X151165Y-21899D01*
Y-23589D01*
X151812Y-25151D01*
X153008Y-26347D01*
X153422Y-26518D01*
X159027Y-32123D01*
X159878Y-33397D01*
X161961Y-35480D01*
X161435Y-36750D01*
X160697D01*
X160500Y-36711D01*
X151500D01*
X151303Y-36750D01*
X149542D01*
Y-26796D01*
X149713Y-26382D01*
Y-24691D01*
X149066Y-23129D01*
X147871Y-21934D01*
X146309Y-21286D01*
X144618D01*
X144032Y-21529D01*
X142762Y-20680D01*
Y-17447D01*
X158605Y-1605D01*
X159710Y49D01*
X160098Y2000D01*
Y68000D01*
X160500D01*
Y119984D01*
X169192D01*
X169314Y119584D01*
D02*
G37*
%LPC*%
G36*
X-149155Y-64750D02*
X-150845D01*
X-152407Y-65397D01*
X-153500Y-66490D01*
X-154593Y-65397D01*
X-156155Y-64750D01*
X-157845D01*
X-159407Y-65397D01*
X-160500Y-66490D01*
X-161593Y-65397D01*
X-163155Y-64750D01*
X-164845D01*
X-166407Y-65397D01*
X-167500Y-66490D01*
X-168593Y-65397D01*
X-170155Y-64750D01*
X-171845D01*
X-173407Y-65397D01*
X-174500Y-66490D01*
X-175593Y-65397D01*
X-177155Y-64750D01*
X-178845D01*
X-180407Y-65397D01*
X-181500Y-66490D01*
X-182593Y-65397D01*
X-184155Y-64750D01*
X-185845D01*
X-187407Y-65397D01*
X-188603Y-66593D01*
X-189250Y-68155D01*
Y-69845D01*
X-188603Y-71407D01*
X-187510Y-72500D01*
X-188603Y-73593D01*
X-189250Y-75155D01*
Y-76845D01*
X-188603Y-78407D01*
X-187510Y-79500D01*
X-188603Y-80593D01*
X-189250Y-82155D01*
Y-83845D01*
X-188603Y-85407D01*
X-187407Y-86603D01*
X-185845Y-87250D01*
X-184155D01*
X-182593Y-86603D01*
X-181500Y-85510D01*
X-180407Y-86603D01*
X-178845Y-87250D01*
X-177155D01*
X-175593Y-86603D01*
X-174500Y-85510D01*
X-173407Y-86603D01*
X-171845Y-87250D01*
X-170155D01*
X-168593Y-86603D01*
X-167500Y-85510D01*
X-166407Y-86603D01*
X-164845Y-87250D01*
X-163155D01*
X-161593Y-86603D01*
X-160500Y-85510D01*
X-159407Y-86603D01*
X-157845Y-87250D01*
X-156155D01*
X-154593Y-86603D01*
X-153500Y-85510D01*
X-152407Y-86603D01*
X-150845Y-87250D01*
X-149155D01*
X-147593Y-86603D01*
X-146397Y-85407D01*
X-145750Y-83845D01*
Y-82155D01*
X-146397Y-80593D01*
X-147490Y-79500D01*
X-146397Y-78407D01*
X-145750Y-76845D01*
Y-75155D01*
X-146397Y-73593D01*
X-147490Y-72500D01*
X-146397Y-71407D01*
X-145750Y-69845D01*
Y-68155D01*
X-146397Y-66593D01*
X-147593Y-65397D01*
X-149155Y-64750D01*
D02*
G37*
G36*
X-145155Y-91750D02*
X-146845D01*
X-148407Y-92397D01*
X-149500Y-93490D01*
X-150593Y-92397D01*
X-152155Y-91750D01*
X-153845D01*
X-155407Y-92397D01*
X-156500Y-93490D01*
X-157593Y-92397D01*
X-159155Y-91750D01*
X-160845D01*
X-162407Y-92397D01*
X-163500Y-93490D01*
X-164593Y-92397D01*
X-166155Y-91750D01*
X-167845D01*
X-169407Y-92397D01*
X-170500Y-93490D01*
X-171593Y-92397D01*
X-173155Y-91750D01*
X-174845D01*
X-176407Y-92397D01*
X-177500Y-93490D01*
X-178593Y-92397D01*
X-180155Y-91750D01*
X-181845D01*
X-183407Y-92397D01*
X-184603Y-93593D01*
X-185250Y-95155D01*
Y-96845D01*
X-184603Y-98407D01*
X-183510Y-99500D01*
X-184603Y-100593D01*
X-185250Y-102155D01*
Y-103845D01*
X-184603Y-105407D01*
X-183510Y-106500D01*
X-184603Y-107593D01*
X-185250Y-109155D01*
Y-110845D01*
X-184603Y-112407D01*
X-183407Y-113603D01*
X-181845Y-114250D01*
X-180155D01*
X-178593Y-113603D01*
X-177500Y-112510D01*
X-176407Y-113603D01*
X-174845Y-114250D01*
X-173155D01*
X-171593Y-113603D01*
X-170500Y-112510D01*
X-169407Y-113603D01*
X-167845Y-114250D01*
X-166155D01*
X-164593Y-113603D01*
X-163500Y-112510D01*
X-162407Y-113603D01*
X-160845Y-114250D01*
X-159155D01*
X-157593Y-113603D01*
X-156500Y-112510D01*
X-155407Y-113603D01*
X-153845Y-114250D01*
X-152155D01*
X-150593Y-113603D01*
X-149500Y-112510D01*
X-148407Y-113603D01*
X-146845Y-114250D01*
X-145155D01*
X-143593Y-113603D01*
X-142397Y-112407D01*
X-141750Y-110845D01*
Y-109155D01*
X-142397Y-107593D01*
X-143490Y-106500D01*
X-142397Y-105407D01*
X-141750Y-103845D01*
Y-102155D01*
X-142397Y-100593D01*
X-143490Y-99500D01*
X-142397Y-98407D01*
X-141750Y-96845D01*
Y-95155D01*
X-142397Y-93593D01*
X-143593Y-92397D01*
X-145155Y-91750D01*
D02*
G37*
G36*
X-95655Y-95250D02*
X-97345D01*
X-98907Y-95897D01*
X-100103Y-97093D01*
X-100750Y-98655D01*
Y-100345D01*
X-100103Y-101907D01*
X-98907Y-103103D01*
X-97345Y-103750D01*
X-95655D01*
X-94093Y-103103D01*
X-92897Y-101907D01*
X-92250Y-100345D01*
Y-98655D01*
X-92897Y-97093D01*
X-94093Y-95897D01*
X-95655Y-95250D01*
D02*
G37*
G36*
X-86155Y-99500D02*
X-87845D01*
X-89407Y-100147D01*
X-90603Y-101343D01*
X-91250Y-102905D01*
Y-104595D01*
X-90603Y-106157D01*
X-89407Y-107353D01*
X-87845Y-108000D01*
X-86155D01*
X-84593Y-107353D01*
X-83397Y-106157D01*
X-82750Y-104595D01*
Y-102905D01*
X-83397Y-101343D01*
X-84593Y-100147D01*
X-86155Y-99500D01*
D02*
G37*
G36*
X-126655Y-104250D02*
X-128345D01*
X-129907Y-104897D01*
X-131103Y-106093D01*
X-131750Y-107655D01*
Y-109345D01*
X-131103Y-110907D01*
X-129907Y-112103D01*
X-128345Y-112750D01*
X-127086D01*
X-126312Y-113628D01*
X-126197Y-113923D01*
X-126500Y-114655D01*
Y-116345D01*
X-125853Y-117907D01*
X-124657Y-119103D01*
X-123095Y-119750D01*
X-121405D01*
X-119843Y-119103D01*
X-118647Y-117907D01*
X-118000Y-116345D01*
Y-114655D01*
X-118647Y-113093D01*
X-119843Y-111897D01*
X-121405Y-111250D01*
X-122664D01*
X-123438Y-110372D01*
X-123553Y-110077D01*
X-123250Y-109345D01*
Y-107655D01*
X-123897Y-106093D01*
X-125093Y-104897D01*
X-126655Y-104250D01*
D02*
G37*
G36*
X-133905Y-111250D02*
X-135595D01*
X-137157Y-111897D01*
X-138353Y-113093D01*
X-139000Y-114655D01*
Y-116345D01*
X-138353Y-117907D01*
X-137157Y-119103D01*
X-135595Y-119750D01*
X-133905D01*
X-132343Y-119103D01*
X-131147Y-117907D01*
X-130500Y-116345D01*
Y-114655D01*
X-131147Y-113093D01*
X-132343Y-111897D01*
X-133905Y-111250D01*
D02*
G37*
G36*
X6345Y34000D02*
X4655D01*
X3093Y33353D01*
X1897Y32157D01*
X1250Y30595D01*
Y28905D01*
X1897Y27343D01*
X3093Y26147D01*
X4655Y25500D01*
X6345D01*
X7907Y26147D01*
X9103Y27343D01*
X9750Y28905D01*
Y30595D01*
X9103Y32157D01*
X7907Y33353D01*
X6345Y34000D01*
D02*
G37*
G36*
X95Y25750D02*
X-1595D01*
X-3157Y25103D01*
X-4353Y23907D01*
X-5000Y22345D01*
Y20655D01*
X-4353Y19093D01*
X-3157Y17897D01*
X-1595Y17250D01*
X95D01*
X1657Y17897D01*
X2853Y19093D01*
X3500Y20655D01*
Y22345D01*
X2853Y23907D01*
X1657Y25103D01*
X95Y25750D01*
D02*
G37*
G36*
X2095Y9250D02*
X405D01*
X-1157Y8603D01*
X-2353Y7407D01*
X-3000Y5845D01*
Y4155D01*
X-2353Y2593D01*
X-1157Y1397D01*
X405Y750D01*
X2095D01*
X3657Y1397D01*
X4853Y2593D01*
X5500Y4155D01*
Y5845D01*
X4853Y7407D01*
X3657Y8603D01*
X2095Y9250D01*
D02*
G37*
G36*
X-11155Y-6500D02*
X-12845D01*
X-14407Y-7147D01*
X-15603Y-8343D01*
X-16250Y-9905D01*
Y-11595D01*
X-15603Y-13157D01*
X-14407Y-14353D01*
X-12845Y-15000D01*
X-11155D01*
X-9593Y-14353D01*
X-8397Y-13157D01*
X-7750Y-11595D01*
Y-9905D01*
X-8397Y-8343D01*
X-9593Y-7147D01*
X-11155Y-6500D01*
D02*
G37*
G36*
X-2155Y-14750D02*
X-3845D01*
X-5407Y-15397D01*
X-6603Y-16593D01*
X-7250Y-18155D01*
Y-19845D01*
X-6603Y-21407D01*
X-5407Y-22603D01*
X-3845Y-23250D01*
X-2155D01*
X-593Y-22603D01*
X603Y-21407D01*
X1250Y-19845D01*
Y-18155D01*
X603Y-16593D01*
X-593Y-15397D01*
X-2155Y-14750D01*
D02*
G37*
G36*
X7345Y-25000D02*
X5655D01*
X4093Y-25647D01*
X2897Y-26843D01*
X2250Y-28405D01*
Y-30095D01*
X2897Y-31657D01*
X4093Y-32853D01*
X5655Y-33500D01*
X7345D01*
X7746Y-33334D01*
X8702Y-34313D01*
X8250Y-35405D01*
Y-37095D01*
X8897Y-38657D01*
X10093Y-39853D01*
X11655Y-40500D01*
X13345D01*
X14907Y-39853D01*
X16103Y-38657D01*
X16750Y-37095D01*
Y-35405D01*
X16103Y-33843D01*
X14907Y-32647D01*
X13345Y-32000D01*
X11655D01*
X11254Y-32166D01*
X10298Y-31187D01*
X10750Y-30095D01*
Y-28405D01*
X10103Y-26843D01*
X8907Y-25647D01*
X7345Y-25000D01*
D02*
G37*
G36*
X65199Y30250D02*
X63508D01*
X61946Y29603D01*
X60751Y28407D01*
X60104Y26845D01*
Y25155D01*
X60751Y23593D01*
X61946Y22397D01*
X63508Y21750D01*
X65199D01*
X66761Y22397D01*
X67957Y23593D01*
X68604Y25155D01*
Y26845D01*
X67957Y28407D01*
X66761Y29603D01*
X65199Y30250D01*
D02*
G37*
G36*
X38595Y17500D02*
X36905D01*
X35343Y16853D01*
X34147Y15657D01*
X33500Y14095D01*
Y12405D01*
X34147Y10843D01*
X34615Y10375D01*
X34147Y9907D01*
X33500Y8345D01*
Y6655D01*
X34147Y5093D01*
X35343Y3897D01*
X36905Y3250D01*
X38595D01*
X40157Y3897D01*
X41353Y5093D01*
X42000Y6655D01*
Y8345D01*
X41353Y9907D01*
X40885Y10375D01*
X41353Y10843D01*
X42000Y12405D01*
Y14095D01*
X41353Y15657D01*
X40157Y16853D01*
X38595Y17500D01*
D02*
G37*
G36*
X53135Y1220D02*
X51445D01*
X49883Y573D01*
X48687Y-622D01*
X48040Y-2184D01*
Y-3875D01*
X48687Y-5437D01*
X49883Y-6633D01*
X51445Y-7279D01*
X53135D01*
X54697Y-6633D01*
X55893Y-5437D01*
X56540Y-3875D01*
Y-2184D01*
X55893Y-622D01*
X54697Y573D01*
X53135Y1220D01*
D02*
G37*
%LPD*%
D10*
X-87447Y-20193D02*
Y-20082D01*
Y-20193D02*
X-82274Y-25367D01*
X-68257Y11657D02*
X-65914Y14000D01*
X-68257Y11415D02*
Y11657D01*
X-44500Y14000D02*
X-42500Y16000D01*
X-65914Y14000D02*
X-44500D01*
X-74010Y5663D02*
X-68257Y11415D01*
X-74010Y5528D02*
Y5663D01*
X-99405Y-38523D02*
Y-22300D01*
X-90317Y-13211D01*
X-84429D01*
X-82889Y-14751D01*
X-82754D01*
X-82274Y-29266D02*
Y-25367D01*
X-61353Y-22647D02*
Y-21179D01*
X-67867Y-14665D02*
X-61353Y-21179D01*
Y-22647D02*
X-54000Y-30000D01*
X-82274Y-29266D02*
X-58539Y-53000D01*
X20916Y-65000D02*
X55916Y-100000D01*
X90710Y-397D02*
Y31680D01*
X97500Y-3749D02*
X107000Y-13249D01*
X97500Y-3749D02*
Y37500D01*
X101000Y-41407D02*
Y-16530D01*
X93971Y-9500D02*
X101000Y-16530D01*
X90210Y-9500D02*
X93971D01*
X83920Y-3210D02*
X90210Y-9500D01*
X107000Y-51854D02*
Y-13249D01*
X83920Y-3210D02*
Y33375D01*
X105177Y-1823D02*
X118000Y11000D01*
Y37970D01*
X76000Y-8250D02*
Y94000D01*
X24000Y-59000D02*
X57000Y-92000D01*
X-66460Y-59000D02*
X24000D01*
X-36343Y-65000D02*
X20916D01*
X26971Y-53000D02*
X59970Y-86000D01*
X-58539Y-53000D02*
X26971D01*
X-54000Y-30000D02*
X-42500D01*
X-89750Y-35710D02*
X-66460Y-59000D01*
X-34000Y-93750D02*
X-28500Y-99250D01*
Y-99907D02*
Y-99250D01*
X-26017Y-105943D02*
Y-102390D01*
X-34000Y-93750D02*
Y-93500D01*
X-28500Y-99907D02*
X-26017Y-102390D01*
Y-105943D02*
X-25960Y-106000D01*
X-45632Y-100868D02*
X-40500Y-106000D01*
X-45632Y-100868D02*
Y-96250D01*
X-48197Y-93697D02*
X-48186D01*
X-45632Y-96250D01*
X-40500Y-106000D02*
X-33135D01*
X9000Y-94000D02*
X13000Y-98000D01*
X-20000Y-76500D02*
X-3500D01*
X9000Y-89000D01*
Y-94000D02*
Y-89000D01*
X-99405Y-38523D02*
X-72928Y-65000D01*
X-36343D01*
X-34000Y-76500D02*
Y-67343D01*
X-20000Y-93500D02*
X-18787Y-94713D01*
Y-105846D02*
Y-94713D01*
Y-105846D02*
X-18691Y-105941D01*
X118000Y37970D02*
X135000Y54971D01*
X113000Y60437D02*
X118188Y55250D01*
X118323D01*
X122250Y65460D02*
X123902Y67112D01*
X122135Y65460D02*
X122250D01*
X113000Y66062D02*
X113500Y66562D01*
X119925Y63250D02*
X122135Y65460D01*
X113500Y66562D02*
Y93500D01*
X113000Y60437D02*
Y66062D01*
X119790Y63250D02*
X119925D01*
X75000Y95000D02*
X76000Y94000D01*
X97500Y37500D02*
X105000Y45000D01*
X91500Y39985D02*
X95000Y43485D01*
X90710Y31680D02*
X91500Y32470D01*
X83920Y33375D02*
X85000Y34455D01*
X91500Y32470D02*
Y39985D01*
X85000Y34455D02*
Y95000D01*
X71250Y-63250D02*
X80000Y-72000D01*
X71250Y-63250D02*
Y-58885D01*
X79277Y-58904D02*
X83503D01*
X101000Y-41407D01*
X79182Y-59000D02*
X79277Y-58904D01*
X80000Y-72000D02*
X122285D01*
X123075Y-71210D01*
X107000Y-51854D02*
X120060Y-64914D01*
X120060D01*
X123075Y-71210D02*
X123210D01*
X145463Y-72537D02*
Y-25536D01*
X162762Y-30513D02*
Y-30090D01*
X155415Y-22744D02*
X162762Y-30090D01*
X132000Y-86000D02*
X145463Y-72537D01*
X162762Y-30513D02*
X173540Y-41291D01*
X166301Y-43654D02*
X166396Y-43750D01*
X156154Y-43654D02*
X166301D01*
X156000Y-43500D02*
X156154Y-43654D01*
X134971Y-100000D02*
X173540Y-61431D01*
Y-41291D01*
X57000Y-92000D02*
X134485D01*
X55916Y-100000D02*
X134971D01*
X123902Y67112D02*
Y93902D01*
X125000Y95000D01*
X113500Y93500D02*
X115000Y95000D01*
X135000Y54971D02*
Y95000D01*
X33246Y-50790D02*
X53750D01*
X54540Y-50000D01*
X105000Y45000D02*
Y95000D01*
X95000Y43485D02*
Y95000D01*
X48250Y32250D02*
X65000Y49000D01*
X38250Y32250D02*
X48250D01*
X65000Y49000D02*
Y95000D01*
X22250Y-39794D02*
X33246Y-50790D01*
X59970Y-86000D02*
X132000D01*
X22250Y-39794D02*
Y16250D01*
X134485Y-92000D02*
X155235Y-71250D01*
Y-61265D01*
X156000Y-60500D01*
X-36343Y-65000D02*
X-34000Y-67343D01*
X22250Y16250D02*
X38250Y32250D01*
D16*
X-25500Y16000D02*
D03*
X-42500D02*
D03*
X-25500Y-30000D02*
D03*
X-42500D02*
D03*
X-25500Y-44000D02*
D03*
X-42500D02*
D03*
X-42500Y-16000D02*
D03*
X-25500D02*
D03*
X-25500Y2000D02*
D03*
X-42500D02*
D03*
X-42500Y30000D02*
D03*
X-25500D02*
D03*
D17*
X-65000Y95000D02*
D03*
X-75000D02*
D03*
X-85000D02*
D03*
X-95000D02*
D03*
X-105000D02*
D03*
X-115000D02*
D03*
X-125000D02*
D03*
X-135000D02*
D03*
X-145000D02*
D03*
X-155000D02*
D03*
X-165000D02*
D03*
X-35000D02*
D03*
X-15000D02*
D03*
X-5000D02*
D03*
X15000D02*
D03*
X25000D02*
D03*
X35000D02*
D03*
X5000D02*
D03*
X-25000D02*
D03*
X45000D02*
D03*
X65000D02*
D03*
X75000D02*
D03*
X85000D02*
D03*
X95000D02*
D03*
X105000D02*
D03*
X115000D02*
D03*
X125000D02*
D03*
X145000D02*
D03*
X135000D02*
D03*
X155000D02*
D03*
X55000D02*
D03*
D18*
X165000Y88000D02*
D03*
D24*
X156000Y-43500D02*
D03*
Y-60500D02*
D03*
X-20000Y-93500D02*
D03*
Y-76500D02*
D03*
X-48000Y-76500D02*
D03*
Y-93500D02*
D03*
X-34000Y-76500D02*
D03*
Y-93500D02*
D03*
X75000Y-21500D02*
D03*
Y-38500D02*
D03*
X89000Y-21500D02*
D03*
Y-38500D02*
D03*
D37*
X18000Y-74015D02*
Y-72040D01*
X46500Y-62630D02*
Y-57790D01*
X24540Y-80500D02*
Y-78960D01*
X16500Y-90483D02*
Y-75515D01*
Y-90483D02*
X21000Y-94983D01*
Y-98000D02*
Y-94983D01*
X16500Y-75515D02*
X18000Y-74015D01*
X128000Y-79000D02*
X138000Y-69000D01*
X137664Y-15336D02*
X155000Y2000D01*
X137664Y-30411D02*
X138000Y-30746D01*
X137664Y-30411D02*
Y-15336D01*
X138000Y-69000D02*
Y-30746D01*
X46500Y-62630D02*
X62870Y-79000D01*
X128000D01*
X34000Y-92912D02*
X34048Y-92960D01*
X34000Y-92912D02*
Y-89960D01*
X24540Y-80500D02*
X34000Y-89960D01*
X155000Y2000D02*
Y95000D01*
D38*
X55000Y51000D02*
Y58000D01*
Y65000D01*
Y95000D01*
X139000Y42000D02*
Y45000D01*
X145000Y51000D01*
Y95000D01*
X165000Y51000D02*
Y88000D01*
Y51000D02*
X165000Y51000D01*
D39*
X-14074Y-119412D02*
X-5131Y-110469D01*
X-46501Y-119412D02*
X-14074D01*
X-88952Y-76960D02*
X-46501Y-119412D01*
X-5131Y-110469D02*
Y-92131D01*
X-134040Y-41048D02*
Y-22040D01*
Y-41048D02*
X-98128Y-76960D01*
X-88952D01*
X-134040Y-22040D02*
X-134000Y-22000D01*
X139000Y5000D02*
Y42000D01*
X75000Y-21500D02*
X89000D01*
X56500D02*
X75000D01*
D41*
X165000Y-100000D02*
D03*
D42*
X-87447Y-20082D02*
D03*
X-64772Y-5853D02*
D03*
X-74010Y5528D02*
D03*
X-87500Y37500D02*
D03*
X-100000Y27000D02*
D03*
X-80000Y45000D02*
D03*
X-74500Y19793D02*
D03*
X-82754Y-14751D02*
D03*
X-67867Y-14665D02*
D03*
X-12000Y-10750D02*
D03*
X-15500Y-28250D02*
D03*
X12500Y-36250D02*
D03*
X6500Y-29250D02*
D03*
X67750Y-5785D02*
D03*
X52290Y-3030D02*
D03*
X57006Y-8257D02*
D03*
X46500Y-57790D02*
D03*
X90710Y-397D02*
D03*
X106480Y24521D02*
D03*
X71250Y-58750D02*
D03*
X69000Y-51000D02*
D03*
X105177Y-1823D02*
D03*
X-123750Y-125000D02*
D03*
X-33000Y-106000D02*
D03*
X-122250Y-115500D02*
D03*
X-155000Y-125000D02*
D03*
X-127500Y-108500D02*
D03*
X-145000Y-125000D02*
D03*
X-135000D02*
D03*
X-113000D02*
D03*
X-89750Y-35710D02*
D03*
X-77000Y-107000D02*
D03*
X-146000Y-96000D02*
D03*
X-121250Y-35750D02*
D03*
X-96500Y-99500D02*
D03*
X-63816Y38460D02*
D03*
X-99500Y-89750D02*
D03*
X-108750Y-35750D02*
D03*
X-115000D02*
D03*
X-87000Y-103750D02*
D03*
X-15000Y-36500D02*
D03*
X-3000Y-19000D02*
D03*
X1250Y5000D02*
D03*
X37750Y7500D02*
D03*
Y13250D02*
D03*
X-750Y21500D02*
D03*
X-134750Y-115500D02*
D03*
X-25960Y-106000D02*
D03*
X-18000Y39000D02*
D03*
X5500Y29750D02*
D03*
X12250Y41250D02*
D03*
X25500Y43000D02*
D03*
X-750Y41250D02*
D03*
X-33000Y39000D02*
D03*
X-115000Y-30000D02*
D03*
X-109000D02*
D03*
X-115000Y-24000D02*
D03*
X-121000D02*
D03*
Y-30000D02*
D03*
X-109000Y-24000D02*
D03*
X-134250Y-8250D02*
D03*
X-140250D02*
D03*
X-160000Y-32000D02*
D03*
X-167000D02*
D03*
X13000Y-98000D02*
D03*
X-18691Y-105941D02*
D03*
X55000Y51000D02*
D03*
Y58000D02*
D03*
Y65000D02*
D03*
X-185000Y-69000D02*
D03*
X-178000Y-83000D02*
D03*
Y-76000D02*
D03*
X-185000D02*
D03*
Y-83000D02*
D03*
X-178000Y-69000D02*
D03*
X-150000Y-76000D02*
D03*
Y-83000D02*
D03*
X-157000Y-69000D02*
D03*
X-150000D02*
D03*
X-157000Y-83000D02*
D03*
Y-76000D02*
D03*
X-171000Y-83000D02*
D03*
X-164000D02*
D03*
Y-76000D02*
D03*
X-171000Y-69000D02*
D03*
Y-76000D02*
D03*
X-164000Y-69000D02*
D03*
X-160000Y-103000D02*
D03*
X-153000D02*
D03*
Y-96000D02*
D03*
X-167000Y-103000D02*
D03*
Y-96000D02*
D03*
X-160000D02*
D03*
Y-110000D02*
D03*
X-146000Y-103000D02*
D03*
Y-110000D02*
D03*
X-174000Y-103000D02*
D03*
Y-96000D02*
D03*
X-181000Y-103000D02*
D03*
Y-96000D02*
D03*
X-167000Y-110000D02*
D03*
X-153000D02*
D03*
X-174000D02*
D03*
X-181000D02*
D03*
X-153000Y-56000D02*
D03*
X-160000D02*
D03*
X-174000Y-32000D02*
D03*
X-167000Y-56000D02*
D03*
X-160000Y-42000D02*
D03*
X-181000Y-56000D02*
D03*
X-167000Y-42000D02*
D03*
X-174000D02*
D03*
X-167000Y-49000D02*
D03*
X-153000D02*
D03*
X-160000D02*
D03*
X-181000D02*
D03*
X-153000Y-42000D02*
D03*
X-174000Y-56000D02*
D03*
Y-49000D02*
D03*
X-181000Y-32000D02*
D03*
Y-42000D02*
D03*
X-188000Y-56000D02*
D03*
Y-49000D02*
D03*
Y-42000D02*
D03*
Y-32000D02*
D03*
X-115000Y41000D02*
D03*
X-108000D02*
D03*
X-100000D02*
D03*
Y34000D02*
D03*
X-164250Y33750D02*
D03*
X-158250Y27750D02*
D03*
X-170250D02*
D03*
X-152250Y-8250D02*
D03*
X-164250Y27750D02*
D03*
Y9750D02*
D03*
X-158250Y-2250D02*
D03*
X-164250Y3750D02*
D03*
X-158250Y21750D02*
D03*
X-170250Y-8250D02*
D03*
Y9750D02*
D03*
Y21750D02*
D03*
X-164250Y-8250D02*
D03*
X-146250D02*
D03*
X-164250Y21750D02*
D03*
X-158250Y9750D02*
D03*
Y33750D02*
D03*
Y3750D02*
D03*
Y15750D02*
D03*
X-170250Y-2250D02*
D03*
Y3750D02*
D03*
X-164250Y-2250D02*
D03*
X-170250Y33750D02*
D03*
X-158250Y-8250D02*
D03*
X-164250Y15750D02*
D03*
X-170250D02*
D03*
X-164250Y3750D02*
D03*
X118323Y55250D02*
D03*
X119790Y63250D02*
D03*
X76000Y-8250D02*
D03*
X64354Y26000D02*
D03*
X79182Y-59000D02*
D03*
X123210Y-71210D02*
D03*
X120060Y-64914D02*
D03*
X130210Y-33750D02*
D03*
X145463Y-25536D02*
D03*
X155415Y-22744D02*
D03*
X166396Y-43750D02*
D03*
X160000Y-120250D02*
D03*
X185250Y-95000D02*
D03*
Y-105000D02*
D03*
X-43000Y41000D02*
D03*
X-165000Y62000D02*
D03*
Y56000D02*
D03*
X80000Y-50750D02*
D03*
X165000Y15000D02*
D03*
Y35000D02*
D03*
Y25000D02*
D03*
X175000Y5000D02*
D03*
Y-5000D02*
D03*
Y-15000D02*
D03*
Y-25000D02*
D03*
Y35000D02*
D03*
Y25000D02*
D03*
Y15000D02*
D03*
X-176000Y-121000D02*
D03*
X-65000Y60000D02*
D03*
X-72500Y52500D02*
D03*
X-166000Y-124000D02*
D03*
X150000Y-120000D02*
D03*
X140000D02*
D03*
X130000D02*
D03*
X185000Y-85000D02*
D03*
Y-75000D02*
D03*
Y-65000D02*
D03*
Y15000D02*
D03*
Y25000D02*
D03*
Y35000D02*
D03*
Y-55000D02*
D03*
Y-45000D02*
D03*
Y-35000D02*
D03*
Y-25000D02*
D03*
Y-15000D02*
D03*
Y-5000D02*
D03*
Y5000D02*
D03*
X54540Y-50000D02*
D03*
X165000Y65000D02*
D03*
Y58000D02*
D03*
Y51000D02*
D03*
D43*
X-65750Y21500D02*
D03*
X-82250Y4500D02*
D03*
X18000Y-72040D02*
D03*
X-8000Y-89000D02*
D03*
Y-95000D02*
D03*
X-2000Y-89000D02*
D03*
X53000Y-25000D02*
D03*
Y-35000D02*
D03*
X59000Y-25000D02*
D03*
X65000D02*
D03*
X59000Y-19000D02*
D03*
X65000Y-19000D02*
D03*
X53000D02*
D03*
Y-41000D02*
D03*
X59000Y-35000D02*
D03*
Y-41000D02*
D03*
X-2000Y-95000D02*
D03*
X24540Y-78960D02*
D03*
X21000Y-98000D02*
D03*
X142000Y2000D02*
D03*
X136000Y8000D02*
D03*
Y2000D02*
D03*
X142000Y8000D02*
D03*
X65000Y-35000D02*
D03*
Y-41000D02*
D03*
X-2000Y-101000D02*
D03*
X-8000D02*
D03*
X-168000Y43000D02*
D03*
X-161000D02*
D03*
Y50000D02*
D03*
X-168000D02*
D03*
X34048Y-92960D02*
D03*
D44*
X-25000Y63000D02*
D03*
Y53000D02*
D03*
X25000Y63000D02*
D03*
X35000D02*
D03*
X45000D02*
D03*
X25000Y53000D02*
D03*
X35000D02*
D03*
X45000D02*
D03*
X-5000Y63000D02*
D03*
X5000D02*
D03*
X15000D02*
D03*
X-5000Y53000D02*
D03*
X5000D02*
D03*
X15000D02*
D03*
X-15000D02*
D03*
X-35000D02*
D03*
X-15000Y63000D02*
D03*
X-35000D02*
D03*
D46*
X-143000Y5850D02*
D03*
Y46150D02*
D03*
D47*
X-75114Y-5386D02*
X-71491Y-1762D01*
X-56737Y1915D02*
X-56282Y1460D01*
X-71491Y-1762D02*
X-70990D01*
X-56282Y1460D02*
X-43040D01*
X-67313Y1915D02*
X-56737D01*
X-70990Y-1762D02*
X-67313Y1915D01*
X-43040Y1460D02*
X-42500Y2000D01*
X-90081Y-3331D02*
X-82250Y4500D01*
X-97331Y-3331D02*
X-90081D01*
X-75157Y-23093D02*
X-56210Y-42040D01*
X-75157Y-23093D02*
Y-11645D01*
X-75114Y-11603D02*
Y-5386D01*
X-75157Y-11645D02*
X-75114Y-11603D01*
X-109000Y-15000D02*
X-97331Y-3331D01*
X-82250Y1750D02*
X-75114Y-5386D01*
X-82250Y1750D02*
Y4500D01*
X-127000Y-15000D02*
X-109000D01*
X-134000Y-22000D02*
X-127000Y-15000D01*
X-44460Y-42040D02*
X-42500Y-44000D01*
X-56210Y-42040D02*
X-44460D01*
D48*
X-164850Y46150D02*
X-143000D01*
D49*
X-25500Y-30000D02*
Y-16000D01*
Y-44000D02*
Y-30000D01*
X-25500Y-44000D02*
X-25500Y-44000D01*
Y16000D02*
Y30000D01*
Y2000D02*
Y16000D01*
X-25500Y2000D02*
X-25500Y2000D01*
M02*
