# 
# Wavefront material file
# Created with Kaydara FBX
# 

newmtl Upper_part_cap_moleculeMaterial0
Ka 0.800000 0.403306 0.000000
Kd 0.800000 0.403306 0.000000
Ks 0.000000 0.000000 0.000000
illum 2
Ns 20.000000
Tr 1.000000
