ISO-10303-21;
HEADER;
/* Generated by software containing ST-Developer
 * from STEP Tools, Inc. (www.steptools.com) 
 */
/* OPTION: strings as raw bytes, not using required /X/ escapes */

FILE_DESCRIPTION(
/* description */ ('Unknown'),
/* implementation_level */ '2;1');

FILE_NAME(
/* name */ 'Driver_socket_PCB',
/* time_stamp */ '2023-02-14T13:00:11+01:00',
/* author */ ('Unknown'),
/* organization */ ('Unknown'),
/* preprocessor_version */ 'ST-DEVELOPER v18.102',
/* originating_system */ 'Solid Edge',
/* authorisation */ 'Unknown');

FILE_SCHEMA (('AUTOMOTIVE_DESIGN {1 0 10303 214 3 1 1}'));
ENDSEC;

DATA;
#10=PROPERTY_DEFINITION_REPRESENTATION(#14,#12);
#11=PROPERTY_DEFINITION_REPRESENTATION(#15,#13);
#12=REPRESENTATION('',(#16),#461);
#13=REPRESENTATION('',(#17),#461);
#14=PROPERTY_DEFINITION('pmi validation property','',#466);
#15=PROPERTY_DEFINITION('pmi validation property','',#466);
#16=VALUE_REPRESENTATION_ITEM('number of annotations',COUNT_MEASURE(0.));
#17=VALUE_REPRESENTATION_ITEM('number of views',COUNT_MEASURE(0.));
#18=SHAPE_REPRESENTATION_RELATIONSHIP('','',#279,#19);
#19=ADVANCED_BREP_SHAPE_REPRESENTATION('',(#277),#461);
#20=CYLINDRICAL_SURFACE('',#303,5.);
#21=CYLINDRICAL_SURFACE('',#304,5.);
#22=CYLINDRICAL_SURFACE('',#305,5.);
#23=CYLINDRICAL_SURFACE('',#306,5.);
#24=CYLINDRICAL_SURFACE('',#307,1.6);
#25=CYLINDRICAL_SURFACE('',#308,1.6);
#26=CYLINDRICAL_SURFACE('',#309,1.6);
#27=CYLINDRICAL_SURFACE('',#310,1.6);
#28=CIRCLE('',#286,1.6);
#29=CIRCLE('',#287,1.6);
#30=CIRCLE('',#288,1.6);
#31=CIRCLE('',#289,1.6);
#32=CIRCLE('',#290,5.);
#33=CIRCLE('',#291,5.);
#34=CIRCLE('',#292,5.);
#35=CIRCLE('',#293,5.);
#36=CIRCLE('',#295,1.6);
#37=CIRCLE('',#296,1.6);
#38=CIRCLE('',#297,1.6);
#39=CIRCLE('',#298,1.6);
#40=CIRCLE('',#299,5.);
#41=CIRCLE('',#300,5.);
#42=CIRCLE('',#301,5.);
#43=CIRCLE('',#302,5.);
#44=ORIENTED_EDGE('',*,*,#108,.F.);
#45=ORIENTED_EDGE('',*,*,#109,.T.);
#46=ORIENTED_EDGE('',*,*,#110,.T.);
#47=ORIENTED_EDGE('',*,*,#111,.T.);
#48=ORIENTED_EDGE('',*,*,#112,.T.);
#49=ORIENTED_EDGE('',*,*,#113,.T.);
#50=ORIENTED_EDGE('',*,*,#114,.F.);
#51=ORIENTED_EDGE('',*,*,#115,.T.);
#52=ORIENTED_EDGE('',*,*,#116,.F.);
#53=ORIENTED_EDGE('',*,*,#117,.T.);
#54=ORIENTED_EDGE('',*,*,#118,.T.);
#55=ORIENTED_EDGE('',*,*,#119,.T.);
#56=ORIENTED_EDGE('',*,*,#120,.F.);
#57=ORIENTED_EDGE('',*,*,#121,.T.);
#58=ORIENTED_EDGE('',*,*,#122,.T.);
#59=ORIENTED_EDGE('',*,*,#123,.T.);
#60=ORIENTED_EDGE('',*,*,#124,.T.);
#61=ORIENTED_EDGE('',*,*,#125,.T.);
#62=ORIENTED_EDGE('',*,*,#126,.T.);
#63=ORIENTED_EDGE('',*,*,#127,.T.);
#64=ORIENTED_EDGE('',*,*,#114,.T.);
#65=ORIENTED_EDGE('',*,*,#128,.T.);
#66=ORIENTED_EDGE('',*,*,#116,.T.);
#67=ORIENTED_EDGE('',*,*,#129,.T.);
#68=ORIENTED_EDGE('',*,*,#120,.T.);
#69=ORIENTED_EDGE('',*,*,#130,.T.);
#70=ORIENTED_EDGE('',*,*,#108,.T.);
#71=ORIENTED_EDGE('',*,*,#131,.T.);
#72=ORIENTED_EDGE('',*,*,#132,.F.);
#73=ORIENTED_EDGE('',*,*,#133,.F.);
#74=ORIENTED_EDGE('',*,*,#134,.F.);
#75=ORIENTED_EDGE('',*,*,#135,.F.);
#76=ORIENTED_EDGE('',*,*,#118,.F.);
#77=ORIENTED_EDGE('',*,*,#136,.T.);
#78=ORIENTED_EDGE('',*,*,#112,.F.);
#79=ORIENTED_EDGE('',*,*,#137,.T.);
#80=ORIENTED_EDGE('',*,*,#110,.F.);
#81=ORIENTED_EDGE('',*,*,#138,.T.);
#82=ORIENTED_EDGE('',*,*,#122,.F.);
#83=ORIENTED_EDGE('',*,*,#139,.T.);
#84=ORIENTED_EDGE('',*,*,#131,.F.);
#85=ORIENTED_EDGE('',*,*,#111,.F.);
#86=ORIENTED_EDGE('',*,*,#137,.F.);
#87=ORIENTED_EDGE('',*,*,#115,.F.);
#88=ORIENTED_EDGE('',*,*,#130,.F.);
#89=ORIENTED_EDGE('',*,*,#123,.F.);
#90=ORIENTED_EDGE('',*,*,#138,.F.);
#91=ORIENTED_EDGE('',*,*,#109,.F.);
#92=ORIENTED_EDGE('',*,*,#129,.F.);
#93=ORIENTED_EDGE('',*,*,#119,.F.);
#94=ORIENTED_EDGE('',*,*,#139,.F.);
#95=ORIENTED_EDGE('',*,*,#121,.F.);
#96=ORIENTED_EDGE('',*,*,#128,.F.);
#97=ORIENTED_EDGE('',*,*,#113,.F.);
#98=ORIENTED_EDGE('',*,*,#136,.F.);
#99=ORIENTED_EDGE('',*,*,#117,.F.);
#100=ORIENTED_EDGE('',*,*,#135,.T.);
#101=ORIENTED_EDGE('',*,*,#127,.F.);
#102=ORIENTED_EDGE('',*,*,#134,.T.);
#103=ORIENTED_EDGE('',*,*,#126,.F.);
#104=ORIENTED_EDGE('',*,*,#133,.T.);
#105=ORIENTED_EDGE('',*,*,#125,.F.);
#106=ORIENTED_EDGE('',*,*,#132,.T.);
#107=ORIENTED_EDGE('',*,*,#124,.F.);
#108=EDGE_CURVE('',#140,#141,#164,.T.);
#109=EDGE_CURVE('',#140,#142,#165,.T.);
#110=EDGE_CURVE('',#142,#143,#166,.T.);
#111=EDGE_CURVE('',#143,#141,#167,.F.);
#112=EDGE_CURVE('',#144,#145,#168,.T.);
#113=EDGE_CURVE('',#145,#146,#169,.F.);
#114=EDGE_CURVE('',#147,#146,#170,.T.);
#115=EDGE_CURVE('',#147,#144,#171,.T.);
#116=EDGE_CURVE('',#148,#149,#172,.T.);
#117=EDGE_CURVE('',#148,#150,#173,.T.);
#118=EDGE_CURVE('',#150,#151,#174,.T.);
#119=EDGE_CURVE('',#151,#149,#175,.F.);
#120=EDGE_CURVE('',#152,#153,#176,.T.);
#121=EDGE_CURVE('',#152,#154,#177,.T.);
#122=EDGE_CURVE('',#154,#155,#178,.T.);
#123=EDGE_CURVE('',#155,#153,#179,.F.);
#124=EDGE_CURVE('',#156,#156,#28,.T.);
#125=EDGE_CURVE('',#157,#157,#29,.T.);
#126=EDGE_CURVE('',#158,#158,#30,.T.);
#127=EDGE_CURVE('',#159,#159,#31,.T.);
#128=EDGE_CURVE('',#146,#148,#32,.T.);
#129=EDGE_CURVE('',#149,#152,#33,.T.);
#130=EDGE_CURVE('',#153,#140,#34,.T.);
#131=EDGE_CURVE('',#141,#147,#35,.T.);
#132=EDGE_CURVE('',#160,#160,#36,.T.);
#133=EDGE_CURVE('',#161,#161,#37,.T.);
#134=EDGE_CURVE('',#162,#162,#38,.T.);
#135=EDGE_CURVE('',#163,#163,#39,.T.);
#136=EDGE_CURVE('',#150,#145,#40,.F.);
#137=EDGE_CURVE('',#144,#143,#41,.F.);
#138=EDGE_CURVE('',#142,#155,#42,.F.);
#139=EDGE_CURVE('',#154,#151,#43,.F.);
#140=VERTEX_POINT('',#392);
#141=VERTEX_POINT('',#393);
#142=VERTEX_POINT('',#395);
#143=VERTEX_POINT('',#397);
#144=VERTEX_POINT('',#401);
#145=VERTEX_POINT('',#402);
#146=VERTEX_POINT('',#404);
#147=VERTEX_POINT('',#406);
#148=VERTEX_POINT('',#410);
#149=VERTEX_POINT('',#411);
#150=VERTEX_POINT('',#413);
#151=VERTEX_POINT('',#415);
#152=VERTEX_POINT('',#419);
#153=VERTEX_POINT('',#420);
#154=VERTEX_POINT('',#422);
#155=VERTEX_POINT('',#424);
#156=VERTEX_POINT('',#428);
#157=VERTEX_POINT('',#430);
#158=VERTEX_POINT('',#432);
#159=VERTEX_POINT('',#434);
#160=VERTEX_POINT('',#441);
#161=VERTEX_POINT('',#443);
#162=VERTEX_POINT('',#445);
#163=VERTEX_POINT('',#447);
#164=LINE('',#391,#180);
#165=LINE('',#394,#181);
#166=LINE('',#396,#182);
#167=LINE('',#398,#183);
#168=LINE('',#400,#184);
#169=LINE('',#403,#185);
#170=LINE('',#405,#186);
#171=LINE('',#407,#187);
#172=LINE('',#409,#188);
#173=LINE('',#412,#189);
#174=LINE('',#414,#190);
#175=LINE('',#416,#191);
#176=LINE('',#418,#192);
#177=LINE('',#421,#193);
#178=LINE('',#423,#194);
#179=LINE('',#425,#195);
#180=VECTOR('',#315,1000.);
#181=VECTOR('',#316,1000.);
#182=VECTOR('',#317,1000.);
#183=VECTOR('',#318,1000.);
#184=VECTOR('',#321,1000.);
#185=VECTOR('',#322,1000.);
#186=VECTOR('',#323,1000.);
#187=VECTOR('',#324,1000.);
#188=VECTOR('',#327,1000.);
#189=VECTOR('',#328,1000.);
#190=VECTOR('',#329,1000.);
#191=VECTOR('',#330,1000.);
#192=VECTOR('',#333,1000.);
#193=VECTOR('',#334,1000.);
#194=VECTOR('',#335,1000.);
#195=VECTOR('',#336,1000.);
#196=EDGE_LOOP('',(#44,#45,#46,#47));
#197=EDGE_LOOP('',(#48,#49,#50,#51));
#198=EDGE_LOOP('',(#52,#53,#54,#55));
#199=EDGE_LOOP('',(#56,#57,#58,#59));
#200=EDGE_LOOP('',(#60));
#201=EDGE_LOOP('',(#61));
#202=EDGE_LOOP('',(#62));
#203=EDGE_LOOP('',(#63));
#204=EDGE_LOOP('',(#64,#65,#66,#67,#68,#69,#70,#71));
#205=EDGE_LOOP('',(#72));
#206=EDGE_LOOP('',(#73));
#207=EDGE_LOOP('',(#74));
#208=EDGE_LOOP('',(#75));
#209=EDGE_LOOP('',(#76,#77,#78,#79,#80,#81,#82,#83));
#210=EDGE_LOOP('',(#84,#85,#86,#87));
#211=EDGE_LOOP('',(#88,#89,#90,#91));
#212=EDGE_LOOP('',(#92,#93,#94,#95));
#213=EDGE_LOOP('',(#96,#97,#98,#99));
#214=EDGE_LOOP('',(#100));
#215=EDGE_LOOP('',(#101));
#216=EDGE_LOOP('',(#102));
#217=EDGE_LOOP('',(#103));
#218=EDGE_LOOP('',(#104));
#219=EDGE_LOOP('',(#105));
#220=EDGE_LOOP('',(#106));
#221=EDGE_LOOP('',(#107));
#222=FACE_BOUND('',#196,.T.);
#223=FACE_BOUND('',#197,.T.);
#224=FACE_BOUND('',#198,.T.);
#225=FACE_BOUND('',#199,.T.);
#226=FACE_BOUND('',#200,.T.);
#227=FACE_BOUND('',#201,.T.);
#228=FACE_BOUND('',#202,.T.);
#229=FACE_BOUND('',#203,.T.);
#230=FACE_BOUND('',#204,.T.);
#231=FACE_BOUND('',#205,.T.);
#232=FACE_BOUND('',#206,.T.);
#233=FACE_BOUND('',#207,.T.);
#234=FACE_BOUND('',#208,.T.);
#235=FACE_BOUND('',#209,.T.);
#236=FACE_BOUND('',#210,.T.);
#237=FACE_BOUND('',#211,.T.);
#238=FACE_BOUND('',#212,.T.);
#239=FACE_BOUND('',#213,.T.);
#240=FACE_BOUND('',#214,.T.);
#241=FACE_BOUND('',#215,.T.);
#242=FACE_BOUND('',#216,.T.);
#243=FACE_BOUND('',#217,.T.);
#244=FACE_BOUND('',#218,.T.);
#245=FACE_BOUND('',#219,.T.);
#246=FACE_BOUND('',#220,.T.);
#247=FACE_BOUND('',#221,.T.);
#248=PLANE('',#281);
#249=PLANE('',#282);
#250=PLANE('',#283);
#251=PLANE('',#284);
#252=PLANE('',#285);
#253=PLANE('',#294);
#254=ADVANCED_FACE('',(#222),#248,.F.);
#255=ADVANCED_FACE('',(#223),#249,.F.);
#256=ADVANCED_FACE('',(#224),#250,.F.);
#257=ADVANCED_FACE('',(#225),#251,.F.);
#258=ADVANCED_FACE('',(#226,#227,#228,#229,#230),#252,.T.);
#259=ADVANCED_FACE('',(#231,#232,#233,#234,#235),#253,.F.);
#260=ADVANCED_FACE('',(#236),#20,.T.);
#261=ADVANCED_FACE('',(#237),#21,.T.);
#262=ADVANCED_FACE('',(#238),#22,.T.);
#263=ADVANCED_FACE('',(#239),#23,.T.);
#264=ADVANCED_FACE('',(#240,#241),#24,.F.);
#265=ADVANCED_FACE('',(#242,#243),#25,.F.);
#266=ADVANCED_FACE('',(#244,#245),#26,.F.);
#267=ADVANCED_FACE('',(#246,#247),#27,.F.);
#268=CLOSED_SHELL('',(#254,#255,#256,#257,#258,#259,#260,#261,#262,#263,
#264,#265,#266,#267));
#269=STYLED_ITEM('',(#270),#277);
#270=PRESENTATION_STYLE_ASSIGNMENT((#271));
#271=SURFACE_STYLE_USAGE(.BOTH.,#272);
#272=SURFACE_SIDE_STYLE('',(#273));
#273=SURFACE_STYLE_FILL_AREA(#274);
#274=FILL_AREA_STYLE('',(#275));
#275=FILL_AREA_STYLE_COLOUR('',#276);
#276=COLOUR_RGB('',0.506983280181885,0.531564235687256,0.550000011920929);
#277=MANIFOLD_SOLID_BREP('',#268);
#278=SHAPE_DEFINITION_REPRESENTATION(#466,#279);
#279=SHAPE_REPRESENTATION('Driver_socket_PCB',(#280),#461);
#280=AXIS2_PLACEMENT_3D('',#389,#311,#312);
#281=AXIS2_PLACEMENT_3D('',#390,#313,#314);
#282=AXIS2_PLACEMENT_3D('',#399,#319,#320);
#283=AXIS2_PLACEMENT_3D('',#408,#325,#326);
#284=AXIS2_PLACEMENT_3D('',#417,#331,#332);
#285=AXIS2_PLACEMENT_3D('',#426,#337,#338);
#286=AXIS2_PLACEMENT_3D('',#427,#339,#340);
#287=AXIS2_PLACEMENT_3D('',#429,#341,#342);
#288=AXIS2_PLACEMENT_3D('',#431,#343,#344);
#289=AXIS2_PLACEMENT_3D('',#433,#345,#346);
#290=AXIS2_PLACEMENT_3D('',#435,#347,#348);
#291=AXIS2_PLACEMENT_3D('',#436,#349,#350);
#292=AXIS2_PLACEMENT_3D('',#437,#351,#352);
#293=AXIS2_PLACEMENT_3D('',#438,#353,#354);
#294=AXIS2_PLACEMENT_3D('',#439,#355,#356);
#295=AXIS2_PLACEMENT_3D('',#440,#357,#358);
#296=AXIS2_PLACEMENT_3D('',#442,#359,#360);
#297=AXIS2_PLACEMENT_3D('',#444,#361,#362);
#298=AXIS2_PLACEMENT_3D('',#446,#363,#364);
#299=AXIS2_PLACEMENT_3D('',#448,#365,#366);
#300=AXIS2_PLACEMENT_3D('',#449,#367,#368);
#301=AXIS2_PLACEMENT_3D('',#450,#369,#370);
#302=AXIS2_PLACEMENT_3D('',#451,#371,#372);
#303=AXIS2_PLACEMENT_3D('',#452,#373,#374);
#304=AXIS2_PLACEMENT_3D('',#453,#375,#376);
#305=AXIS2_PLACEMENT_3D('',#454,#377,#378);
#306=AXIS2_PLACEMENT_3D('',#455,#379,#380);
#307=AXIS2_PLACEMENT_3D('',#456,#381,#382);
#308=AXIS2_PLACEMENT_3D('',#457,#383,#384);
#309=AXIS2_PLACEMENT_3D('',#458,#385,#386);
#310=AXIS2_PLACEMENT_3D('',#459,#387,#388);
#311=DIRECTION('',(0.,0.,1.));
#312=DIRECTION('',(1.,0.,0.));
#313=DIRECTION('',(1.,-1.98254111540207E-16,0.));
#314=DIRECTION('',(1.98254111540207E-16,1.,0.));
#315=DIRECTION('',(-1.98254111540207E-16,-1.,0.));
#316=DIRECTION('',(0.,0.,-1.));
#317=DIRECTION('',(-1.98254111540207E-16,-1.,0.));
#318=DIRECTION('',(0.,0.,-1.));
#319=DIRECTION('',(0.,1.,0.));
#320=DIRECTION('',(0.,0.,1.));
#321=DIRECTION('',(1.,0.,0.));
#322=DIRECTION('',(0.,0.,-1.));
#323=DIRECTION('',(1.,0.,0.));
#324=DIRECTION('',(0.,0.,-1.));
#325=DIRECTION('',(-1.,0.,0.));
#326=DIRECTION('',(0.,0.,1.));
#327=DIRECTION('',(0.,1.,0.));
#328=DIRECTION('',(0.,0.,-1.));
#329=DIRECTION('',(0.,1.,0.));
#330=DIRECTION('',(0.,0.,-1.));
#331=DIRECTION('',(0.,-1.,0.));
#332=DIRECTION('',(0.,0.,-1.));
#333=DIRECTION('',(-1.,0.,0.));
#334=DIRECTION('',(0.,0.,-1.));
#335=DIRECTION('',(-1.,0.,0.));
#336=DIRECTION('',(0.,0.,-1.));
#337=DIRECTION('',(0.,0.,1.));
#338=DIRECTION('',(1.,0.,0.));
#339=DIRECTION('',(0.,0.,-1.));
#340=DIRECTION('',(1.,0.,0.));
#341=DIRECTION('',(0.,0.,-1.));
#342=DIRECTION('',(1.,0.,0.));
#343=DIRECTION('',(0.,0.,-1.));
#344=DIRECTION('',(1.,0.,0.));
#345=DIRECTION('',(0.,0.,-1.));
#346=DIRECTION('',(1.,0.,0.));
#347=DIRECTION('',(0.,0.,1.));
#348=DIRECTION('',(1.,0.,0.));
#349=DIRECTION('',(0.,0.,1.));
#350=DIRECTION('',(1.,0.,0.));
#351=DIRECTION('',(0.,0.,1.));
#352=DIRECTION('',(1.,0.,0.));
#353=DIRECTION('',(0.,0.,1.));
#354=DIRECTION('',(1.,0.,0.));
#355=DIRECTION('',(0.,0.,1.));
#356=DIRECTION('',(1.,0.,0.));
#357=DIRECTION('',(0.,0.,-1.));
#358=DIRECTION('',(1.,0.,0.));
#359=DIRECTION('',(0.,0.,-1.));
#360=DIRECTION('',(1.,0.,0.));
#361=DIRECTION('',(0.,0.,-1.));
#362=DIRECTION('',(1.,0.,0.));
#363=DIRECTION('',(0.,0.,-1.));
#364=DIRECTION('',(1.,0.,0.));
#365=DIRECTION('',(0.,0.,1.));
#366=DIRECTION('',(1.,0.,0.));
#367=DIRECTION('',(0.,0.,1.));
#368=DIRECTION('',(1.,0.,0.));
#369=DIRECTION('',(0.,0.,1.));
#370=DIRECTION('',(1.,0.,0.));
#371=DIRECTION('',(0.,0.,1.));
#372=DIRECTION('',(1.,0.,0.));
#373=DIRECTION('',(0.,0.,-1.));
#374=DIRECTION('',(-1.,0.,0.));
#375=DIRECTION('',(0.,0.,-1.));
#376=DIRECTION('',(-1.,0.,0.));
#377=DIRECTION('',(0.,0.,-1.));
#378=DIRECTION('',(-1.,0.,0.));
#379=DIRECTION('',(0.,0.,-1.));
#380=DIRECTION('',(-1.,0.,0.));
#381=DIRECTION('',(0.,0.,1.));
#382=DIRECTION('',(1.,0.,0.));
#383=DIRECTION('',(0.,0.,1.));
#384=DIRECTION('',(1.,0.,0.));
#385=DIRECTION('',(0.,0.,1.));
#386=DIRECTION('',(1.,0.,0.));
#387=DIRECTION('',(0.,0.,1.));
#388=DIRECTION('',(1.,0.,0.));
#389=CARTESIAN_POINT('',(0.,0.,0.));
#390=CARTESIAN_POINT('',(-25.,35.,1.6));
#391=CARTESIAN_POINT('',(-25.,35.,1.6));
#392=CARTESIAN_POINT('',(-25.,30.,1.6));
#393=CARTESIAN_POINT('',(-25.,-30.,1.6));
#394=CARTESIAN_POINT('',(-25.,30.,1.6));
#395=CARTESIAN_POINT('',(-25.,30.,0.));
#396=CARTESIAN_POINT('',(-25.,35.,0.));
#397=CARTESIAN_POINT('',(-25.,-30.,0.));
#398=CARTESIAN_POINT('',(-25.,-30.,1.6));
#399=CARTESIAN_POINT('',(-25.,-35.,1.6));
#400=CARTESIAN_POINT('',(-25.,-35.,0.));
#401=CARTESIAN_POINT('',(-20.,-35.,0.));
#402=CARTESIAN_POINT('',(20.,-35.,0.));
#403=CARTESIAN_POINT('',(20.,-35.,1.6));
#404=CARTESIAN_POINT('',(20.,-35.,1.6));
#405=CARTESIAN_POINT('',(-25.,-35.,1.6));
#406=CARTESIAN_POINT('',(-20.,-35.,1.6));
#407=CARTESIAN_POINT('',(-20.,-35.,1.6));
#408=CARTESIAN_POINT('',(25.,-35.,1.6));
#409=CARTESIAN_POINT('',(25.,-35.,1.6));
#410=CARTESIAN_POINT('',(25.,-30.,1.6));
#411=CARTESIAN_POINT('',(25.,30.,1.6));
#412=CARTESIAN_POINT('',(25.,-30.,1.6));
#413=CARTESIAN_POINT('',(25.,-30.,0.));
#414=CARTESIAN_POINT('',(25.,-35.,0.));
#415=CARTESIAN_POINT('',(25.,30.,0.));
#416=CARTESIAN_POINT('',(25.,30.,1.6));
#417=CARTESIAN_POINT('',(25.,35.,1.6));
#418=CARTESIAN_POINT('',(25.,35.,1.6));
#419=CARTESIAN_POINT('',(20.,35.,1.6));
#420=CARTESIAN_POINT('',(-20.,35.,1.6));
#421=CARTESIAN_POINT('',(20.,35.,1.6));
#422=CARTESIAN_POINT('',(20.,35.,0.));
#423=CARTESIAN_POINT('',(25.,35.,0.));
#424=CARTESIAN_POINT('',(-20.,35.,0.));
#425=CARTESIAN_POINT('',(-20.,35.,1.6));
#426=CARTESIAN_POINT('',(0.,0.,1.6));
#427=CARTESIAN_POINT('',(-20.,30.,1.6));
#428=CARTESIAN_POINT('',(-18.4,30.,1.6));
#429=CARTESIAN_POINT('',(20.,30.,1.6));
#430=CARTESIAN_POINT('',(21.6,30.,1.6));
#431=CARTESIAN_POINT('',(20.,-30.,1.6));
#432=CARTESIAN_POINT('',(21.6,-30.,1.6));
#433=CARTESIAN_POINT('',(-20.,-30.,1.6));
#434=CARTESIAN_POINT('',(-18.4,-30.,1.6));
#435=CARTESIAN_POINT('',(20.,-30.,1.6));
#436=CARTESIAN_POINT('',(20.,30.,1.6));
#437=CARTESIAN_POINT('',(-20.,30.,1.6));
#438=CARTESIAN_POINT('',(-20.,-30.,1.6));
#439=CARTESIAN_POINT('',(0.,0.,0.));
#440=CARTESIAN_POINT('',(-20.,30.,0.));
#441=CARTESIAN_POINT('',(-18.4,30.,0.));
#442=CARTESIAN_POINT('',(20.,30.,0.));
#443=CARTESIAN_POINT('',(21.6,30.,0.));
#444=CARTESIAN_POINT('',(20.,-30.,0.));
#445=CARTESIAN_POINT('',(21.6,-30.,0.));
#446=CARTESIAN_POINT('',(-20.,-30.,0.));
#447=CARTESIAN_POINT('',(-18.4,-30.,0.));
#448=CARTESIAN_POINT('',(20.,-30.,0.));
#449=CARTESIAN_POINT('',(-20.,-30.,0.));
#450=CARTESIAN_POINT('',(-20.,30.,0.));
#451=CARTESIAN_POINT('',(20.,30.,0.));
#452=CARTESIAN_POINT('',(-20.,-30.,1.6));
#453=CARTESIAN_POINT('',(-20.,30.,1.6));
#454=CARTESIAN_POINT('',(20.,30.,1.6));
#455=CARTESIAN_POINT('',(20.,-30.,1.6));
#456=CARTESIAN_POINT('',(-20.,-30.,0.));
#457=CARTESIAN_POINT('',(20.,-30.,0.));
#458=CARTESIAN_POINT('',(20.,30.,0.));
#459=CARTESIAN_POINT('',(-20.,30.,0.));
#460=MECHANICAL_DESIGN_GEOMETRIC_PRESENTATION_REPRESENTATION('',(#269),
#461);
#461=(
GEOMETRIC_REPRESENTATION_CONTEXT(3)
GLOBAL_UNCERTAINTY_ASSIGNED_CONTEXT((#462))
GLOBAL_UNIT_ASSIGNED_CONTEXT((#465,#464,#463))
REPRESENTATION_CONTEXT('Driver_socket_PCB','TOP_LEVEL_ASSEMBLY_PART')
);
#462=UNCERTAINTY_MEASURE_WITH_UNIT(LENGTH_MEASURE(0.005),#465,
'DISTANCE_ACCURACY_VALUE','Maximum Tolerance applied to model');
#463=(
NAMED_UNIT(*)
SI_UNIT($,.STERADIAN.)
SOLID_ANGLE_UNIT()
);
#464=(
NAMED_UNIT(*)
PLANE_ANGLE_UNIT()
SI_UNIT($,.RADIAN.)
);
#465=(
LENGTH_UNIT()
NAMED_UNIT(*)
SI_UNIT(.MILLI.,.METRE.)
);
#466=PRODUCT_DEFINITION_SHAPE('','',#467);
#467=PRODUCT_DEFINITION('','',#469,#468);
#468=PRODUCT_DEFINITION_CONTEXT('',#475,'design');
#469=PRODUCT_DEFINITION_FORMATION_WITH_SPECIFIED_SOURCE('','',#471,
 .NOT_KNOWN.);
#470=PRODUCT_RELATED_PRODUCT_CATEGORY('','',(#471));
#471=PRODUCT('Driver_socket_PCB','Driver_socket_PCB',
'Driver_socket_PCB',(#473));
#472=PRODUCT_CATEGORY('','');
#473=PRODUCT_CONTEXT('',#475,'mechanical');
#474=APPLICATION_PROTOCOL_DEFINITION('international standard',
'automotive_design',2010,#475);
#475=APPLICATION_CONTEXT(
'core data for automotive mechanical design processes');
ENDSEC;
END-ISO-10303-21;
