<mxfile host="app.diagrams.net" modified="2023-08-12T12:40:51.887Z" agent="Mozilla/5.0 (Windows NT 10.0; Win64; x64; rv:109.0) Gecko/20100101 Firefox/116.0" etag="9zTgOec7vT3H4v1JhLAO" version="21.6.8" type="device">
  <diagram name="Page-1" id="90a13364-a465-7bf4-72fc-28e22215d7a0">
    <mxGraphModel dx="1069" dy="665" grid="1" gridSize="10" guides="1" tooltips="1" connect="1" arrows="1" fold="1" page="1" pageScale="1.5" pageWidth="1169" pageHeight="826" background="none" math="0" shadow="0">
      <root>
        <mxCell id="0" style=";html=1;" />
        <mxCell id="1" style=";html=1;" parent="0" />
        <mxCell id="_YRMlN4rnHjjpNE3_err-9" value="SPI 1" style="edgeStyle=orthogonalEdgeStyle;rounded=0;orthogonalLoop=1;jettySize=auto;html=1;exitX=0.25;exitY=1;exitDx=0;exitDy=0;entryX=0.5;entryY=0;entryDx=0;entryDy=0;startArrow=block;startFill=0;shape=flexArrow;width=2;startSize=1.0384615384615385;startWidth=2.1153846153846154;endWidth=2.1153846153846154;endSize=1.3846153846153846;fillColor=none;shadow=0;strokeWidth=1;fontFamily=Technika;fontSize=9;verticalAlign=middle;" parent="1" source="_YRMlN4rnHjjpNE3_err-1" target="_YRMlN4rnHjjpNE3_err-7" edge="1">
          <mxGeometry x="0.027" relative="1" as="geometry">
            <Array as="points">
              <mxPoint x="345" y="510" />
              <mxPoint x="220" y="510" />
            </Array>
            <mxPoint as="offset" />
          </mxGeometry>
        </mxCell>
        <mxCell id="_YRMlN4rnHjjpNE3_err-118" value="CLOCK" style="edgeStyle=orthogonalEdgeStyle;rounded=0;orthogonalLoop=1;jettySize=auto;html=1;exitX=1;exitY=0.75;exitDx=0;exitDy=0;entryX=1;entryY=0.25;entryDx=0;entryDy=0;verticalAlign=bottom;align=left;fontFamily=Technika;fontSize=9;" parent="1" source="_YRMlN4rnHjjpNE3_err-1" target="_YRMlN4rnHjjpNE3_err-23" edge="1">
          <mxGeometry x="-0.875" relative="1" as="geometry">
            <Array as="points">
              <mxPoint x="590" y="455" />
              <mxPoint x="590" y="565" />
            </Array>
            <mxPoint as="offset" />
          </mxGeometry>
        </mxCell>
        <mxCell id="_YRMlN4rnHjjpNE3_err-119" value="SYNC" style="edgeStyle=orthogonalEdgeStyle;rounded=0;orthogonalLoop=1;jettySize=auto;html=1;exitX=1;exitY=0.5;exitDx=0;exitDy=0;entryX=1;entryY=0.5;entryDx=0;entryDy=0;fontFamily=Technika;align=left;verticalAlign=bottom;fontSize=9;" parent="1" source="_YRMlN4rnHjjpNE3_err-1" target="_YRMlN4rnHjjpNE3_err-23" edge="1">
          <mxGeometry x="-0.907" relative="1" as="geometry">
            <Array as="points">
              <mxPoint x="615" y="430" />
              <mxPoint x="615" y="590" />
            </Array>
            <mxPoint as="offset" />
          </mxGeometry>
        </mxCell>
        <mxCell id="_YRMlN4rnHjjpNE3_err-120" value="BRAKE_MOTORS" style="edgeStyle=orthogonalEdgeStyle;rounded=0;orthogonalLoop=1;jettySize=auto;html=1;exitX=1;exitY=0.25;exitDx=0;exitDy=0;entryX=1;entryY=0.75;entryDx=0;entryDy=0;align=left;fontFamily=Technika;verticalAlign=bottom;fontSize=9;" parent="1" source="_YRMlN4rnHjjpNE3_err-1" target="_YRMlN4rnHjjpNE3_err-23" edge="1">
          <mxGeometry x="-0.9259" relative="1" as="geometry">
            <Array as="points">
              <mxPoint x="640" y="405" />
              <mxPoint x="640" y="615" />
            </Array>
            <mxPoint as="offset" />
          </mxGeometry>
        </mxCell>
        <mxCell id="_YRMlN4rnHjjpNE3_err-161" style="edgeStyle=orthogonalEdgeStyle;rounded=0;orthogonalLoop=1;jettySize=auto;html=1;entryX=1;entryY=0.5;entryDx=0;entryDy=0;" parent="1" edge="1">
          <mxGeometry relative="1" as="geometry">
            <mxPoint x="319" y="430" as="sourcePoint" />
            <mxPoint x="272" y="415" as="targetPoint" />
            <Array as="points">
              <mxPoint x="300" y="430" />
              <mxPoint x="300" y="415" />
            </Array>
          </mxGeometry>
        </mxCell>
        <mxCell id="_YRMlN4rnHjjpNE3_err-162" style="edgeStyle=orthogonalEdgeStyle;rounded=0;orthogonalLoop=1;jettySize=auto;html=1;exitX=0;exitY=0.25;exitDx=0;exitDy=0;entryX=1;entryY=0.5;entryDx=0;entryDy=0;" parent="1" source="_YRMlN4rnHjjpNE3_err-1" target="_YRMlN4rnHjjpNE3_err-135" edge="1">
          <mxGeometry relative="1" as="geometry">
            <Array as="points">
              <mxPoint x="300" y="405" />
              <mxPoint x="300" y="350" />
            </Array>
          </mxGeometry>
        </mxCell>
        <mxCell id="_YRMlN4rnHjjpNE3_err-164" style="edgeStyle=orthogonalEdgeStyle;rounded=0;orthogonalLoop=1;jettySize=auto;html=1;exitX=0;exitY=0.75;exitDx=0;exitDy=0;entryX=1;entryY=0.5;entryDx=0;entryDy=0;entryPerimeter=0;" parent="1" source="_YRMlN4rnHjjpNE3_err-1" target="_YRMlN4rnHjjpNE3_err-179" edge="1">
          <mxGeometry relative="1" as="geometry">
            <mxPoint x="195" y="470.9999999999999" as="targetPoint" />
            <Array as="points">
              <mxPoint x="300" y="455" />
              <mxPoint x="300" y="470" />
            </Array>
          </mxGeometry>
        </mxCell>
        <mxCell id="_YRMlN4rnHjjpNE3_err-170" style="edgeStyle=orthogonalEdgeStyle;rounded=0;orthogonalLoop=1;jettySize=auto;html=1;exitX=0.25;exitY=0;exitDx=0;exitDy=0;entryX=0.5;entryY=1;entryDx=0;entryDy=0;" parent="1" source="_YRMlN4rnHjjpNE3_err-1" target="_YRMlN4rnHjjpNE3_err-132" edge="1">
          <mxGeometry relative="1" as="geometry">
            <mxPoint x="344.94957983193274" y="310" as="targetPoint" />
          </mxGeometry>
        </mxCell>
        <mxCell id="_YRMlN4rnHjjpNE3_err-176" style="edgeStyle=orthogonalEdgeStyle;rounded=0;orthogonalLoop=1;jettySize=auto;html=1;exitX=0.75;exitY=0;exitDx=0;exitDy=0;entryX=0.5;entryY=1;entryDx=0;entryDy=0;" parent="1" source="_YRMlN4rnHjjpNE3_err-1" target="_YRMlN4rnHjjpNE3_err-173" edge="1">
          <mxGeometry relative="1" as="geometry">
            <Array as="points">
              <mxPoint x="395" y="355" />
              <mxPoint x="568" y="355" />
              <mxPoint x="568" y="335" />
              <mxPoint x="568" y="335" />
            </Array>
          </mxGeometry>
        </mxCell>
        <mxCell id="_YRMlN4rnHjjpNE3_err-1" value="&lt;div align=&quot;center&quot;&gt;&lt;font face=&quot;Technika&quot;&gt;Main board&lt;/font&gt;&lt;br&gt;&lt;/div&gt;&lt;div&gt;&lt;br&gt;&lt;/div&gt;&lt;div&gt;&lt;br&gt;&lt;/div&gt;&lt;div&gt;&lt;br&gt;&lt;/div&gt;&lt;div&gt;&lt;br&gt;&lt;/div&gt;" style="whiteSpace=wrap;html=1;aspect=fixed;align=center;" parent="1" vertex="1">
          <mxGeometry x="320" y="380" width="100" height="100" as="geometry" />
        </mxCell>
        <mxCell id="_YRMlN4rnHjjpNE3_err-6" value="" style="pointerEvents=1;shadow=0;dashed=0;html=1;strokeColor=#82b366;fillColor=#d5e8d4;labelPosition=center;verticalLabelPosition=bottom;verticalAlign=top;align=center;outlineConnect=0;shape=mxgraph.veeam.cpu;strokeWidth=1;" parent="1" vertex="1">
          <mxGeometry x="347.6" y="420.00000000000006" width="44.8" height="44.8" as="geometry" />
        </mxCell>
        <mxCell id="_YRMlN4rnHjjpNE3_err-27" value="&lt;font style=&quot;font-size: 9px;&quot; face=&quot;Technika&quot;&gt;CLOCK&lt;/font&gt;" style="edgeStyle=orthogonalEdgeStyle;rounded=0;orthogonalLoop=1;jettySize=auto;html=1;exitX=1;exitY=0.25;exitDx=0;exitDy=0;entryX=0;entryY=0.25;entryDx=0;entryDy=0;endArrow=none;endFill=0;dashed=1;fontSize=8;verticalAlign=bottom;" parent="1" source="_YRMlN4rnHjjpNE3_err-7" target="_YRMlN4rnHjjpNE3_err-15" edge="1">
          <mxGeometry relative="1" as="geometry" />
        </mxCell>
        <mxCell id="_YRMlN4rnHjjpNE3_err-29" value="&lt;font style=&quot;font-size: 9px;&quot; face=&quot;Technika&quot;&gt;SYNC&lt;/font&gt;" style="edgeStyle=orthogonalEdgeStyle;rounded=0;orthogonalLoop=1;jettySize=auto;html=1;exitX=1;exitY=0.5;exitDx=0;exitDy=0;entryX=0;entryY=0.5;entryDx=0;entryDy=0;dashed=1;endArrow=none;endFill=0;verticalAlign=bottom;" parent="1" source="_YRMlN4rnHjjpNE3_err-7" target="_YRMlN4rnHjjpNE3_err-15" edge="1">
          <mxGeometry relative="1" as="geometry" />
        </mxCell>
        <mxCell id="_YRMlN4rnHjjpNE3_err-30" value="&lt;font style=&quot;font-size: 9px;&quot; face=&quot;Technika&quot;&gt;BRAKE&lt;/font&gt;" style="edgeStyle=orthogonalEdgeStyle;rounded=0;orthogonalLoop=1;jettySize=auto;html=1;exitX=1;exitY=0.75;exitDx=0;exitDy=0;entryX=0;entryY=0.75;entryDx=0;entryDy=0;endArrow=none;endFill=0;dashed=1;verticalAlign=bottom;" parent="1" source="_YRMlN4rnHjjpNE3_err-7" target="_YRMlN4rnHjjpNE3_err-15" edge="1">
          <mxGeometry relative="1" as="geometry" />
        </mxCell>
        <mxCell id="_YRMlN4rnHjjpNE3_err-73" style="edgeStyle=elbowEdgeStyle;rounded=0;orthogonalLoop=1;jettySize=auto;html=1;exitX=0.75;exitY=1;exitDx=0;exitDy=0;entryX=1;entryY=0.5;entryDx=0;entryDy=0;entryPerimeter=0;endArrow=none;endFill=0;strokeWidth=2;" parent="1" source="_YRMlN4rnHjjpNE3_err-7" target="_YRMlN4rnHjjpNE3_err-52" edge="1">
          <mxGeometry relative="1" as="geometry">
            <Array as="points">
              <mxPoint x="245" y="650" />
              <mxPoint x="230" y="650" />
              <mxPoint x="245" y="650" />
            </Array>
          </mxGeometry>
        </mxCell>
        <mxCell id="_YRMlN4rnHjjpNE3_err-7" value="&lt;div align=&quot;center&quot;&gt;&lt;font face=&quot;Technika&quot;&gt;Driver board 1&lt;/font&gt;&lt;br&gt;&lt;/div&gt;&lt;div&gt;&lt;br&gt;&lt;/div&gt;&lt;div&gt;&lt;br&gt;&lt;/div&gt;&lt;div&gt;&lt;br&gt;&lt;/div&gt;&lt;div&gt;&lt;br&gt;&lt;/div&gt;" style="whiteSpace=wrap;html=1;aspect=fixed;align=center;" parent="1" vertex="1">
          <mxGeometry x="170" y="540" width="100" height="100" as="geometry" />
        </mxCell>
        <mxCell id="_YRMlN4rnHjjpNE3_err-8" value="" style="pointerEvents=1;shadow=0;dashed=0;html=1;strokeColor=#d79b00;fillColor=#ffe6cc;labelPosition=center;verticalLabelPosition=bottom;verticalAlign=top;align=center;outlineConnect=0;shape=mxgraph.veeam.cpu;strokeWidth=1;" parent="1" vertex="1">
          <mxGeometry x="197.60000000000002" y="580" width="44.8" height="44.8" as="geometry" />
        </mxCell>
        <mxCell id="_YRMlN4rnHjjpNE3_err-15" value="&lt;div align=&quot;center&quot;&gt;&lt;font face=&quot;Technika&quot;&gt;Driver board 2&lt;/font&gt;&lt;/div&gt;&lt;div align=&quot;center&quot;&gt;&lt;font face=&quot;Technika&quot;&gt;&lt;br&gt;&lt;/font&gt;&lt;/div&gt;&lt;div&gt;&lt;br&gt;&lt;/div&gt;&lt;div&gt;&lt;br&gt;&lt;/div&gt;&lt;div&gt;&lt;br&gt;&lt;/div&gt;" style="whiteSpace=wrap;html=1;aspect=fixed;align=center;" parent="1" vertex="1">
          <mxGeometry x="320" y="540" width="100" height="100" as="geometry" />
        </mxCell>
        <mxCell id="_YRMlN4rnHjjpNE3_err-16" value="" style="pointerEvents=1;shadow=0;dashed=0;html=1;strokeColor=#d79b00;fillColor=#ffe6cc;labelPosition=center;verticalLabelPosition=bottom;verticalAlign=top;align=center;outlineConnect=0;shape=mxgraph.veeam.cpu;strokeWidth=1;" parent="1" vertex="1">
          <mxGeometry x="347.6" y="580" width="44.8" height="44.8" as="geometry" />
        </mxCell>
        <mxCell id="_YRMlN4rnHjjpNE3_err-17" value="&lt;font face=&quot;Technika&quot; style=&quot;font-size: 9px;&quot;&gt;SPI 2&lt;/font&gt;" style="edgeStyle=orthogonalEdgeStyle;rounded=0;orthogonalLoop=1;jettySize=auto;html=1;exitX=0.5;exitY=1;exitDx=0;exitDy=0;entryX=0.5;entryY=0;entryDx=0;entryDy=0;startArrow=block;startFill=0;shape=flexArrow;width=2;startSize=1.0384615384615385;startWidth=2.1153846153846154;endWidth=2.1153846153846154;endSize=1.3846153846153846;fillColor=none;shadow=0;strokeWidth=1;fontSize=9;verticalAlign=middle;" parent="1" source="_YRMlN4rnHjjpNE3_err-1" target="_YRMlN4rnHjjpNE3_err-15" edge="1">
          <mxGeometry relative="1" as="geometry">
            <mxPoint x="390" y="480" as="sourcePoint" />
            <mxPoint x="300" y="560" as="targetPoint" />
            <Array as="points">
              <mxPoint x="370" y="490" />
              <mxPoint x="370" y="490" />
            </Array>
            <mxPoint as="offset" />
          </mxGeometry>
        </mxCell>
        <mxCell id="_YRMlN4rnHjjpNE3_err-23" value="&lt;div align=&quot;center&quot;&gt;&lt;font face=&quot;Technika&quot;&gt;Driver board 3&lt;/font&gt;&lt;/div&gt;&lt;div align=&quot;center&quot;&gt;&lt;font face=&quot;Technika&quot;&gt;&lt;br&gt;&lt;/font&gt;&lt;/div&gt;&lt;div&gt;&lt;br&gt;&lt;/div&gt;&lt;div&gt;&lt;br&gt;&lt;/div&gt;&lt;div&gt;&lt;br&gt;&lt;/div&gt;" style="whiteSpace=wrap;html=1;aspect=fixed;align=center;" parent="1" vertex="1">
          <mxGeometry x="470" y="540" width="100" height="100" as="geometry" />
        </mxCell>
        <mxCell id="_YRMlN4rnHjjpNE3_err-24" value="" style="pointerEvents=1;shadow=0;dashed=0;html=1;strokeColor=#d79b00;fillColor=#ffe6cc;labelPosition=center;verticalLabelPosition=bottom;verticalAlign=top;align=center;outlineConnect=0;shape=mxgraph.veeam.cpu;strokeWidth=1;" parent="1" vertex="1">
          <mxGeometry x="497.6" y="580" width="44.8" height="44.8" as="geometry" />
        </mxCell>
        <mxCell id="_YRMlN4rnHjjpNE3_err-25" value="&lt;font face=&quot;Technika&quot; style=&quot;font-size: 9px;&quot;&gt;SPI 3&lt;br style=&quot;font-size: 9px;&quot;&gt;&lt;/font&gt;" style="edgeStyle=orthogonalEdgeStyle;rounded=0;orthogonalLoop=1;jettySize=auto;html=1;exitX=0.75;exitY=1;exitDx=0;exitDy=0;entryX=0.5;entryY=0;entryDx=0;entryDy=0;startArrow=block;startFill=0;shape=flexArrow;width=2;startSize=1.0384615384615385;startWidth=2.1153846153846154;endWidth=2.1153846153846154;endSize=1.3846153846153846;fillColor=none;shadow=0;strokeWidth=1;fontSize=9;verticalAlign=middle;" parent="1" source="_YRMlN4rnHjjpNE3_err-1" target="_YRMlN4rnHjjpNE3_err-23" edge="1">
          <mxGeometry x="0.027" relative="1" as="geometry">
            <mxPoint x="510" y="480" as="sourcePoint" />
            <mxPoint x="440" y="560" as="targetPoint" />
            <Array as="points">
              <mxPoint x="395" y="510" />
              <mxPoint x="520" y="510" />
            </Array>
            <mxPoint as="offset" />
          </mxGeometry>
        </mxCell>
        <mxCell id="_YRMlN4rnHjjpNE3_err-38" value="&lt;font style=&quot;font-size: 9px;&quot; face=&quot;Technika&quot;&gt;CLOCK&lt;/font&gt;" style="edgeStyle=orthogonalEdgeStyle;rounded=0;orthogonalLoop=1;jettySize=auto;html=1;entryX=0;entryY=0.25;entryDx=0;entryDy=0;endArrow=none;endFill=0;dashed=1;fontSize=8;verticalAlign=bottom;exitX=1;exitY=0.25;exitDx=0;exitDy=0;" parent="1" source="_YRMlN4rnHjjpNE3_err-15" target="_YRMlN4rnHjjpNE3_err-23" edge="1">
          <mxGeometry relative="1" as="geometry">
            <mxPoint x="430" y="550" as="sourcePoint" />
            <mxPoint x="470" y="564.76" as="targetPoint" />
          </mxGeometry>
        </mxCell>
        <mxCell id="_YRMlN4rnHjjpNE3_err-39" value="&lt;font style=&quot;font-size: 9px;&quot; face=&quot;Technika&quot;&gt;SYNC&lt;/font&gt;" style="edgeStyle=orthogonalEdgeStyle;rounded=0;orthogonalLoop=1;jettySize=auto;html=1;exitX=1;exitY=0.5;exitDx=0;exitDy=0;entryX=0;entryY=0.5;entryDx=0;entryDy=0;dashed=1;endArrow=none;endFill=0;verticalAlign=bottom;" parent="1" source="_YRMlN4rnHjjpNE3_err-15" target="_YRMlN4rnHjjpNE3_err-23" edge="1">
          <mxGeometry relative="1" as="geometry">
            <mxPoint x="420" y="589.76" as="sourcePoint" />
            <mxPoint x="470" y="589.76" as="targetPoint" />
          </mxGeometry>
        </mxCell>
        <mxCell id="_YRMlN4rnHjjpNE3_err-40" value="&lt;font style=&quot;font-size: 9px;&quot; face=&quot;Technika&quot;&gt;BRAKE&lt;/font&gt;" style="edgeStyle=orthogonalEdgeStyle;rounded=0;orthogonalLoop=1;jettySize=auto;html=1;exitX=1;exitY=0.75;exitDx=0;exitDy=0;entryX=0;entryY=0.75;entryDx=0;entryDy=0;endArrow=none;endFill=0;dashed=1;verticalAlign=bottom;" parent="1" source="_YRMlN4rnHjjpNE3_err-15" target="_YRMlN4rnHjjpNE3_err-23" edge="1">
          <mxGeometry relative="1" as="geometry">
            <mxPoint x="420" y="614.76" as="sourcePoint" />
            <mxPoint x="470" y="614.76" as="targetPoint" />
          </mxGeometry>
        </mxCell>
        <mxCell id="_YRMlN4rnHjjpNE3_err-41" value="&lt;div style=&quot;font-size: 27px;&quot; align=&quot;center&quot;&gt;&lt;font style=&quot;font-size: 30px;&quot; face=&quot;Technika&quot;&gt;M&lt;/font&gt;&lt;/div&gt;" style="verticalLabelPosition=middle;shadow=0;dashed=0;align=center;html=1;verticalAlign=middle;strokeWidth=1;shape=ellipse;aspect=fixed;fontSize=26;" parent="1" vertex="1">
          <mxGeometry x="217" y="680" width="56" height="56" as="geometry" />
        </mxCell>
        <mxCell id="_YRMlN4rnHjjpNE3_err-75" style="edgeStyle=elbowEdgeStyle;rounded=0;orthogonalLoop=1;jettySize=auto;html=1;exitX=1;exitY=0;exitDx=0;exitDy=0;exitPerimeter=0;entryX=0.699;entryY=0.998;entryDx=0;entryDy=0;entryPerimeter=0;endArrow=none;endFill=0;strokeWidth=2;" parent="1" source="_YRMlN4rnHjjpNE3_err-52" target="_YRMlN4rnHjjpNE3_err-7" edge="1">
          <mxGeometry relative="1" as="geometry" />
        </mxCell>
        <mxCell id="_YRMlN4rnHjjpNE3_err-76" style="edgeStyle=elbowEdgeStyle;rounded=0;orthogonalLoop=1;jettySize=auto;html=1;exitX=1;exitY=1;exitDx=0;exitDy=0;exitPerimeter=0;elbow=vertical;endArrow=none;endFill=0;strokeWidth=2;" parent="1" source="_YRMlN4rnHjjpNE3_err-52" edge="1">
          <mxGeometry relative="1" as="geometry">
            <mxPoint x="250" y="640" as="targetPoint" />
          </mxGeometry>
        </mxCell>
        <mxCell id="_YRMlN4rnHjjpNE3_err-77" style="edgeStyle=elbowEdgeStyle;rounded=0;orthogonalLoop=1;jettySize=auto;html=1;exitX=0;exitY=0.5;exitDx=0;exitDy=0;exitPerimeter=0;entryX=0.5;entryY=0;entryDx=0;entryDy=0;startArrow=none;startFill=0;endArrow=none;endFill=0;strokeWidth=2;" parent="1" source="_YRMlN4rnHjjpNE3_err-52" target="_YRMlN4rnHjjpNE3_err-41" edge="1">
          <mxGeometry relative="1" as="geometry" />
        </mxCell>
        <mxCell id="_YRMlN4rnHjjpNE3_err-78" style="edgeStyle=elbowEdgeStyle;rounded=0;orthogonalLoop=1;jettySize=auto;html=1;exitX=0;exitY=1;exitDx=0;exitDy=0;exitPerimeter=0;endArrow=none;endFill=0;entryX=0.589;entryY=0.014;entryDx=0;entryDy=0;entryPerimeter=0;strokeWidth=2;" parent="1" source="_YRMlN4rnHjjpNE3_err-52" target="_YRMlN4rnHjjpNE3_err-41" edge="1">
          <mxGeometry relative="1" as="geometry">
            <mxPoint x="250" y="680" as="targetPoint" />
          </mxGeometry>
        </mxCell>
        <mxCell id="_YRMlN4rnHjjpNE3_err-79" style="edgeStyle=elbowEdgeStyle;rounded=0;orthogonalLoop=1;jettySize=auto;html=1;exitX=0;exitY=0;exitDx=0;exitDy=0;exitPerimeter=0;endArrow=none;endFill=0;strokeWidth=2;entryX=0.411;entryY=0.006;entryDx=0;entryDy=0;entryPerimeter=0;" parent="1" source="_YRMlN4rnHjjpNE3_err-52" target="_YRMlN4rnHjjpNE3_err-41" edge="1">
          <mxGeometry relative="1" as="geometry">
            <mxPoint x="240" y="680" as="targetPoint" />
          </mxGeometry>
        </mxCell>
        <mxCell id="_YRMlN4rnHjjpNE3_err-52" value="" style="verticalLabelPosition=bottom;shadow=0;dashed=0;align=center;html=1;verticalAlign=top;shape=mxgraph.electrical.transmission.3_line_bus;rotation=-90;strokeWidth=2;" parent="1" vertex="1">
          <mxGeometry x="232.5" y="656.5" width="25" height="10" as="geometry" />
        </mxCell>
        <mxCell id="_YRMlN4rnHjjpNE3_err-67" value="&lt;font face=&quot;Technika&quot;&gt;E&lt;/font&gt;" style="rounded=1;whiteSpace=wrap;html=1;arcSize=43;" parent="1" vertex="1">
          <mxGeometry x="197.6" y="695.6" width="12.4" height="24.8" as="geometry" />
        </mxCell>
        <mxCell id="_YRMlN4rnHjjpNE3_err-70" value="&lt;font style=&quot;font-size: 9px;&quot;&gt;ENCODER SPI&lt;br&gt;&lt;/font&gt;" style="edgeStyle=orthogonalEdgeStyle;rounded=0;orthogonalLoop=1;jettySize=auto;html=1;exitX=0.25;exitY=1;exitDx=0;exitDy=0;entryX=0;entryY=0.5;entryDx=0;entryDy=0;startArrow=block;startFill=0;shape=flexArrow;width=2;startSize=1.0384615384615385;startWidth=2.1153846153846154;endWidth=2.1153846153846154;endSize=1.3846153846153846;fillColor=none;shadow=0;strokeWidth=1;fontFamily=Technika;fontSize=9;verticalAlign=middle;endArrow=none;endFill=0;" parent="1" source="_YRMlN4rnHjjpNE3_err-7" target="_YRMlN4rnHjjpNE3_err-67" edge="1">
          <mxGeometry x="0.0934" relative="1" as="geometry">
            <mxPoint x="197.6" y="654.4" as="sourcePoint" />
            <mxPoint x="72.6" y="714.4" as="targetPoint" />
            <Array as="points">
              <mxPoint x="195" y="660" />
              <mxPoint x="180" y="660" />
              <mxPoint x="180" y="708" />
            </Array>
            <mxPoint as="offset" />
          </mxGeometry>
        </mxCell>
        <mxCell id="_YRMlN4rnHjjpNE3_err-98" style="edgeStyle=elbowEdgeStyle;rounded=0;orthogonalLoop=1;jettySize=auto;html=1;exitX=0.75;exitY=1;exitDx=0;exitDy=0;entryX=1;entryY=0.5;entryDx=0;entryDy=0;entryPerimeter=0;endArrow=none;endFill=0;strokeWidth=2;" parent="1" target="_YRMlN4rnHjjpNE3_err-105" edge="1">
          <mxGeometry relative="1" as="geometry">
            <mxPoint x="395" y="640" as="sourcePoint" />
            <Array as="points">
              <mxPoint x="395" y="650" />
              <mxPoint x="380" y="650" />
              <mxPoint x="395" y="650" />
            </Array>
          </mxGeometry>
        </mxCell>
        <mxCell id="_YRMlN4rnHjjpNE3_err-99" value="&lt;div style=&quot;font-size: 27px;&quot; align=&quot;center&quot;&gt;&lt;font style=&quot;font-size: 30px;&quot; face=&quot;Technika&quot;&gt;M&lt;/font&gt;&lt;/div&gt;" style="verticalLabelPosition=middle;shadow=0;dashed=0;align=center;html=1;verticalAlign=middle;strokeWidth=1;shape=ellipse;aspect=fixed;fontSize=26;" parent="1" vertex="1">
          <mxGeometry x="367" y="680" width="56" height="56" as="geometry" />
        </mxCell>
        <mxCell id="_YRMlN4rnHjjpNE3_err-100" style="edgeStyle=elbowEdgeStyle;rounded=0;orthogonalLoop=1;jettySize=auto;html=1;exitX=1;exitY=0;exitDx=0;exitDy=0;exitPerimeter=0;entryX=0.699;entryY=0.998;entryDx=0;entryDy=0;entryPerimeter=0;endArrow=none;endFill=0;strokeWidth=2;" parent="1" source="_YRMlN4rnHjjpNE3_err-105" edge="1">
          <mxGeometry relative="1" as="geometry">
            <mxPoint x="390" y="640" as="targetPoint" />
          </mxGeometry>
        </mxCell>
        <mxCell id="_YRMlN4rnHjjpNE3_err-101" style="edgeStyle=elbowEdgeStyle;rounded=0;orthogonalLoop=1;jettySize=auto;html=1;exitX=1;exitY=1;exitDx=0;exitDy=0;exitPerimeter=0;elbow=vertical;endArrow=none;endFill=0;strokeWidth=2;" parent="1" source="_YRMlN4rnHjjpNE3_err-105" edge="1">
          <mxGeometry relative="1" as="geometry">
            <mxPoint x="400" y="640" as="targetPoint" />
          </mxGeometry>
        </mxCell>
        <mxCell id="_YRMlN4rnHjjpNE3_err-102" style="edgeStyle=elbowEdgeStyle;rounded=0;orthogonalLoop=1;jettySize=auto;html=1;exitX=0;exitY=0.5;exitDx=0;exitDy=0;exitPerimeter=0;entryX=0.5;entryY=0;entryDx=0;entryDy=0;startArrow=none;startFill=0;endArrow=none;endFill=0;strokeWidth=2;" parent="1" source="_YRMlN4rnHjjpNE3_err-105" target="_YRMlN4rnHjjpNE3_err-99" edge="1">
          <mxGeometry relative="1" as="geometry" />
        </mxCell>
        <mxCell id="_YRMlN4rnHjjpNE3_err-103" style="edgeStyle=elbowEdgeStyle;rounded=0;orthogonalLoop=1;jettySize=auto;html=1;exitX=0;exitY=1;exitDx=0;exitDy=0;exitPerimeter=0;endArrow=none;endFill=0;entryX=0.589;entryY=0.014;entryDx=0;entryDy=0;entryPerimeter=0;strokeWidth=2;" parent="1" source="_YRMlN4rnHjjpNE3_err-105" target="_YRMlN4rnHjjpNE3_err-99" edge="1">
          <mxGeometry relative="1" as="geometry">
            <mxPoint x="400" y="680" as="targetPoint" />
          </mxGeometry>
        </mxCell>
        <mxCell id="_YRMlN4rnHjjpNE3_err-104" style="edgeStyle=elbowEdgeStyle;rounded=0;orthogonalLoop=1;jettySize=auto;html=1;exitX=0;exitY=0;exitDx=0;exitDy=0;exitPerimeter=0;endArrow=none;endFill=0;strokeWidth=2;entryX=0.411;entryY=0.006;entryDx=0;entryDy=0;entryPerimeter=0;" parent="1" source="_YRMlN4rnHjjpNE3_err-105" target="_YRMlN4rnHjjpNE3_err-99" edge="1">
          <mxGeometry relative="1" as="geometry">
            <mxPoint x="390" y="680" as="targetPoint" />
          </mxGeometry>
        </mxCell>
        <mxCell id="_YRMlN4rnHjjpNE3_err-105" value="" style="verticalLabelPosition=bottom;shadow=0;dashed=0;align=center;html=1;verticalAlign=top;shape=mxgraph.electrical.transmission.3_line_bus;rotation=-90;strokeWidth=2;" parent="1" vertex="1">
          <mxGeometry x="382.5" y="656.5" width="25" height="10" as="geometry" />
        </mxCell>
        <mxCell id="_YRMlN4rnHjjpNE3_err-106" value="&lt;font face=&quot;Technika&quot;&gt;E&lt;/font&gt;" style="rounded=1;whiteSpace=wrap;html=1;arcSize=43;" parent="1" vertex="1">
          <mxGeometry x="347.6" y="695.6" width="12.4" height="24.8" as="geometry" />
        </mxCell>
        <mxCell id="_YRMlN4rnHjjpNE3_err-107" value="&lt;font style=&quot;font-size: 9px;&quot;&gt;ENCODER SPI&lt;br&gt;&lt;/font&gt;" style="edgeStyle=orthogonalEdgeStyle;rounded=0;orthogonalLoop=1;jettySize=auto;html=1;exitX=0.25;exitY=1;exitDx=0;exitDy=0;entryX=0;entryY=0.5;entryDx=0;entryDy=0;startArrow=block;startFill=0;shape=flexArrow;width=2;startSize=1.0384615384615385;startWidth=2.1153846153846154;endWidth=2.1153846153846154;endSize=1.3846153846153846;fillColor=none;shadow=0;strokeWidth=1;fontFamily=Technika;fontSize=9;verticalAlign=middle;endArrow=none;endFill=0;" parent="1" source="_YRMlN4rnHjjpNE3_err-15" target="_YRMlN4rnHjjpNE3_err-106" edge="1">
          <mxGeometry x="0.0934" relative="1" as="geometry">
            <mxPoint x="345" y="640" as="sourcePoint" />
            <mxPoint x="222.6" y="714.4" as="targetPoint" />
            <Array as="points">
              <mxPoint x="345" y="660" />
              <mxPoint x="330" y="660" />
              <mxPoint x="330" y="708" />
            </Array>
            <mxPoint as="offset" />
          </mxGeometry>
        </mxCell>
        <mxCell id="_YRMlN4rnHjjpNE3_err-108" style="edgeStyle=elbowEdgeStyle;rounded=0;orthogonalLoop=1;jettySize=auto;html=1;exitX=0.75;exitY=1;exitDx=0;exitDy=0;entryX=1;entryY=0.5;entryDx=0;entryDy=0;entryPerimeter=0;endArrow=none;endFill=0;strokeWidth=2;" parent="1" target="_YRMlN4rnHjjpNE3_err-115" edge="1">
          <mxGeometry relative="1" as="geometry">
            <mxPoint x="545" y="640" as="sourcePoint" />
            <Array as="points">
              <mxPoint x="545" y="650" />
              <mxPoint x="530" y="650" />
              <mxPoint x="545" y="650" />
            </Array>
          </mxGeometry>
        </mxCell>
        <mxCell id="_YRMlN4rnHjjpNE3_err-109" value="&lt;div style=&quot;font-size: 27px;&quot; align=&quot;center&quot;&gt;&lt;font style=&quot;font-size: 30px;&quot; face=&quot;Technika&quot;&gt;M&lt;/font&gt;&lt;/div&gt;" style="verticalLabelPosition=middle;shadow=0;dashed=0;align=center;html=1;verticalAlign=middle;strokeWidth=1;shape=ellipse;aspect=fixed;fontSize=26;" parent="1" vertex="1">
          <mxGeometry x="517" y="680" width="56" height="56" as="geometry" />
        </mxCell>
        <mxCell id="_YRMlN4rnHjjpNE3_err-110" style="edgeStyle=elbowEdgeStyle;rounded=0;orthogonalLoop=1;jettySize=auto;html=1;exitX=1;exitY=0;exitDx=0;exitDy=0;exitPerimeter=0;entryX=0.699;entryY=0.998;entryDx=0;entryDy=0;entryPerimeter=0;endArrow=none;endFill=0;strokeWidth=2;" parent="1" source="_YRMlN4rnHjjpNE3_err-115" edge="1">
          <mxGeometry relative="1" as="geometry">
            <mxPoint x="540" y="640" as="targetPoint" />
          </mxGeometry>
        </mxCell>
        <mxCell id="_YRMlN4rnHjjpNE3_err-111" style="edgeStyle=elbowEdgeStyle;rounded=0;orthogonalLoop=1;jettySize=auto;html=1;exitX=1;exitY=1;exitDx=0;exitDy=0;exitPerimeter=0;elbow=vertical;endArrow=none;endFill=0;strokeWidth=2;" parent="1" source="_YRMlN4rnHjjpNE3_err-115" edge="1">
          <mxGeometry relative="1" as="geometry">
            <mxPoint x="550" y="640" as="targetPoint" />
          </mxGeometry>
        </mxCell>
        <mxCell id="_YRMlN4rnHjjpNE3_err-112" style="edgeStyle=elbowEdgeStyle;rounded=0;orthogonalLoop=1;jettySize=auto;html=1;exitX=0;exitY=0.5;exitDx=0;exitDy=0;exitPerimeter=0;entryX=0.5;entryY=0;entryDx=0;entryDy=0;startArrow=none;startFill=0;endArrow=none;endFill=0;strokeWidth=2;" parent="1" source="_YRMlN4rnHjjpNE3_err-115" target="_YRMlN4rnHjjpNE3_err-109" edge="1">
          <mxGeometry relative="1" as="geometry" />
        </mxCell>
        <mxCell id="_YRMlN4rnHjjpNE3_err-113" style="edgeStyle=elbowEdgeStyle;rounded=0;orthogonalLoop=1;jettySize=auto;html=1;exitX=0;exitY=1;exitDx=0;exitDy=0;exitPerimeter=0;endArrow=none;endFill=0;entryX=0.589;entryY=0.014;entryDx=0;entryDy=0;entryPerimeter=0;strokeWidth=2;" parent="1" source="_YRMlN4rnHjjpNE3_err-115" target="_YRMlN4rnHjjpNE3_err-109" edge="1">
          <mxGeometry relative="1" as="geometry">
            <mxPoint x="550" y="680" as="targetPoint" />
          </mxGeometry>
        </mxCell>
        <mxCell id="_YRMlN4rnHjjpNE3_err-114" style="edgeStyle=elbowEdgeStyle;rounded=0;orthogonalLoop=1;jettySize=auto;html=1;exitX=0;exitY=0;exitDx=0;exitDy=0;exitPerimeter=0;endArrow=none;endFill=0;strokeWidth=2;entryX=0.411;entryY=0.006;entryDx=0;entryDy=0;entryPerimeter=0;" parent="1" source="_YRMlN4rnHjjpNE3_err-115" target="_YRMlN4rnHjjpNE3_err-109" edge="1">
          <mxGeometry relative="1" as="geometry">
            <mxPoint x="540" y="680" as="targetPoint" />
          </mxGeometry>
        </mxCell>
        <mxCell id="_YRMlN4rnHjjpNE3_err-115" value="" style="verticalLabelPosition=bottom;shadow=0;dashed=0;align=center;html=1;verticalAlign=top;shape=mxgraph.electrical.transmission.3_line_bus;rotation=-90;strokeWidth=2;" parent="1" vertex="1">
          <mxGeometry x="532.5" y="656.5" width="25" height="10" as="geometry" />
        </mxCell>
        <mxCell id="_YRMlN4rnHjjpNE3_err-116" value="&lt;font face=&quot;Technika&quot;&gt;E&lt;/font&gt;" style="rounded=1;whiteSpace=wrap;html=1;arcSize=43;" parent="1" vertex="1">
          <mxGeometry x="497.6" y="695.6" width="12.4" height="24.8" as="geometry" />
        </mxCell>
        <mxCell id="_YRMlN4rnHjjpNE3_err-117" value="&lt;font style=&quot;font-size: 9px;&quot;&gt;ENCODER SPI&lt;br&gt;&lt;/font&gt;" style="edgeStyle=orthogonalEdgeStyle;rounded=0;orthogonalLoop=1;jettySize=auto;html=1;exitX=0.25;exitY=1;exitDx=0;exitDy=0;entryX=0;entryY=0.5;entryDx=0;entryDy=0;startArrow=block;startFill=0;shape=flexArrow;width=2;startSize=1.0384615384615385;startWidth=2.1153846153846154;endWidth=2.1153846153846154;endSize=1.3846153846153846;fillColor=none;shadow=0;strokeWidth=1;fontFamily=Technika;fontSize=9;verticalAlign=middle;endArrow=none;endFill=0;" parent="1" source="_YRMlN4rnHjjpNE3_err-23" target="_YRMlN4rnHjjpNE3_err-116" edge="1">
          <mxGeometry x="0.0934" relative="1" as="geometry">
            <mxPoint x="495" y="640" as="sourcePoint" />
            <mxPoint x="372.6" y="714.4" as="targetPoint" />
            <Array as="points">
              <mxPoint x="495" y="660" />
              <mxPoint x="480" y="660" />
              <mxPoint x="480" y="708" />
            </Array>
            <mxPoint as="offset" />
          </mxGeometry>
        </mxCell>
        <mxCell id="_YRMlN4rnHjjpNE3_err-125" value="&lt;font face=&quot;Technika&quot; style=&quot;font-size: 12px;&quot;&gt;WS2812B LED strip&lt;/font&gt;" style="whiteSpace=wrap;html=1;align=center;" parent="1" vertex="1">
          <mxGeometry x="153" y="400" width="120" height="30" as="geometry" />
        </mxCell>
        <mxCell id="fSjTaTC0cUNho-w4arMK-1" style="edgeStyle=orthogonalEdgeStyle;rounded=0;orthogonalLoop=1;jettySize=auto;html=1;exitX=1;exitY=0.5;exitDx=0;exitDy=0;" edge="1" parent="1" source="_YRMlN4rnHjjpNE3_err-145">
          <mxGeometry relative="1" as="geometry">
            <mxPoint x="257" y="231" as="sourcePoint" />
            <mxPoint x="284.3" y="231" as="targetPoint" />
          </mxGeometry>
        </mxCell>
        <mxCell id="_YRMlN4rnHjjpNE3_err-145" value="&lt;font face=&quot;Technika&quot;&gt;Voltages&lt;/font&gt;" style="whiteSpace=wrap;html=1;align=center;" parent="1" vertex="1">
          <mxGeometry x="153" y="220" width="100" height="22" as="geometry" />
        </mxCell>
        <mxCell id="_YRMlN4rnHjjpNE3_err-172" style="edgeStyle=orthogonalEdgeStyle;rounded=0;orthogonalLoop=1;jettySize=auto;html=1;exitX=1;exitY=0.5;exitDx=0;exitDy=0;entryX=-0.013;entryY=0.505;entryDx=0;entryDy=0;entryPerimeter=0;" parent="1" source="_YRMlN4rnHjjpNE3_err-146" edge="1">
          <mxGeometry relative="1" as="geometry">
            <mxPoint x="284.44" y="260.4" as="targetPoint" />
            <mxPoint x="254.3" y="259.99999999999994" as="sourcePoint" />
          </mxGeometry>
        </mxCell>
        <mxCell id="_YRMlN4rnHjjpNE3_err-146" value="&lt;font face=&quot;Technika&quot;&gt;Currents&lt;br&gt;&lt;/font&gt;" style="whiteSpace=wrap;html=1;align=center;" parent="1" vertex="1">
          <mxGeometry x="153" y="249" width="100" height="22" as="geometry" />
        </mxCell>
        <mxCell id="_YRMlN4rnHjjpNE3_err-173" value="&lt;div&gt;&lt;font face=&quot;Technika&quot;&gt;Intel NUC 12 Pro Kit&lt;/font&gt;&lt;/div&gt;&lt;br&gt;&lt;div&gt;&lt;br&gt;&lt;/div&gt;&lt;div&gt;&lt;br&gt;&lt;/div&gt;&lt;div&gt;&lt;br&gt;&lt;/div&gt;" style="rounded=0;whiteSpace=wrap;html=1;" parent="1" vertex="1">
          <mxGeometry x="497.6" y="220" width="140" height="110" as="geometry" />
        </mxCell>
        <mxCell id="fSjTaTC0cUNho-w4arMK-2" style="edgeStyle=orthogonalEdgeStyle;rounded=0;orthogonalLoop=1;jettySize=auto;html=1;exitX=1;exitY=0.5;exitDx=0;exitDy=0;entryX=-0.007;entryY=0.856;entryDx=0;entryDy=0;entryPerimeter=0;" edge="1" parent="1" source="_YRMlN4rnHjjpNE3_err-148" target="_YRMlN4rnHjjpNE3_err-132">
          <mxGeometry relative="1" as="geometry" />
        </mxCell>
        <mxCell id="_YRMlN4rnHjjpNE3_err-148" value="&lt;font face=&quot;Technika&quot;&gt;Temperatures&lt;/font&gt;" style="whiteSpace=wrap;html=1;align=center;" parent="1" vertex="1">
          <mxGeometry x="153" y="278" width="100" height="22" as="geometry" />
        </mxCell>
        <mxCell id="_YRMlN4rnHjjpNE3_err-157" value="" style="group" parent="1" vertex="1" connectable="0">
          <mxGeometry x="153" y="310" width="120" height="80" as="geometry" />
        </mxCell>
        <mxCell id="_YRMlN4rnHjjpNE3_err-135" value="&lt;div align=&quot;center&quot;&gt;&lt;font face=&quot;Technika&quot;&gt;Capacitive tactile buttons&lt;/font&gt;&lt;br&gt;&lt;/div&gt;&lt;div&gt;&lt;br&gt;&lt;/div&gt;&lt;div&gt;&lt;br&gt;&lt;/div&gt;&lt;div&gt;&lt;br&gt;&lt;/div&gt;" style="rounded=0;whiteSpace=wrap;html=1;" parent="_YRMlN4rnHjjpNE3_err-157" vertex="1">
          <mxGeometry width="120" height="80" as="geometry" />
        </mxCell>
        <mxCell id="_YRMlN4rnHjjpNE3_err-134" value="" style="pointerEvents=1;verticalLabelPosition=bottom;shadow=0;dashed=0;align=center;html=1;verticalAlign=top;shape=mxgraph.electrical.capacitors.variable_capacitor_1;" parent="_YRMlN4rnHjjpNE3_err-157" vertex="1">
          <mxGeometry x="37.299999999999955" y="40.19999999999999" width="45.4" height="30" as="geometry" />
        </mxCell>
        <mxCell id="_YRMlN4rnHjjpNE3_err-159" value="" style="group" parent="1" vertex="1" connectable="0">
          <mxGeometry x="285" y="220" width="120" height="80" as="geometry" />
        </mxCell>
        <mxCell id="_YRMlN4rnHjjpNE3_err-132" value="&lt;div align=&quot;center&quot;&gt;&lt;font face=&quot;Technika&quot;&gt;Analog readings&lt;/font&gt;&lt;br&gt;&lt;/div&gt;&lt;div&gt;&lt;br&gt;&lt;/div&gt;&lt;div&gt;&lt;br&gt;&lt;/div&gt;&lt;div&gt;&lt;br&gt;&lt;/div&gt;" style="rounded=0;whiteSpace=wrap;html=1;" parent="_YRMlN4rnHjjpNE3_err-159" vertex="1">
          <mxGeometry width="120" height="80" as="geometry" />
        </mxCell>
        <mxCell id="_YRMlN4rnHjjpNE3_err-129" value="" style="sketch=0;points=[[0.015,0.015,0],[0.985,0.015,0],[0.985,0.985,0],[0.015,0.985,0],[0.25,0,0],[0.5,0,0],[0.75,0,0],[1,0.25,0],[1,0.5,0],[1,0.75,0],[0.75,1,0],[0.5,1,0],[0.25,1,0],[0,0.75,0],[0,0.5,0],[0,0.25,0]];verticalLabelPosition=bottom;html=1;verticalAlign=top;aspect=fixed;align=center;pointerEvents=1;shape=mxgraph.cisco19.rect;prIcon=ad_encoder;fillColor=#FAFAFA;strokeColor=#005073;" parent="_YRMlN4rnHjjpNE3_err-159" vertex="1">
          <mxGeometry x="40.80000000000001" y="40" width="38.39" height="30" as="geometry" />
        </mxCell>
        <mxCell id="_YRMlN4rnHjjpNE3_err-127" value="" style="shape=mxgraph.signs.tech.computer;html=1;pointerEvents=1;fillColor=#000000;strokeColor=none;verticalLabelPosition=bottom;verticalAlign=top;align=center;" parent="1" vertex="1">
          <mxGeometry x="543.6" y="264.65000000000003" width="48" height="48" as="geometry" />
        </mxCell>
        <mxCell id="_YRMlN4rnHjjpNE3_err-175" value="" style="sketch=0;aspect=fixed;pointerEvents=1;shadow=0;dashed=0;html=1;strokeColor=none;labelPosition=center;verticalLabelPosition=bottom;verticalAlign=top;align=center;fillColor=#1682E0;shape=mxgraph.mscae.enterprise.usb" parent="1" vertex="1">
          <mxGeometry x="471" y="341.48" width="24" height="11.04" as="geometry" />
        </mxCell>
        <mxCell id="_YRMlN4rnHjjpNE3_err-185" value="&lt;font style=&quot;font-size: 10px;&quot; face=&quot;Technika&quot;&gt;BUZZER&lt;/font&gt;" style="text;html=1;align=center;verticalAlign=middle;resizable=1;points=[];autosize=1;strokeColor=none;fillColor=none;movable=1;rotatable=1;deletable=1;editable=1;locked=0;connectable=1;" parent="1" vertex="1">
          <mxGeometry x="150.00000000000003" y="485" width="60" height="30" as="geometry" />
        </mxCell>
        <mxCell id="_YRMlN4rnHjjpNE3_err-179" value="" style="shape=or;whiteSpace=wrap;html=1;" parent="1" vertex="1">
          <mxGeometry x="170" y="455" width="20" height="30" as="geometry" />
        </mxCell>
      </root>
    </mxGraphModel>
  </diagram>
</mxfile>
