G04*
G04 #@! TF.GenerationSoftware,Altium Limited,Altium Designer,23.4.1 (23)*
G04*
G04 Layer_Physical_Order=4*
G04 Layer_Color=16711680*
%FSLAX44Y44*%
%MOMM*%
G71*
G04*
G04 #@! TF.SameCoordinates,BCF0E485-1406-4294-BDF3-DDCF0288BC38*
G04*
G04*
G04 #@! TF.FilePolarity,Positive*
G04*
G01*
G75*
%ADD11C,0.4000*%
%ADD15C,0.3000*%
%ADD19R,0.9000X0.9500*%
%ADD22R,0.7000X5.0000*%
%ADD23R,0.7000X3.6000*%
%ADD24R,0.9500X0.9000*%
%ADD45C,0.7000*%
%ADD46C,0.8000*%
%ADD47C,1.0000*%
%ADD48C,0.9000*%
%ADD49C,5.6000*%
G04:AMPARAMS|DCode=50|XSize=1.5mm|YSize=2.5mm|CornerRadius=0.1875mm|HoleSize=0mm|Usage=FLASHONLY|Rotation=0.000|XOffset=0mm|YOffset=0mm|HoleType=Round|Shape=RoundedRectangle|*
%AMROUNDEDRECTD50*
21,1,1.5000,2.1250,0,0,0.0*
21,1,1.1250,2.5000,0,0,0.0*
1,1,0.3750,0.5625,-1.0625*
1,1,0.3750,-0.5625,-1.0625*
1,1,0.3750,-0.5625,1.0625*
1,1,0.3750,0.5625,1.0625*
%
%ADD50ROUNDEDRECTD50*%
%ADD51C,0.4500*%
%ADD52C,0.6000*%
%ADD53C,0.5000*%
%ADD54C,0.7000*%
%ADD55R,8.8000X8.8000*%
%AMCUSTOMSHAPE56*
4,1,5,-0.6625,-0.4500,0.2875,-0.4500,0.6625,0.0000,0.2875,0.4500,-0.6625,0.4500,-0.6625,-0.4500,0.0*%
%ADD56CUSTOMSHAPE56*%

%AMCUSTOMSHAPE57*
4,1,5,-0.2875,0.0000,-0.6625,0.4500,0.6625,0.4500,0.6625,-0.4500,-0.6625,-0.4500,-0.2875,0.0000,0.0*%
%ADD57CUSTOMSHAPE57*%

%AMCUSTOMSHAPE58*
4,1,5,0.6625,0.4500,-0.2875,0.4500,-0.6625,0.0000,-0.2875,-0.4500,0.6625,-0.4500,0.6625,0.4500,0.0*%
%ADD58CUSTOMSHAPE58*%

%AMCUSTOMSHAPE59*
4,1,5,0.2875,0.0000,0.6625,-0.4500,-0.6625,-0.4500,-0.6625,0.4500,0.6625,0.4500,0.2875,0.0000,0.0*%
%ADD59CUSTOMSHAPE59*%

%ADD60C,0.3500*%
G36*
X150183Y141726D02*
X148994Y141120D01*
X145105Y138294D01*
X141705Y134895D01*
X138880Y131006D01*
X136697Y126723D01*
X135212Y122151D01*
X134460Y117403D01*
Y116270D01*
X165000D01*
Y113730D01*
X134460D01*
Y112596D01*
X135212Y107849D01*
X136697Y103277D01*
X138880Y98994D01*
X141705Y95105D01*
X145105Y91705D01*
X148994Y88880D01*
X152588Y87048D01*
X152283Y85778D01*
X129989D01*
X117884Y97884D01*
X116561Y98768D01*
X115000Y99078D01*
X115000Y99078D01*
X49175D01*
X34061Y114192D01*
X34222Y114824D01*
X34625Y115424D01*
X45625D01*
X47137Y115725D01*
X48419Y116581D01*
X49275Y117863D01*
X49353Y118252D01*
X50647D01*
X50725Y117863D01*
X51581Y116581D01*
X52863Y115725D01*
X54375Y115424D01*
X65625D01*
X67137Y115725D01*
X68419Y116581D01*
X69275Y117863D01*
X69352Y118252D01*
X70647D01*
X70725Y117863D01*
X71581Y116581D01*
X72863Y115725D01*
X74375Y115424D01*
X85625D01*
X87137Y115725D01*
X88419Y116581D01*
X89275Y117863D01*
X89353Y118252D01*
X90647D01*
X90725Y117863D01*
X91581Y116581D01*
X92863Y115725D01*
X94375Y115424D01*
X105625D01*
X107137Y115725D01*
X108419Y116581D01*
X109275Y117863D01*
X109353Y118252D01*
X110647D01*
X110725Y117863D01*
X111581Y116581D01*
X112863Y115725D01*
X114375Y115424D01*
X125625D01*
X127137Y115725D01*
X128419Y116581D01*
X129275Y117863D01*
X129576Y119375D01*
Y140625D01*
X129364Y141691D01*
X130136Y142961D01*
X149886D01*
X150183Y141726D01*
D02*
G37*
G36*
X192961Y99886D02*
Y71201D01*
X191788Y70715D01*
X177919Y84584D01*
X176744Y85369D01*
X176665Y86137D01*
X176694Y86413D01*
X176780Y86726D01*
X181006Y88880D01*
X184895Y91705D01*
X188295Y95105D01*
X191120Y98994D01*
X191726Y100183D01*
X192961Y99886D01*
D02*
G37*
G36*
X13250Y57500D02*
X3750D01*
X0Y62000D01*
X3750Y66500D01*
X13250D01*
Y57500D01*
D02*
G37*
G36*
X-3750Y62000D02*
X0Y57500D01*
X-13250D01*
Y66500D01*
X0D01*
X-3750Y62000D01*
D02*
G37*
G36*
X27500Y83177D02*
X36799D01*
X39430Y80546D01*
X40670Y79718D01*
X42133Y79427D01*
X108549D01*
X126478Y61498D01*
Y47192D01*
X125208Y46686D01*
X123845Y47250D01*
X122155D01*
X120593Y46603D01*
X119808Y45818D01*
X119000Y45543D01*
X118192Y45818D01*
X117407Y46603D01*
X115845Y47250D01*
X114155D01*
X112593Y46603D01*
X111807Y45818D01*
X111000Y45543D01*
X110192Y45818D01*
X109407Y46603D01*
X107845Y47250D01*
X106155D01*
X104593Y46603D01*
X103397Y45407D01*
X103150Y44811D01*
X101652Y44513D01*
X83281Y62884D01*
X81958Y63768D01*
X80398Y64078D01*
X80397Y64078D01*
X60748D01*
X59916Y65348D01*
X60250Y66155D01*
Y67845D01*
X59603Y69407D01*
X58407Y70603D01*
X56845Y71250D01*
X55155D01*
X54740Y71078D01*
X19593D01*
X18958Y71502D01*
X17560Y72900D01*
X17239Y73115D01*
X15668Y74686D01*
X15454Y75007D01*
X12257Y78204D01*
X11500Y78709D01*
Y83181D01*
X27250D01*
X27363Y83204D01*
X27500Y83177D01*
D02*
G37*
G36*
X165921Y70352D02*
X151035Y55465D01*
X149819Y53646D01*
X149392Y51500D01*
Y-45223D01*
X148122Y-45608D01*
X147884Y-45252D01*
X147884Y-45251D01*
X143877Y-41245D01*
X143610Y-40600D01*
X142415Y-39404D01*
X140852Y-38757D01*
X139162D01*
X137600Y-39404D01*
X136404Y-40600D01*
X135757Y-42162D01*
Y-43853D01*
X135850Y-44077D01*
X135001Y-45347D01*
X134297D01*
X132735Y-45994D01*
X131539Y-47189D01*
X130892Y-48752D01*
Y-50442D01*
X131076Y-50885D01*
X130104Y-51857D01*
X129845Y-51750D01*
X128155D01*
X126593Y-52397D01*
X125397Y-53593D01*
X124750Y-55155D01*
Y-56845D01*
X125048Y-57564D01*
X124164Y-58750D01*
X123155D01*
X122509Y-59017D01*
X119302D01*
X119302Y-59017D01*
X117741Y-59328D01*
X116418Y-60212D01*
X116418Y-60212D01*
X111326Y-65304D01*
X110153Y-64818D01*
Y-45766D01*
X111423Y-45513D01*
X111897Y-46657D01*
X113093Y-47853D01*
X114655Y-48500D01*
X116345D01*
X117907Y-47853D01*
X119103Y-46657D01*
X119750Y-45095D01*
Y-43405D01*
X119103Y-41843D01*
X117907Y-40647D01*
X116345Y-40000D01*
X114655D01*
X113093Y-40647D01*
X111897Y-41843D01*
X111423Y-42987D01*
X110153Y-42734D01*
Y-13723D01*
X111278Y-13438D01*
X111423Y-13433D01*
X112593Y-14603D01*
X114155Y-15250D01*
X115845D01*
X117407Y-14603D01*
X118164Y-13846D01*
X118980Y-13546D01*
X119796Y-13846D01*
X120553Y-14603D01*
X122115Y-15250D01*
X123805D01*
X125367Y-14603D01*
X126480Y-13490D01*
X127593Y-14603D01*
X129155Y-15250D01*
X130845D01*
X132407Y-14603D01*
X133603Y-13407D01*
X134250Y-11845D01*
Y-10155D01*
X133603Y-8593D01*
X132407Y-7397D01*
X130845Y-6750D01*
X129155D01*
X127593Y-7397D01*
X126480Y-8510D01*
X125367Y-7397D01*
X123805Y-6750D01*
X122115D01*
X120553Y-7397D01*
X119796Y-8154D01*
X118980Y-8454D01*
X118164Y-8154D01*
X117407Y-7397D01*
X116811Y-7150D01*
X116513Y-5652D01*
X116964Y-5201D01*
X117848Y-3878D01*
X118158Y-2317D01*
X118158Y-2317D01*
Y3148D01*
X119428Y3997D01*
X120025Y3750D01*
X121715D01*
X123277Y4397D01*
X124473Y5593D01*
X125120Y7155D01*
Y7883D01*
X126390Y8562D01*
X126741Y8328D01*
X128302Y8017D01*
X128302Y8017D01*
X128509D01*
X129155Y7750D01*
X130845D01*
X132407Y8397D01*
X133603Y9593D01*
X134250Y11155D01*
Y12845D01*
X133603Y14407D01*
X132407Y15603D01*
X130845Y16250D01*
X129915D01*
X108513Y37652D01*
X108811Y39150D01*
X109407Y39397D01*
X110192Y40182D01*
X111000Y40457D01*
X111807Y40182D01*
X112593Y39397D01*
X114155Y38750D01*
X115845D01*
X117407Y39397D01*
X118192Y40182D01*
X119000Y40457D01*
X119808Y40182D01*
X120593Y39397D01*
X122155Y38750D01*
X123845D01*
X124565Y39048D01*
X125977Y38425D01*
X126252Y37632D01*
X126051Y37147D01*
Y35456D01*
X126698Y33894D01*
X127894Y32698D01*
X129456Y32051D01*
X131147D01*
X132709Y32698D01*
X133904Y33894D01*
X134551Y35456D01*
Y37147D01*
X134125Y38176D01*
Y63082D01*
X133834Y64545D01*
X133005Y65785D01*
X128342Y70448D01*
X128828Y71622D01*
X165395D01*
X165921Y70352D01*
D02*
G37*
G36*
X-169492Y141436D02*
X-169444Y141290D01*
X-169576Y140625D01*
Y119375D01*
X-169275Y117863D01*
X-168419Y116581D01*
X-167137Y115725D01*
X-165625Y115424D01*
X-154375D01*
X-152863Y115725D01*
X-151581Y116581D01*
X-150725Y117863D01*
X-150647Y118252D01*
X-149353D01*
X-149275Y117863D01*
X-148419Y116581D01*
X-147137Y115725D01*
X-145625Y115424D01*
X-134375D01*
X-132863Y115725D01*
X-131581Y116581D01*
X-130725Y117863D01*
X-130647Y118252D01*
X-129353D01*
X-129275Y117863D01*
X-128419Y116581D01*
X-127137Y115725D01*
X-125625Y115424D01*
X-114375D01*
X-112863Y115725D01*
X-111581Y116581D01*
X-110725Y117863D01*
X-110647Y118252D01*
X-109353D01*
X-109275Y117863D01*
X-108419Y116581D01*
X-107137Y115725D01*
X-105625Y115424D01*
X-98563D01*
X-98268Y113939D01*
X-97384Y112616D01*
X-89945Y105177D01*
X-89963Y104915D01*
X-90361Y103907D01*
X-94210D01*
X-96551Y103442D01*
X-98536Y102116D01*
X-100326Y100326D01*
X-101652Y98341D01*
X-102118Y96000D01*
X-101652Y93659D01*
X-100326Y91674D01*
X-99998Y91455D01*
X-100250Y90845D01*
Y89155D01*
X-99603Y87593D01*
X-98407Y86397D01*
X-96845Y85750D01*
X-95155D01*
X-93593Y86397D01*
X-92397Y87593D01*
X-91750Y89155D01*
Y90845D01*
X-90718Y91672D01*
X-88868D01*
X-88019Y90402D01*
X-88250Y89845D01*
Y88155D01*
X-87603Y86593D01*
X-86818Y85808D01*
X-86543Y85000D01*
X-86818Y84192D01*
X-87603Y83407D01*
X-88250Y81845D01*
Y80155D01*
X-87603Y78593D01*
X-86818Y77808D01*
X-86543Y77000D01*
X-86818Y76192D01*
X-87603Y75407D01*
X-88250Y73845D01*
Y72155D01*
X-87603Y70593D01*
X-86407Y69397D01*
X-84845Y68750D01*
X-83155D01*
X-82509Y69017D01*
X-82302D01*
X-82302Y69017D01*
X-80741Y69328D01*
X-79418Y70212D01*
X-74137Y75493D01*
X-74137Y75493D01*
X-73253Y76816D01*
X-73026Y77956D01*
X-72954Y78001D01*
X-71821Y78303D01*
X-71706Y78296D01*
X-71218Y77808D01*
X-70943Y77000D01*
X-71218Y76192D01*
X-72003Y75407D01*
X-72650Y73845D01*
Y72155D01*
X-72003Y70593D01*
X-70807Y69397D01*
X-69245Y68750D01*
X-67555D01*
X-65993Y69397D01*
X-64797Y70593D01*
X-64150Y72155D01*
Y73845D01*
X-64797Y75407D01*
X-65041Y75652D01*
X-64515Y76922D01*
X-50074D01*
X-44268Y71116D01*
X-42945Y70232D01*
X-41385Y69922D01*
X-26087D01*
X-17781Y61616D01*
X-16458Y60732D01*
X-15289Y60500D01*
Y57500D01*
X-15250Y57303D01*
Y55500D01*
X-13447D01*
X-13250Y55461D01*
X0D01*
X301Y55521D01*
X480Y55540D01*
X1750Y55500D01*
X1750Y55500D01*
X3461D01*
X3565Y55469D01*
X3658Y55479D01*
X3750Y55461D01*
X13250D01*
X13447Y55500D01*
X15250D01*
Y55922D01*
X17549D01*
X17880Y54652D01*
X15784Y52556D01*
X8500D01*
X8372Y52539D01*
X3750D01*
X3658Y52521D01*
X3565Y52531D01*
X3461Y52500D01*
X1750D01*
Y52500D01*
X480Y52460D01*
X301Y52479D01*
X0Y52539D01*
X-5995D01*
X-6673Y52820D01*
X-8500Y53060D01*
X-10327Y52820D01*
X-11005Y52539D01*
X-13250D01*
X-13447Y52500D01*
X-15250D01*
Y50697D01*
X-15289Y50500D01*
Y47901D01*
X-15320Y47827D01*
X-15560Y46000D01*
Y32000D01*
Y21846D01*
X-16830Y20997D01*
X-17391Y21229D01*
X-19082D01*
X-19525Y21046D01*
X-20750Y21913D01*
Y22845D01*
X-21397Y24407D01*
X-22593Y25603D01*
X-24155Y26250D01*
X-25845D01*
X-27407Y25603D01*
X-28193Y24818D01*
X-29000Y24543D01*
X-29808Y24818D01*
X-30593Y25603D01*
X-32155Y26250D01*
X-33845D01*
X-35407Y25603D01*
X-36603Y24407D01*
X-37250Y22845D01*
Y21155D01*
X-36603Y19593D01*
X-35407Y18397D01*
X-33845Y17750D01*
X-32155D01*
X-30593Y18397D01*
X-29808Y19182D01*
X-29000Y19457D01*
X-28193Y19182D01*
X-27407Y18397D01*
X-25845Y17750D01*
X-24155D01*
X-23712Y17933D01*
X-22487Y17066D01*
Y16134D01*
X-21840Y14572D01*
X-20644Y13376D01*
X-19082Y12729D01*
X-17391D01*
X-16520Y13090D01*
X-15250Y12296D01*
Y11500D01*
X-13447D01*
X-13250Y11461D01*
X-11005D01*
X-10327Y11180D01*
X-8500Y10940D01*
X-6673Y11180D01*
X-5995Y11461D01*
X-3750D01*
X-3658Y11479D01*
X-3565Y11469D01*
X-3461Y11500D01*
X-1750D01*
Y12715D01*
X1567Y16695D01*
X1670Y16884D01*
X1806Y17052D01*
X1858Y17230D01*
X1947Y17393D01*
X1970Y17608D01*
X2031Y17815D01*
X2011Y18000D01*
X2031Y18185D01*
X1970Y18392D01*
X1947Y18607D01*
X1858Y18770D01*
X1806Y18948D01*
X1670Y19116D01*
X1567Y19305D01*
X-1440Y22913D01*
Y24551D01*
X-1302Y24773D01*
X-400Y25447D01*
X-170Y25494D01*
X0Y25461D01*
X13250D01*
X13447Y25500D01*
X15250D01*
Y27303D01*
X15289Y27500D01*
Y27922D01*
X44740D01*
X45155Y27750D01*
X46845D01*
X48407Y28397D01*
X49603Y29593D01*
X50250Y31155D01*
Y32845D01*
X49603Y34407D01*
X48407Y35603D01*
X46845Y36250D01*
X45155D01*
X44740Y36078D01*
X16264D01*
X15250Y37332D01*
Y38500D01*
X16037Y39444D01*
X18500D01*
X20197Y39667D01*
X21778Y40322D01*
X23136Y41364D01*
X27386Y45614D01*
X28428Y46972D01*
X29083Y48553D01*
X29306Y50250D01*
X29083Y51947D01*
X28428Y53528D01*
X27566Y54652D01*
X27938Y55922D01*
X78708D01*
X98110Y36520D01*
X97584Y35250D01*
X97155D01*
X95593Y34603D01*
X94397Y33407D01*
X93750Y31845D01*
Y31704D01*
X92480Y31178D01*
X83693Y39965D01*
X81874Y41181D01*
X79728Y41608D01*
X76000D01*
X73854Y41181D01*
X72035Y39965D01*
X70819Y38146D01*
X70392Y36000D01*
X70819Y33854D01*
X71137Y33379D01*
X70786Y31951D01*
X69311Y30965D01*
X62745Y24399D01*
X61529Y22580D01*
X61102Y20434D01*
Y-14941D01*
X61529Y-17087D01*
X61682Y-17316D01*
Y-21136D01*
X60412Y-21985D01*
X59845Y-21750D01*
X58155D01*
X56593Y-22397D01*
X55397Y-23593D01*
X54750Y-25155D01*
Y-26845D01*
X55397Y-28407D01*
X56593Y-29603D01*
X58155Y-30250D01*
X59845D01*
X60563Y-29953D01*
X62000Y-30670D01*
X62109Y-31218D01*
X63325Y-33037D01*
X69392Y-39104D01*
Y-42349D01*
X68219Y-42835D01*
X66692Y-41308D01*
X66030Y-40866D01*
X65250Y-40711D01*
X64469Y-40866D01*
X63808Y-41308D01*
X53193Y-51923D01*
X52751Y-52585D01*
X52596Y-53365D01*
X52596Y-54635D01*
X52596Y-54635D01*
X52751Y-55416D01*
X53193Y-56077D01*
X53193Y-56077D01*
X59461Y-62345D01*
Y-69655D01*
X59392Y-70000D01*
X59392Y-70000D01*
Y-110000D01*
X59500Y-110542D01*
Y-134984D01*
X50539D01*
Y-68000D01*
X50539Y-68000D01*
X50539Y-68000D01*
Y-59500D01*
X50384Y-58720D01*
X49942Y-58058D01*
X17904Y-26021D01*
X17243Y-25578D01*
X16463Y-25423D01*
X15682Y-25579D01*
X15682Y-25579D01*
X14509Y-26065D01*
X14509Y-26065D01*
X13847Y-26507D01*
X13405Y-27168D01*
X13250Y-27949D01*
Y-30299D01*
X13250Y-30299D01*
Y-30500D01*
X558D01*
X12Y-29652D01*
X-14Y-29404D01*
X1Y-29184D01*
X1567Y-27306D01*
X1670Y-27116D01*
X1806Y-26948D01*
X1858Y-26770D01*
X1947Y-26607D01*
X1970Y-26392D01*
X2031Y-26185D01*
X2011Y-26000D01*
X2031Y-25815D01*
X1970Y-25608D01*
X1947Y-25393D01*
X1858Y-25230D01*
X1806Y-25052D01*
X1670Y-24884D01*
X1567Y-24694D01*
X-1440Y-21087D01*
Y-19449D01*
X-1302Y-19226D01*
X-400Y-18554D01*
X-170Y-18505D01*
X0Y-18539D01*
X13250D01*
X13447Y-18500D01*
X15250D01*
Y-16983D01*
X16509D01*
X17155Y-17250D01*
X18845D01*
X20407Y-16603D01*
X21603Y-15407D01*
X22250Y-13845D01*
Y-13318D01*
X23520Y-12792D01*
X31364Y-20636D01*
X32722Y-21678D01*
X34303Y-22333D01*
X36000Y-22556D01*
X37697Y-22333D01*
X39278Y-21678D01*
X40636Y-20636D01*
X41678Y-19278D01*
X42333Y-17697D01*
X42556Y-16000D01*
X42333Y-14303D01*
X41678Y-12722D01*
X40636Y-11364D01*
X22636Y6636D01*
X21278Y7678D01*
X19697Y8333D01*
X18000Y8556D01*
X8500D01*
X8372Y8539D01*
X3750D01*
X3658Y8521D01*
X3565Y8531D01*
X3461Y8500D01*
X1750D01*
Y8500D01*
X480Y8460D01*
X301Y8479D01*
X0Y8539D01*
X-5995D01*
X-6673Y8820D01*
X-8500Y9060D01*
X-10327Y8820D01*
X-11005Y8539D01*
X-13250D01*
X-13447Y8500D01*
X-15250D01*
Y8500D01*
X-16520Y8251D01*
X-16720Y8384D01*
X-17500Y8539D01*
X-34500D01*
X-35280Y8384D01*
X-35942Y7942D01*
X-36384Y7280D01*
X-36539Y6500D01*
Y-5238D01*
X-36384Y-6018D01*
X-35942Y-6680D01*
X-35716Y-6905D01*
X-35709Y-6924D01*
X-35942Y-8468D01*
X-36384Y-9129D01*
X-36539Y-9909D01*
Y-21037D01*
X-37407Y-21397D01*
X-37721Y-21711D01*
X-38279D01*
X-38593Y-21397D01*
X-40155Y-20750D01*
X-41845D01*
X-43407Y-21397D01*
X-43721Y-21711D01*
X-45957D01*
X-46737Y-21866D01*
X-47399Y-22308D01*
X-48931Y-22435D01*
X-49058Y-22308D01*
X-49720Y-21866D01*
X-50500Y-21711D01*
X-64279Y-21711D01*
X-64593Y-21397D01*
X-66155Y-20750D01*
X-67845D01*
X-69407Y-21397D01*
X-69721Y-21711D01*
X-70279D01*
X-70593Y-21397D01*
X-72155Y-20750D01*
X-73845D01*
X-75407Y-21397D01*
X-75721Y-21711D01*
X-76279D01*
X-76593Y-21397D01*
X-78155Y-20750D01*
X-79845D01*
X-81407Y-21397D01*
X-81721Y-21711D01*
X-83000D01*
X-83780Y-21866D01*
X-84442Y-22308D01*
X-84884Y-22970D01*
X-85039Y-23750D01*
Y-27250D01*
X-84884Y-28030D01*
X-84442Y-28692D01*
X-84442Y-28692D01*
X-54523Y-58611D01*
X-54488Y-58798D01*
X-54487Y-58945D01*
X-54838Y-60092D01*
X-56073Y-60752D01*
X-56228Y-60880D01*
X-56405Y-60974D01*
X-57799Y-62118D01*
X-57926Y-62274D01*
X-58082Y-62401D01*
X-59226Y-63795D01*
X-59321Y-63972D01*
X-59448Y-64128D01*
X-60298Y-65718D01*
X-60356Y-65910D01*
X-60451Y-66087D01*
X-60974Y-67813D01*
X-60994Y-68013D01*
X-61052Y-68205D01*
X-61229Y-70000D01*
X-61219Y-70101D01*
X-61239Y-70200D01*
Y-133089D01*
X-61386Y-134584D01*
X-61508Y-134984D01*
X-169192D01*
X-169314Y-134584D01*
X-169461Y-133089D01*
Y-70200D01*
X-169481Y-70101D01*
X-169471Y-70000D01*
X-169648Y-68205D01*
X-169706Y-68013D01*
X-169725Y-67813D01*
X-170249Y-66087D01*
X-170344Y-65910D01*
X-170402Y-65718D01*
X-171252Y-64128D01*
X-171380Y-63972D01*
X-171474Y-63795D01*
X-172619Y-62401D01*
X-172774Y-62274D01*
X-172901Y-62118D01*
X-174295Y-60974D01*
X-174472Y-60880D01*
X-174628Y-60752D01*
X-176218Y-59902D01*
X-176410Y-59844D01*
X-176587Y-59749D01*
X-178313Y-59226D01*
X-178513Y-59206D01*
X-178705Y-59148D01*
X-180500Y-58971D01*
X-180601Y-58981D01*
X-180700Y-58961D01*
X-185700D01*
X-187195Y-58814D01*
X-188537Y-58407D01*
X-189773Y-57746D01*
X-190857Y-56857D01*
X-191746Y-55773D01*
X-192407Y-54537D01*
X-192814Y-53195D01*
X-192961Y-51700D01*
Y114911D01*
X-192528Y119854D01*
X-191267Y124560D01*
X-189208Y128977D01*
X-186413Y132968D01*
X-182968Y136413D01*
X-178977Y139208D01*
X-174561Y141267D01*
X-170528Y142348D01*
X-169492Y141436D01*
D02*
G37*
G36*
X13250Y27500D02*
X0D01*
X3750Y32000D01*
X0Y36500D01*
X13250D01*
Y27500D01*
D02*
G37*
G36*
X0Y32000D02*
X-3750Y27500D01*
X-13250D01*
Y36500D01*
X-3750D01*
X0Y32000D01*
D02*
G37*
G36*
X179981Y53895D02*
X179960Y53845D01*
Y52155D01*
X180607Y50593D01*
X181803Y49397D01*
X183365Y48750D01*
X185056D01*
X185652Y48997D01*
X186922Y48148D01*
Y24852D01*
X185652Y24003D01*
X185056Y24250D01*
X183365D01*
X181803Y23603D01*
X180607Y22407D01*
X179960Y20845D01*
Y19155D01*
X180607Y17593D01*
X181392Y16808D01*
X181667Y16000D01*
X181392Y15193D01*
X180607Y14407D01*
X179960Y12845D01*
Y11155D01*
X180430Y10020D01*
X180240Y9142D01*
X179800Y8603D01*
X178593Y8103D01*
X177397Y6907D01*
X176750Y5345D01*
Y3655D01*
X177397Y2093D01*
X178328Y1162D01*
X178280Y77D01*
X178140Y-290D01*
X177883Y-397D01*
X176687Y-1593D01*
X176040Y-3155D01*
Y-4845D01*
X176687Y-6407D01*
X177883Y-7603D01*
X179445Y-8250D01*
X180154D01*
X180680Y-9520D01*
X180607Y-9593D01*
X179960Y-11155D01*
Y-12845D01*
X180607Y-14407D01*
X180998Y-14799D01*
X180472Y-16069D01*
X180264D01*
X178702Y-16716D01*
X177507Y-17911D01*
X176859Y-19473D01*
Y-21164D01*
X177507Y-22726D01*
X178702Y-23921D01*
X180264Y-24569D01*
X181955D01*
X183517Y-23921D01*
X184712Y-22726D01*
X185359Y-21164D01*
Y-19473D01*
X184712Y-17911D01*
X184321Y-17520D01*
X184847Y-16250D01*
X185056D01*
X186618Y-15603D01*
X187813Y-14407D01*
X187985Y-13993D01*
X191788Y-10190D01*
X192961Y-10676D01*
Y-51700D01*
X192814Y-53195D01*
X192407Y-54537D01*
X191746Y-55773D01*
X190856Y-56857D01*
X189773Y-57746D01*
X188537Y-58407D01*
X187195Y-58814D01*
X185700Y-58961D01*
X180700D01*
X180601Y-58981D01*
X180500Y-58971D01*
X178705Y-59148D01*
X178513Y-59206D01*
X178313Y-59226D01*
X176587Y-59749D01*
X176410Y-59844D01*
X176218Y-59902D01*
X174627Y-60752D01*
X174472Y-60880D01*
X174295Y-60974D01*
X172901Y-62118D01*
X172774Y-62274D01*
X172618Y-62401D01*
X171878Y-63303D01*
X170608Y-62849D01*
Y-41778D01*
X171878Y-41075D01*
X172905Y-41500D01*
X174595D01*
X176157Y-40853D01*
X177353Y-39657D01*
X178000Y-38095D01*
Y-36405D01*
X177353Y-34843D01*
X176157Y-33647D01*
X174595Y-33000D01*
X172905D01*
X171878Y-33425D01*
X170608Y-32722D01*
Y46318D01*
X178904Y54614D01*
X179981Y53895D01*
D02*
G37*
G36*
X86392Y21405D02*
Y-6136D01*
X85122Y-6985D01*
X84555Y-6750D01*
X82865D01*
X81303Y-7397D01*
X80605Y-8094D01*
X79866Y-8489D01*
X78946Y-8094D01*
X78328Y-7477D01*
X76766Y-6830D01*
X75075D01*
X73513Y-7477D01*
X73491Y-7499D01*
X72318Y-7013D01*
Y18111D01*
X75599Y21392D01*
X76000D01*
X78146Y21819D01*
X79965Y23035D01*
X81181Y24854D01*
X81210Y25003D01*
X82426Y25372D01*
X86392Y21405D01*
D02*
G37*
G36*
X13250Y-16500D02*
X0D01*
X3750Y-12000D01*
X0Y-7500D01*
X13250D01*
Y-16500D01*
D02*
G37*
G36*
X0Y-12000D02*
X-3750Y-16500D01*
X-13250D01*
Y-7500D01*
X-3750D01*
X0Y-12000D01*
D02*
G37*
G36*
X-15289Y4289D02*
Y3901D01*
X-15320Y3827D01*
X-15560Y2000D01*
Y-12000D01*
Y-22518D01*
X-16734Y-23004D01*
X-21744Y-17994D01*
X-34500Y-5238D01*
Y6500D01*
X-17500D01*
X-15289Y4289D01*
D02*
G37*
G36*
X48500Y-59500D02*
Y-68000D01*
Y-134984D01*
X21500D01*
Y-133250D01*
Y-67900D01*
Y-61238D01*
X-5874Y-33864D01*
X-5888Y-33711D01*
X-5403Y-32539D01*
X-3750D01*
X-3658Y-32521D01*
X-3565Y-32531D01*
X-3461Y-32500D01*
X-1750D01*
Y-32500D01*
X-480Y-32460D01*
X-301Y-32479D01*
X0Y-32539D01*
X13250D01*
X13447Y-32500D01*
X15250D01*
Y-30697D01*
X15289Y-30500D01*
Y-27949D01*
X16463Y-27462D01*
X48500Y-59500D01*
D02*
G37*
G36*
X69392Y-46892D02*
Y-61608D01*
X68500Y-62500D01*
Y-84000D01*
X61500D01*
Y-61500D01*
X54635Y-54635D01*
X54635Y-53365D01*
X65250Y-42750D01*
X69392Y-46892D01*
D02*
G37*
G36*
X-15380Y-27370D02*
X-15320Y-27827D01*
X-15289Y-27901D01*
Y-30500D01*
X-15250Y-30697D01*
Y-32500D01*
X-13447D01*
X-13250Y-32539D01*
X-11005D01*
X-10327Y-32820D01*
X-9870Y-32880D01*
X18500Y-61250D01*
Y-134984D01*
X-8500D01*
Y-67900D01*
Y-62250D01*
X-22993Y-48373D01*
X-46443Y-24923D01*
X-45957Y-23750D01*
X-34500D01*
Y-9909D01*
X-33327Y-9423D01*
X-15380Y-27370D01*
D02*
G37*
G36*
X-50500Y-23750D02*
X-11500Y-62750D01*
Y-134984D01*
X-38493D01*
X-38614Y-134584D01*
X-38761Y-133089D01*
Y-70200D01*
X-38781Y-70101D01*
X-38771Y-70000D01*
X-38948Y-68205D01*
X-39006Y-68013D01*
X-39025Y-67813D01*
X-39549Y-66087D01*
X-39644Y-65910D01*
X-39702Y-65718D01*
X-40552Y-64128D01*
X-40680Y-63972D01*
X-40774Y-63795D01*
X-41918Y-62401D01*
X-42074Y-62274D01*
X-42201Y-62118D01*
X-43595Y-60974D01*
X-43772Y-60880D01*
X-43928Y-60752D01*
X-45518Y-59902D01*
X-45710Y-59844D01*
X-45887Y-59749D01*
X-47613Y-59226D01*
X-47813Y-59206D01*
X-48005Y-59148D01*
X-49800Y-58971D01*
X-50000Y-58991D01*
X-50200Y-58971D01*
X-51182Y-59068D01*
X-83000Y-27250D01*
Y-23750D01*
X-62000D01*
X-50500Y-23750D01*
D02*
G37*
%LPC*%
G36*
X91845Y77250D02*
X90155D01*
X88593Y76603D01*
X87808Y75818D01*
X87000Y75543D01*
X86192Y75818D01*
X85407Y76603D01*
X83845Y77250D01*
X82155D01*
X80593Y76603D01*
X79397Y75407D01*
X78750Y73845D01*
Y72155D01*
X79397Y70593D01*
X80593Y69397D01*
X82155Y68750D01*
X83845D01*
X85407Y69397D01*
X86192Y70182D01*
X87000Y70457D01*
X87808Y70182D01*
X88593Y69397D01*
X90155Y68750D01*
X91845D01*
X93407Y69397D01*
X94603Y70593D01*
X95250Y72155D01*
Y73845D01*
X94603Y75407D01*
X93407Y76603D01*
X91845Y77250D01*
D02*
G37*
G36*
X67522Y73926D02*
X65831D01*
X64269Y73279D01*
X63073Y72084D01*
X62426Y70522D01*
Y68831D01*
X63073Y67269D01*
X64269Y66073D01*
X65831Y65426D01*
X67522D01*
X69084Y66073D01*
X70279Y67269D01*
X70926Y68831D01*
Y70522D01*
X70279Y72084D01*
X69084Y73279D01*
X67522Y73926D01*
D02*
G37*
G36*
X46845Y250D02*
X45155D01*
X43593Y-397D01*
X42397Y-1593D01*
X41750Y-3155D01*
Y-4845D01*
X42397Y-6407D01*
X43593Y-7603D01*
X45155Y-8250D01*
X46845D01*
X48407Y-7603D01*
X49603Y-6407D01*
X50250Y-4845D01*
Y-3155D01*
X49603Y-1593D01*
X48407Y-397D01*
X46845Y250D01*
D02*
G37*
G36*
X-178250Y45789D02*
X-179030Y45634D01*
X-179692Y45192D01*
X-179692Y45192D01*
X-181692Y43192D01*
X-181692Y43192D01*
X-182134Y42530D01*
X-182289Y41750D01*
X-182289Y19500D01*
X-182134Y18720D01*
X-181692Y18058D01*
X-181692Y18058D01*
X-157386Y-6247D01*
Y-65153D01*
X-157387Y-65153D01*
X-157231Y-65933D01*
X-156789Y-66595D01*
X-156789Y-66595D01*
X-150528Y-72856D01*
X-149867Y-73298D01*
X-149086Y-73453D01*
X-114664D01*
X-113883Y-73298D01*
X-113222Y-72856D01*
X-113222Y-72856D01*
X-111227Y-70861D01*
X-110785Y-70199D01*
X-110630Y-69419D01*
X-110630Y-60708D01*
X-110630Y-60708D01*
X-110785Y-59927D01*
X-111227Y-59266D01*
X-111227Y-59266D01*
X-113284Y-57209D01*
X-113284Y-57209D01*
X-113945Y-56767D01*
X-114726Y-56611D01*
X-124006Y-56611D01*
X-129961Y-50656D01*
Y11750D01*
X-130116Y12530D01*
X-130558Y13192D01*
X-130558Y13192D01*
X-140239Y22873D01*
Y41279D01*
X-140239Y41279D01*
X-140395Y42059D01*
X-140837Y42721D01*
X-143308Y45192D01*
X-143970Y45634D01*
X-144750Y45789D01*
X-178250D01*
X-178250Y45789D01*
D02*
G37*
%LPD*%
G36*
X-142279Y41279D02*
Y22029D01*
X-132000Y11750D01*
Y-51501D01*
X-124850Y-58651D01*
X-114726Y-58651D01*
X-112669Y-60708D01*
X-112669Y-69419D01*
X-114664Y-71414D01*
X-149086D01*
X-155347Y-65153D01*
Y-5403D01*
X-180250Y19500D01*
X-180250Y41750D01*
X-178250Y43750D01*
X-144750D01*
X-142279Y41279D01*
D02*
G37*
%LPC*%
G36*
X80595Y8250D02*
X78905D01*
X77343Y7603D01*
X76147Y6407D01*
X75500Y4845D01*
Y3155D01*
X76147Y1593D01*
X77343Y397D01*
X78905Y-250D01*
X80595D01*
X82157Y397D01*
X83353Y1593D01*
X84000Y3155D01*
Y4845D01*
X83353Y6407D01*
X82157Y7603D01*
X80595Y8250D01*
D02*
G37*
%LPD*%
D11*
X140007Y-43142D02*
X145000Y-48135D01*
X140007Y-43142D02*
Y-43007D01*
X145000Y-110000D02*
Y-48135D01*
X135142Y-49732D02*
Y-49597D01*
Y-49732D02*
X137580Y-52170D01*
Y-83263D02*
Y-52170D01*
X-46278Y112200D02*
X21800D01*
X45000Y89000D01*
X112515D01*
X47485Y95000D02*
X115000D01*
X25500Y116985D02*
Y126500D01*
Y116985D02*
X47485Y95000D01*
X101000Y17000D02*
X108080Y9920D01*
Y168D02*
Y9920D01*
X106075Y-108926D02*
Y-10323D01*
X100075Y-57925D02*
Y-7838D01*
X106075Y-10323D02*
X114080Y-2317D01*
X100075Y-7838D02*
X108080Y168D01*
X92500Y-86000D02*
Y-83343D01*
Y-86000D02*
X95000Y-88500D01*
X92495Y-83338D02*
X92500Y-83343D01*
X95000Y-110000D02*
Y-88500D01*
X92495Y-83338D02*
Y-65505D01*
X100075Y-57925D01*
X126500Y-108500D02*
Y-79500D01*
X131580Y-74420D02*
Y-58715D01*
X126500Y-79500D02*
X131580Y-74420D01*
X137500Y-83343D02*
X137580Y-83263D01*
X135000Y-110000D02*
Y-88500D01*
X137500Y-86000D01*
Y-83343D01*
X18000Y67000D02*
X56000D01*
X17000Y68000D02*
X18000Y67000D01*
X98000Y31000D02*
X114080Y14920D01*
Y-2317D02*
Y14920D01*
X80398Y60000D02*
X128302Y12096D01*
X10500Y60000D02*
X80398D01*
X184210Y-12000D02*
X191000Y-5210D01*
Y65735D01*
X175035Y81700D02*
X191000Y65735D01*
X112515Y89000D02*
X125815Y75700D01*
X172550D02*
X184306Y63944D01*
X125815Y75700D02*
X172550D01*
X128300Y81700D02*
X175035D01*
X115000Y95000D02*
X128300Y81700D01*
X112210Y-77034D02*
Y-70188D01*
X112075Y-82795D02*
Y-77170D01*
X105000Y-110000D02*
X106075Y-108926D01*
X112075Y-82795D02*
X113500Y-84220D01*
Y-108500D02*
Y-84220D01*
X112075Y-77170D02*
X112210Y-77034D01*
X184306Y53096D02*
Y63944D01*
X184210Y53000D02*
X184306Y53096D01*
X129904Y12096D02*
X130000Y12000D01*
X128302Y12096D02*
X129904D01*
X20000Y132000D02*
X25500Y126500D01*
X-46311Y112233D02*
X-46278Y112200D01*
X-77021Y81981D02*
X-71213Y87790D01*
X-41813Y105317D02*
X-41720Y105410D01*
X-74317Y105317D02*
X-41813D01*
X-68000Y81000D02*
X-48385D01*
X-41385Y74000D01*
X-46689Y87790D02*
X-38899Y80000D01*
X-71213Y87790D02*
X-46689D01*
X8500Y62000D02*
X10500Y60000D01*
X-80000Y125000D02*
Y132000D01*
Y125000D02*
X-72800Y117800D01*
Y116403D02*
Y117800D01*
Y116403D02*
X-68505Y112107D01*
X-59891D01*
X-77000Y108000D02*
X-74317Y105317D01*
X-83769Y73096D02*
X-82302D01*
X-83865Y73000D02*
X-83769Y73096D01*
X-82302D02*
X-77021Y78377D01*
X112210Y-70188D02*
X119302Y-63096D01*
X123904D02*
X124000Y-63000D01*
X119302Y-63096D02*
X123904D01*
X129000Y-56135D02*
X131580Y-58715D01*
X129000Y-56135D02*
Y-56000D01*
X125000Y-110000D02*
X126500Y-108500D01*
X113500D02*
X115000Y-110000D01*
X-38899Y80000D02*
X-12500D01*
X-77021Y78377D02*
Y81981D01*
X-24397Y74000D02*
X-14898Y64500D01*
X-41385Y74000D02*
X-24397D01*
X-87000Y108000D02*
X-77000D01*
X-94500Y115500D02*
X-87000Y108000D01*
X-100000Y130000D02*
Y132000D01*
Y130000D02*
X-94500Y124500D01*
Y115500D02*
Y124500D01*
X-14898Y64500D02*
X-11000D01*
X-8500Y62000D01*
X8750Y32000D02*
X46000D01*
X9404Y-12904D02*
X17904D01*
X8500Y-12000D02*
X9404Y-12904D01*
X17904D02*
X18000Y-13000D01*
D15*
X27250Y86750D02*
X27500Y87000D01*
X-3000Y86750D02*
X27250D01*
X-11000Y78750D02*
X-3000Y86750D01*
X-11000Y78500D02*
Y78750D01*
D19*
X5000Y95500D02*
D03*
Y78500D02*
D03*
X21000Y95500D02*
D03*
Y78500D02*
D03*
X-11000D02*
D03*
Y95500D02*
D03*
D22*
X155000Y-110000D02*
D03*
X165000D02*
D03*
X145000D02*
D03*
X135000D02*
D03*
X125000D02*
D03*
X115000D02*
D03*
X105000D02*
D03*
X95000D02*
D03*
X85000D02*
D03*
X75000D02*
D03*
X65000D02*
D03*
X55000D02*
D03*
X45000D02*
D03*
X35000D02*
D03*
X25000D02*
D03*
X15000D02*
D03*
X5000D02*
D03*
X-5000D02*
D03*
X-15000D02*
D03*
X-25000D02*
D03*
X-35000D02*
D03*
X-65000D02*
D03*
X-75000D02*
D03*
X-85000D02*
D03*
X-95000D02*
D03*
X-105000D02*
D03*
X-115000D02*
D03*
X-125000D02*
D03*
X-135000D02*
D03*
X-145000D02*
D03*
X-155000D02*
D03*
D23*
X-165000Y-103000D02*
D03*
D24*
X8500Y62000D02*
D03*
X-8500D02*
D03*
X-8500Y-12000D02*
D03*
X8500D02*
D03*
X-8500Y32000D02*
D03*
X8500D02*
D03*
X-8500Y18000D02*
D03*
X8500D02*
D03*
Y-26000D02*
D03*
X-8500D02*
D03*
X8500Y2000D02*
D03*
X-8500D02*
D03*
Y46000D02*
D03*
X8500D02*
D03*
D45*
X73276Y27000D02*
X76000D01*
X79728Y36000D02*
X92000Y23728D01*
Y-28871D02*
Y23728D01*
X84995Y-35877D02*
X92000Y-28871D01*
X84995Y-86444D02*
Y-35877D01*
Y-86444D02*
X85000Y-86450D01*
Y-110000D02*
Y-86450D01*
X165000Y-110000D02*
Y48641D01*
X155000Y-110000D02*
Y51500D01*
X170572Y67072D01*
X165000Y48641D02*
X176806Y60447D01*
X67290Y-29072D02*
Y-15521D01*
X66710Y20434D02*
X73276Y27000D01*
X66710Y-14941D02*
X67290Y-15521D01*
X66710Y-14941D02*
Y20434D01*
X76000Y36000D02*
X79728D01*
X75000Y-110000D02*
Y-36782D01*
X67290Y-29072D02*
X75000Y-36782D01*
X65000Y-110000D02*
Y-70000D01*
X55000Y-110000D02*
Y-70000D01*
X65000Y-70000D02*
X65000Y-70000D01*
X55000Y-70000D02*
X55000Y-70000D01*
D46*
X-43376Y95790D02*
X-35626Y88040D01*
X-78359Y95790D02*
X-43376D01*
X-35626Y88040D02*
X-26954D01*
X-80359Y97790D02*
X-78359Y95790D01*
X-94210Y97790D02*
X-80359D01*
X-96000Y96000D02*
X-94210Y97790D01*
D47*
X-8500Y18000D02*
Y32000D01*
Y46000D01*
X-8500Y46000D01*
X-8500Y-12000D02*
Y2000D01*
Y-26000D02*
Y-12000D01*
Y2000D02*
X-8500Y2000D01*
D48*
X18500Y46000D02*
X22750Y50250D01*
X8500Y46000D02*
X18500D01*
X18000Y2000D02*
X36000Y-16000D01*
X8500Y2000D02*
X18000D01*
D49*
X165000Y115000D02*
D03*
D50*
X120000Y130000D02*
D03*
X100000D02*
D03*
X80000D02*
D03*
X60000D02*
D03*
X40000D02*
D03*
X20000D02*
D03*
X0D02*
D03*
X-20000D02*
D03*
X-40000D02*
D03*
X-60000D02*
D03*
X-80000D02*
D03*
X-100000D02*
D03*
X-120000D02*
D03*
X-140000D02*
D03*
X-160000D02*
D03*
D51*
X-25000Y-55000D02*
D03*
X140007Y-43007D02*
D03*
X135142Y-49597D02*
D03*
X-131000Y109000D02*
D03*
X-137000Y34000D02*
D03*
X64000Y53000D02*
D03*
X76000Y27000D02*
D03*
Y36000D02*
D03*
X122000Y35000D02*
D03*
X115000D02*
D03*
X74000Y75000D02*
D03*
X135000Y130000D02*
D03*
X59000Y-54000D02*
D03*
X101000Y17000D02*
D03*
X82000Y18000D02*
D03*
X98000Y31000D02*
D03*
X83710Y-11000D02*
D03*
X56000Y67000D02*
D03*
X132000Y107000D02*
D03*
X139000Y138000D02*
D03*
X188000Y82000D02*
D03*
X189000Y91000D02*
D03*
X190000Y-50000D02*
D03*
X185000Y-56000D02*
D03*
X32000Y-36000D02*
D03*
X31000Y-29000D02*
D03*
X-101000Y108000D02*
D03*
X-107000D02*
D03*
Y102000D02*
D03*
X-190000Y21000D02*
D03*
Y28000D02*
D03*
Y35000D02*
D03*
Y42000D02*
D03*
Y49000D02*
D03*
Y56000D02*
D03*
X-179000Y131000D02*
D03*
X-187000Y124000D02*
D03*
X-27000Y67000D02*
D03*
Y61000D02*
D03*
X115500Y-44250D02*
D03*
X173750Y-37250D02*
D03*
X181109Y-20319D02*
D03*
X184210Y-12000D02*
D03*
Y12000D02*
D03*
X181000Y4500D02*
D03*
X184210Y20000D02*
D03*
X170572Y67072D02*
D03*
X176806Y60447D02*
D03*
X119000Y-79000D02*
D03*
X99285Y-73972D02*
D03*
X180290Y-4000D02*
D03*
X184210Y53000D02*
D03*
X66676Y69676D02*
D03*
X46000Y75000D02*
D03*
X79750Y4000D02*
D03*
X75920Y-11080D02*
D03*
X82000Y12000D02*
D03*
X93285Y-40688D02*
D03*
X115000Y-11000D02*
D03*
X101290Y5000D02*
D03*
X120870Y8000D02*
D03*
X76000Y18000D02*
D03*
Y12000D02*
D03*
X91000Y73000D02*
D03*
X-41720Y105410D02*
D03*
X107000Y43000D02*
D03*
X115000D02*
D03*
X-46311Y112233D02*
D03*
X-59891Y112107D02*
D03*
X-68400Y81000D02*
D03*
X-84000Y73000D02*
D03*
X130000Y12000D02*
D03*
X121000Y-71000D02*
D03*
X124000Y-63000D02*
D03*
X129000Y-56000D02*
D03*
X122960Y-11000D02*
D03*
X123000Y43000D02*
D03*
X130301Y36301D02*
D03*
X83000Y73000D02*
D03*
X39000Y75000D02*
D03*
X130000Y-11000D02*
D03*
X-33000Y67000D02*
D03*
X21000Y93210D02*
D03*
X5000D02*
D03*
X-11000D02*
D03*
X-25000Y22000D02*
D03*
X-18237Y16979D02*
D03*
X-33000Y22000D02*
D03*
X46000Y47000D02*
D03*
X-107000Y96000D02*
D03*
Y90000D02*
D03*
X-84000Y81000D02*
D03*
X-68400Y73000D02*
D03*
X-84000Y89000D02*
D03*
X-96000Y90000D02*
D03*
X-33000Y61000D02*
D03*
X39044Y46956D02*
D03*
X-96000Y96000D02*
D03*
X-21000Y61000D02*
D03*
X46000Y32000D02*
D03*
X36000Y-16000D02*
D03*
X30000Y-10000D02*
D03*
X65000Y-51000D02*
D03*
Y-57000D02*
D03*
Y-63000D02*
D03*
X46000Y-4000D02*
D03*
X18000Y-13000D02*
D03*
X25000Y-23000D02*
D03*
Y-29000D02*
D03*
X19000Y-23000D02*
D03*
X20000Y-37000D02*
D03*
X59000Y-26000D02*
D03*
X46000Y40000D02*
D03*
X-131008Y62992D02*
D03*
X-131000Y56000D02*
D03*
X-180000Y77000D02*
D03*
Y89000D02*
D03*
Y83000D02*
D03*
X-113000Y96000D02*
D03*
Y90000D02*
D03*
X-145000Y59000D02*
D03*
X-152000D02*
D03*
Y66000D02*
D03*
X-159000Y40000D02*
D03*
X-165000D02*
D03*
X-147000D02*
D03*
Y34000D02*
D03*
X-153000Y40000D02*
D03*
X-165000Y-62000D02*
D03*
X-177000Y-56000D02*
D03*
X-183000D02*
D03*
X-116000Y-62000D02*
D03*
Y-68000D02*
D03*
X-152000Y-62000D02*
D03*
Y-56000D02*
D03*
X-128000Y-62000D02*
D03*
X-71000Y-72000D02*
D03*
X-83000D02*
D03*
X-89000D02*
D03*
X-83000Y-66000D02*
D03*
X-89000D02*
D03*
X-95000D02*
D03*
X-77000Y-72000D02*
D03*
X-71000Y-66000D02*
D03*
X-65000D02*
D03*
X-77000D02*
D03*
X-89000Y-60000D02*
D03*
X-71000D02*
D03*
X-83000D02*
D03*
X-65000D02*
D03*
X-77000D02*
D03*
X-95000D02*
D03*
X-65000Y-54000D02*
D03*
X-77000D02*
D03*
Y-48000D02*
D03*
X-71000D02*
D03*
Y-54000D02*
D03*
X-77000Y-42000D02*
D03*
X-20000Y-15000D02*
D03*
Y-9000D02*
D03*
X-26000D02*
D03*
X-32000Y-3000D02*
D03*
X-26000D02*
D03*
X-20000D02*
D03*
Y3000D02*
D03*
X-26000D02*
D03*
X-32000D02*
D03*
X44000Y-61000D02*
D03*
X38000D02*
D03*
X26000D02*
D03*
X32000D02*
D03*
X26000Y-55000D02*
D03*
X32000D02*
D03*
X38000D02*
D03*
X20000D02*
D03*
Y-49000D02*
D03*
X26000D02*
D03*
X32000D02*
D03*
X14000D02*
D03*
Y-43000D02*
D03*
X20000D02*
D03*
X26000D02*
D03*
X8000D02*
D03*
Y-37000D02*
D03*
X14000D02*
D03*
X2000D02*
D03*
X-79000Y-25000D02*
D03*
X-73000D02*
D03*
X-67000D02*
D03*
X-73000Y-31000D02*
D03*
X-67000Y-37000D02*
D03*
Y-31000D02*
D03*
X-61000D02*
D03*
X-55000D02*
D03*
X-49000D02*
D03*
X-61000Y-43000D02*
D03*
X-55000Y-49000D02*
D03*
X-49000Y-55000D02*
D03*
X-19000Y-61000D02*
D03*
X-25000D02*
D03*
X-37000D02*
D03*
X-31000D02*
D03*
X-37000Y-55000D02*
D03*
X-31000D02*
D03*
X-43000D02*
D03*
Y-49000D02*
D03*
X-37000D02*
D03*
X-31000D02*
D03*
X-49000D02*
D03*
Y-43000D02*
D03*
X-43000D02*
D03*
X-37000D02*
D03*
X-55000D02*
D03*
Y-37000D02*
D03*
X-49000D02*
D03*
X-43000D02*
D03*
X-61000D02*
D03*
X-41000Y-25000D02*
D03*
X-29000Y-19000D02*
D03*
X-23000Y-25000D02*
D03*
X-29000D02*
D03*
X-35000D02*
D03*
Y-31000D02*
D03*
X-23000D02*
D03*
X-29000D02*
D03*
Y-37000D02*
D03*
X-11000D02*
D03*
X-17000D02*
D03*
X-23000D02*
D03*
Y-43000D02*
D03*
X-5000D02*
D03*
X-11000D02*
D03*
X-17000D02*
D03*
Y-49000D02*
D03*
X1000D02*
D03*
X-5000D02*
D03*
X-11000D02*
D03*
Y-55000D02*
D03*
X7000D02*
D03*
X1000D02*
D03*
X-5000D02*
D03*
X1000Y-61000D02*
D03*
X-5000D02*
D03*
X7000D02*
D03*
X13000D02*
D03*
X-171000Y-26000D02*
D03*
X-122000Y-68000D02*
D03*
Y-62000D02*
D03*
X-177000Y34000D02*
D03*
Y40000D02*
D03*
X-171000Y34000D02*
D03*
Y40000D02*
D03*
X-165000Y34000D02*
D03*
X-159000D02*
D03*
X-153000D02*
D03*
X-146000Y-68000D02*
D03*
Y-56000D02*
D03*
Y-62000D02*
D03*
X-134000Y-68000D02*
D03*
X-140000D02*
D03*
Y-62000D02*
D03*
X-134000D02*
D03*
X-128000Y-68000D02*
D03*
X-134000Y-56000D02*
D03*
X-140000D02*
D03*
X-165000D02*
D03*
X-171000D02*
D03*
X-189000Y10000D02*
D03*
X-177000Y-26000D02*
D03*
X-183000D02*
D03*
X-189000Y4000D02*
D03*
X-183000D02*
D03*
Y-2000D02*
D03*
Y-20000D02*
D03*
X-189000D02*
D03*
Y-14000D02*
D03*
Y-8000D02*
D03*
Y-2000D02*
D03*
X-183000Y-14000D02*
D03*
Y-8000D02*
D03*
X-189000Y-26000D02*
D03*
Y-50000D02*
D03*
Y-44000D02*
D03*
Y-38000D02*
D03*
Y-32000D02*
D03*
X-165000Y-26000D02*
D03*
D52*
X-82000Y30700D02*
D03*
X-88700D02*
D03*
X-75300D02*
D03*
X-88700Y17300D02*
D03*
X-82000D02*
D03*
X-75300D02*
D03*
Y24000D02*
D03*
X-88700D02*
D03*
X-82000D02*
D03*
D53*
X175160Y134050D02*
D03*
X181764Y128970D02*
D03*
X185828Y121604D02*
D03*
X143000Y111000D02*
D03*
X167540Y136590D02*
D03*
X185066Y104840D02*
D03*
X173636Y94934D02*
D03*
X180494Y98744D02*
D03*
X164746Y92902D02*
D03*
X157380Y94680D02*
D03*
X146204Y103824D02*
D03*
X151000Y98000D02*
D03*
X158650Y136336D02*
D03*
X151284Y133034D02*
D03*
X146204Y127192D02*
D03*
X143156Y119572D02*
D03*
X187098Y113476D02*
D03*
D54*
X-26954Y88040D02*
D03*
X22750Y50250D02*
D03*
X65000Y-70000D02*
D03*
Y-79000D02*
D03*
X55000D02*
D03*
Y-70000D02*
D03*
X35000Y-79000D02*
D03*
X-16000Y-70000D02*
D03*
Y-79000D02*
D03*
X-25000D02*
D03*
X-4000Y-70000D02*
D03*
X14000D02*
D03*
X26000D02*
D03*
X5000D02*
D03*
X44000D02*
D03*
X35000D02*
D03*
X26000Y-79000D02*
D03*
X44000D02*
D03*
X14000Y-79000D02*
D03*
X5000D02*
D03*
X-4000D02*
D03*
X-34000Y-70000D02*
D03*
X-25000D02*
D03*
X-34000Y-79000D02*
D03*
D55*
X-82000Y24000D02*
D03*
D56*
X-6625Y18000D02*
D03*
Y-26000D02*
D03*
D57*
X6625Y18000D02*
D03*
Y-26000D02*
D03*
D58*
Y2000D02*
D03*
Y46000D02*
D03*
D59*
X-6625Y2000D02*
D03*
Y46000D02*
D03*
D60*
X38383Y87000D02*
X42133Y83250D01*
X27500Y87000D02*
X38383D01*
X42133Y83250D02*
X110133D01*
X7750Y75500D02*
X9553D01*
X12750Y72197D02*
X14750Y70197D01*
X9553Y75500D02*
X12750Y72303D01*
X17000Y68000D02*
Y68053D01*
X12750Y72197D02*
Y72303D01*
X14750Y70197D02*
X14857D01*
X17000Y68053D01*
X5000Y78250D02*
X7750Y75500D01*
X110133Y83250D02*
X130301Y63082D01*
Y36301D02*
Y63082D01*
X-12500Y80000D02*
X-11000Y78500D01*
X5000Y78250D02*
Y78500D01*
M02*
